Initial state: time=0.0, a=*, a.x=0

Transition: event a.u
State: time=0.0, a=*, a.x=1

Transition: event a.c
State: time=0.0, a=*, a.x=2

Transition: event a.u
State: time=0.0, a=*, a.x=3

Transition: event a.u
State: time=0.0, a=*, a.x=4

Transition: event a.c
State: time=0.0, a=*, a.x=5

Simulation resulted in deadlock.
