Initial state: time=0.0, g.i=0, i=false, j=false

Transition: delaying for 10.0 time units at time 0.0
State: time=10.0, g.i=0, i=false, j=false

Transition: delaying for 10.0 time units at time 10.0
State: time=20.0, g.i=0, i=false, j=false

Simulation ended due to reaching the user-provided simulation end time.
