Loading CIF specification "controllercheck/mdd/disabled_evts.cif".
Checking for bounded response:
    Converting CIF specification to a BDD representation:
        The specification has no BDD variables.

        Restricting system behavior using state/event exclusion plant invariants:
            No guards changed.

    Computing states we can be in at the start of uncontrollable and controllable event loops:
        Round 1:
            Pre input states: true
            Pre uncontrollables states: false
            Pre controllables states: false

            Applying event loop for input variable events:
                No input variable events.

            Pre uncontrollables states: false -> true

            Applying event loop for uncontrollable events:
                No uncontrollable events.

            Pre controllables states: false -> true

            Applying event loop for controllable events:
                No controllable events.

        Round 2:
            Pre input states: true
            Pre uncontrollables states: true
            Pre controllables states: true

            Applying event loop for input variable events:
                No input variable events.

            Applying event loop for uncontrollable events:
                No uncontrollable events.

            Applying event loop for controllable events:
                No controllable events.

    Computing bound for uncontrollable events:
        No uncontrollable events.

        Bound: 0.

    Computing bound for controllable events:
        No controllable events.

        Bound: 0.

    Bounded response check completed.

CONCLUSION:
    [OK] The specification has bounded response:

        - No transitions are possible for uncontrollable events.
        - No transitions are possible for controllable events.

    [UNKNOWN] Non-blocking under control checking was disabled, non-blocking under control property is unknown.
    [UNKNOWN] Finite response checking was disabled, finite response property is unknown.
    [UNKNOWN] Confluence checking was disabled, confluence property is unknown.

The model with the check results has been written to "controllercheck/mdd/disabled_evts.Bxxx.out.cif.real".
