WARNING: The alphabet of the specification contains no uncontrollable events.
ERROR: CIF controller properties checker failed due to unsatisfied preconditions:
 - Unsupported linearized edges with non-determinism detected for edges of controllable event "p.a" with overlapping guards: "p.x", "not p.x or p.y".
 - Unsupported linearized edges with non-determinism detected for edges of controllable event "p.c" with overlapping guards: "p.v >= 1", "p.v = 3", "p.v <= 4".
