WARNING: The input specification has no controller properties annotation that specifies the bounded response property.
WARNING: The input specification has no controller properties annotation that specifies the confluence property.
WARNING: The input specification has no controller properties annotation that specifies the non-blocking under control property.
WARNING: Before generating PLC code, the bounded response, confluence and non-blocking under control properties of the CIF specification should be checked and should hold.
WARNING: Please apply the CIF controller properties checker on the CIF specification before generating PLC code from it.
WARNING: Using control code generated from a CIF specification without bounded response, confluence or non-blocking under control properties may result in undesired or unexpected behavior of the controlled system.
WARNING: Bounded response limit for uncontrollable events is not available, falling back to limitless trying of events until blocked.
WARNING: Bounded response limit for controllable events is not available, falling back to limitless trying of events until blocked.
WARNING: Maximum real type size supported by the PLC is less than the CIF real type size. Some values in the program may be truncated.
WARNING: I/O table file "plcgen/execution/names_general.csv" not found. The PLC code will not perform any I/O with the environment.
WARNING: Renaming "g.z" to "g_z_1".
WARNING: Renaming "g.w_W" to "g_w_W_1".
WARNING: Renaming "g_a.X" to "g_a_X_1".
WARNING: Renaming "_" to "x_1".
WARNING: Renaming "type" to "type_1".
WARNING: Renaming "abs" to "abs_1".
WARNING: Renaming "bool" to "bool_1".
WARNING: Renaming "any" to "any_1".
WARNING: Renaming "int_to_real" to "int_to_real_1".
