WARNING: File "plcgen/execution/sync_events_funcs_scope.cif": Semantic warning at line 120, column 12: The alphabet of automaton "sync04b" globally disables event "c_sync04", as the event is not used on any of the edges of the automaton.
WARNING: File "plcgen/execution/sync_events_funcs_scope.cif": Semantic warning at line 181, column 12: Automaton "sync06b" monitors event "c_sync06a", but the event is not used on any of the edges of the automaton.
WARNING: File "plcgen/execution/sync_events_funcs_scope.cif": Semantic warning at line 248, column 10: Duplicate event "c_sync08" on a single edge in automaton "sync08b".
WARNING: File "plcgen/execution/sync_events_funcs_scope.cif": Semantic warning at line 248, column 20: Duplicate event "c_sync08" on a single edge in automaton "sync08b".
WARNING: The input specification has no controller properties annotation that specifies the bounded response property.
WARNING: The input specification has no controller properties annotation that specifies the confluence property.
WARNING: The input specification has no controller properties annotation that specifies the non-blocking under control property.
WARNING: Before generating PLC code, the bounded response, confluence and non-blocking under control properties of the CIF specification should be checked and should hold.
WARNING: Please apply the CIF controller properties checker on the CIF specification before generating PLC code from it.
WARNING: Using control code generated from a CIF specification without bounded response, confluence or non-blocking under control properties may result in undesired or unexpected behavior of the controlled system.
WARNING: Bounded response limit for uncontrollable events is not available, falling back to limitless trying of events until blocked.
WARNING: Bounded response limit for controllable events is not available, falling back to limitless trying of events until blocked.
WARNING: Maximum real type size supported by the PLC is less than the CIF real type size. Some values in the program may be truncated.
WARNING: I/O table file "plcgen/execution/sync_events_funcs_scope.csv" not found. The PLC code will not perform any I/O with the environment.
