Reading CIF file "datasynth/asgn_div.cif".

Preprocessing CIF specification (includes checking that the specification is supported).

Converting CIF specification to internal format (BDDs):
    CIF variables and location pointers:
        Nr     Kind               Type       Name  Group  BDD vars  CIF values  BDD values  Values used
        -----  -----------------  ---------  ----  -----  --------  ----------  ----------  -----------
        1      location pointer   n/a        p     0      1 * 2     2 * 2       2 * 2       100%
        2      discrete variable  int[0..4]  p.d1  1      3 * 2     5 * 2       8 * 2       ~63%
        3      discrete variable  int[0..4]  p.d2  2      3 * 2     5 * 2       8 * 2       ~63%
        4      discrete variable  int[0..4]  p.d3  3      3 * 2     5 * 2       8 * 2       ~63%
        5      discrete variable  int[0..4]  p.d4  4      3 * 2     5 * 2       8 * 2       ~63%
        6      discrete variable  int[0..4]  p.d5  5      3 * 2     5 * 2       8 * 2       ~63%
        -----  -----------------  ---------  ----  -----  --------  ----------  ----------  -----------
        Total                                      6      32        54          84          ~64%

    Applying variable ordering:
        Applying 4 orderers, sequentially:
            Applying model variable order:
                Effect: both

            Applying DCSH algorithm:
                Metric: wes
                Relations: legacy
                Effect: var-order
                Number of hyper-edges: 10

                Applying Weighted Cuthill-McKee algorithm:
                    Node finder: george-liu
                    Relations: legacy
                    Effect: var-order
                    Number of graph edges: 5

                    Total span:   15 (total)   1.50 (avg/edge) / WES:   0.472222 (total)   0.047222 (avg/edge) [before]
                    Total span:   11 (total)   1.10 (avg/edge) / WES:   0.388889 (total)   0.038889 (avg/edge) [after]

                Found new best variable order.

                Applying Sloan algorithm:
                    Relations: legacy
                    Effect: var-order
                    Number of graph edges: 5

                    Total span:   15 (total)   1.50 (avg/edge) / WES:   0.472222 (total)   0.047222 (avg/edge) [before]
                    Total span:   11 (total)   1.10 (avg/edge) / WES:   0.427778 (total)   0.042778 (avg/edge) [after]

                Applying 2 orderers, sequentially:
                    Applying Weighted Cuthill-McKee algorithm:
                        Node finder: george-liu
                        Relations: legacy
                        Effect: var-order
                        Number of graph edges: 5

                        Total span:   15 (total)   1.50 (avg/edge) / WES:   0.472222 (total)   0.047222 (avg/edge) [before]
                        Total span:   11 (total)   1.10 (avg/edge) / WES:   0.388889 (total)   0.038889 (avg/edge) [after]

                    Reversing the variable order:
                        Relations: legacy
                        Effect: var-order
                        Number of hyper-edges: 10

                        Total span:   11 (total)   1.10 (avg/edge) / WES:   0.388889 (total)   0.038889 (avg/edge) [before]
                        Total span:   11 (total)   1.10 (avg/edge) / WES:   0.388889 (total)   0.038889 (avg/edge) [reversed]

                Applying 2 orderers, sequentially:
                    Applying Sloan algorithm:
                        Relations: legacy
                        Effect: var-order
                        Number of graph edges: 5

                        Total span:   15 (total)   1.50 (avg/edge) / WES:   0.472222 (total)   0.047222 (avg/edge) [before]
                        Total span:   11 (total)   1.10 (avg/edge) / WES:   0.427778 (total)   0.042778 (avg/edge) [after]

                    Reversing the variable order:
                        Relations: legacy
                        Effect: var-order
                        Number of hyper-edges: 10

                        Total span:   11 (total)   1.10 (avg/edge) / WES:   0.427778 (total)   0.042778 (avg/edge) [before]
                        Total span:   11 (total)   1.10 (avg/edge) / WES:   0.427778 (total)   0.042778 (avg/edge) [reversed]

            Applying FORCE algorithm:
                Metric: total-span
                Relations: linearized
                Effect: var-order
                Number of hyper-edges: 5
                Maximum number of iterations: 20

                Total span:   11 (total)   2.20 (avg/edge) / WES:   0.622222 (total)   0.124444 (avg/edge) [before]
                Total span:    9 (total)   1.80 (avg/edge) / WES:   0.533333 (total)   0.106667 (avg/edge) [iteration 1]
                Total span:    9 (total)   1.80 (avg/edge) / WES:   0.533333 (total)   0.106667 (avg/edge) [iteration 2]
                Total span:    9 (total)   1.80 (avg/edge) / WES:   0.533333 (total)   0.106667 (avg/edge) [after]

            Applying sliding window algorithm:
                Size: 4
                Metric: total-span
                Relations: linearized
                Effect: var-order
                Number of hyper-edges: 5
                Window length: 4

                Total span:    9 (total)   1.80 (avg/edge) / WES:   0.533333 (total)   0.106667 (avg/edge) [before]
                Total span:    9 (total)   1.80 (avg/edge) / WES:   0.533333 (total)   0.106667 (avg/edge) [after]

    Variable order changed.

    CIF variables and location pointers:
        Nr     Kind               Type       Name  Group  BDD vars  CIF values  BDD values  Values used
        -----  -----------------  ---------  ----  -----  --------  ----------  ----------  -----------
        1      discrete variable  int[0..4]  p.d1  0      3 * 2     5 * 2       8 * 2       ~63%
        2      discrete variable  int[0..4]  p.d2  1      3 * 2     5 * 2       8 * 2       ~63%
        3      location pointer   n/a        p     2      1 * 2     2 * 2       2 * 2       100%
        4      discrete variable  int[0..4]  p.d3  3      3 * 2     5 * 2       8 * 2       ~63%
        5      discrete variable  int[0..4]  p.d4  4      3 * 2     5 * 2       8 * 2       ~63%
        6      discrete variable  int[0..4]  p.d5  5      3 * 2     5 * 2       8 * 2       ~63%
        -----  -----------------  ---------  ----  -----  --------  ----------  ----------  -----------
        Total                                      6      32        54          84          ~64%

Starting data-based synthesis.

Synthesis input:
    Invariant (components state plant inv):      true
    Invariant (locations state plant invariant): true
    Invariant (system state plant invariant):    true

    Invariant (components state req invariant):  true
    Invariant (locations state req invariant):   true
    Invariant (system state req invariant):      true

    Initial   (discrete variable 0):             true
    Initial   (discrete variable 1):             true
    Initial   (discrete variable 3):             true
    Initial   (discrete variable 4):             true
    Initial   (discrete variable 5):             true
    Initial   (discrete variables):              <bdd 15n 243p>
    Initial   (components init predicate):       true
    Initial   (aut/locs init predicate):         p.loc1
    Initial   (auts/locs init predicate):        p.loc1
    Initial   (uncontrolled system):             <bdd 16n 243p>
    Initial   (system, combined init/plant inv): <bdd 16n 243p>
    Initial   (system, combined init/state inv): <bdd 16n 243p>

    Marked    (components marker predicate):     true
    Marked    (aut/locs marker predicate):       p.d1 = 1 and (p.d2 = 1 and p.loc2) and (p.d3 = 1 and (p.d4 = 1 and p.d5 = 1))
    Marked    (auts/locs marker predicate):      p.d1 = 1 and (p.d2 = 1 and p.loc2) and (p.d3 = 1 and (p.d4 = 1 and p.d5 = 1))
    Marked    (uncontrolled system):             p.d1 = 1 and (p.d2 = 1 and p.loc2) and (p.d3 = 1 and (p.d4 = 1 and p.d5 = 1))
    Marked    (system, combined mark/plant inv): p.d1 = 1 and (p.d2 = 1 and p.loc2) and (p.d3 = 1 and (p.d4 = 1 and p.d5 = 1))
    Marked    (system, combined mark/state inv): p.d1 = 1 and (p.d2 = 1 and p.loc2) and (p.d3 = 1 and (p.d4 = 1 and p.d5 = 1))

    State/event exclusion plants:
        None

    State/event exclusion requirements:
        None

    Uncontrolled system:
        State: (controlled-behavior: ?)
            Edge: (event: p.ed1) (guard: p.loc1) (assignments: p.d1 := p.d1 div 1, p := p.loc2)
            Edge: (event: p.ed2) (guard: p.loc1) (assignments: p.d2 := p.d2 div 2, p := p.loc2)
            Edge: (event: p.ed3) (guard: p.loc1) (assignments: p.d3 := p.d3 div 3, p := p.loc2)
            Edge: (event: p.ed4) (guard: p.loc1) (assignments: p.d4 := p.d4 div 4, p := p.loc2)
            Edge: (event: p.ed5) (guard: p.loc1) (assignments: p.d5 := p.d5 div 5, p := p.loc2)

Checking input for potential problems.

Restricting edge guards to prevent runtime errors:
    No guards changed.

Restricting uncontrolled system behavior using state/event exclusion plant invariants:
    No guards changed.

Initializing edges for being applied.

Restricting uncontrolled system behavior using state plant invariants:
    No restrictions needed.

Initializing controlled behavior:
    Controlled-behavior predicate: true.
    Controlled-initialization predicate: <bdd 16n 243p>.

Restricting behavior using state requirements:
    Controlled behavior not changed.

Extending controlled-behavior predicate using variable ranges:
    Controlled behavior: true -> true [range: true, variable: discrete variable "p.d1" of type "int[0..4]" (group: 0, domain: 0+1, BDD variables: 3, CIF/BDD values: 5/8)].
    Controlled behavior: true -> true [range: true, variable: discrete variable "p.d2" of type "int[0..4]" (group: 1, domain: 2+3, BDD variables: 3, CIF/BDD values: 5/8)].
    Controlled behavior: true -> <bdd 9n 27p> [range: true, variable: discrete variable "p.d3" of type "int[0..4]" (group: 3, domain: 6+7, BDD variables: 3, CIF/BDD values: 5/8)].
    Controlled behavior: <bdd 9n 27p> -> <bdd 12n 81p> [range: true, variable: discrete variable "p.d4" of type "int[0..4]" (group: 4, domain: 8+9, BDD variables: 3, CIF/BDD values: 5/8)].
    Controlled behavior: <bdd 12n 81p> -> <bdd 15n 243p> [range: true, variable: discrete variable "p.d5" of type "int[0..4]" (group: 5, domain: 10+11, BDD variables: 3, CIF/BDD values: 5/8)].

    Extended controlled-behavior predicate using variable ranges: <bdd 15n 243p>.

Restricting behavior using state/event exclusion requirements:
    Guards and controlled behavior not changed.

Restricting behavior using implicit runtime error requirements:
    Controlled behavior not changed.

Re-initializing edges for being applied.

Checking pre-synthesis for events that are never enabled.

Synthesis round 1:
    Computing backward controlled-behavior predicate:
        Saturation matrix:
                    /-------------------------------- 1  p.d1#0
                    |/------------------------------- 2  p.d1#0+
                    ||/------------------------------ 3  p.d1#1
                    |||/----------------------------- 4  p.d1#1+
                    ||||/---------------------------- 5  p.d1#2
                    |||||/--------------------------- 6  p.d1#2+
                    ||||||/-------------------------- 7  p.d2#0
                    |||||||/------------------------- 8  p.d2#0+
                    ||||||||/------------------------ 9  p.d2#1
                    |||||||||/----------------------- 10 p.d2#1+
                    ||||||||||/---------------------- 11 p.d2#2
                    |||||||||||/--------------------- 12 p.d2#2+
                    ||||||||||||/-------------------- 13 p#0
                    |||||||||||||/------------------- 14 p#0+
                    ||||||||||||||/------------------ 15 p.d3#0
                    |||||||||||||||/----------------- 16 p.d3#0+
                    ||||||||||||||||/---------------- 17 p.d3#1
                    |||||||||||||||||/--------------- 18 p.d3#1+
                    ||||||||||||||||||/-------------- 19 p.d3#2
                    |||||||||||||||||||/------------- 20 p.d3#2+
                    ||||||||||||||||||||/------------ 21 p.d4#0
                    |||||||||||||||||||||/----------- 22 p.d4#0+
                    ||||||||||||||||||||||/---------- 23 p.d4#1
                    |||||||||||||||||||||||/--------- 24 p.d4#1+
                    ||||||||||||||||||||||||/-------- 25 p.d4#2
                    |||||||||||||||||||||||||/------- 26 p.d4#2+
                    ||||||||||||||||||||||||||/------ 27 p.d5#0
                    |||||||||||||||||||||||||||/----- 28 p.d5#0+
                    ||||||||||||||||||||||||||||/---- 29 p.d5#1
                    |||||||||||||||||||||||||||||/--- 30 p.d5#1+
                    ||||||||||||||||||||||||||||||/-- 31 p.d5#2
                    |||||||||||||||||||||||||||||||/- 32 p.d5#2+
            1 p.ed1 rwrwrw      rw
            2 p.ed2       rwrwrwrw
            3 p.ed3             rwrwrwrw
            4 p.ed4             rw      rwrwrw
            5 p.ed5             rw            rwrwrw

        Backward controlled-behavior: p.d1 = 1 and (p.d2 = 1 and p.loc2) and (p.d3 = 1 and (p.d4 = 1 and p.d5 = 1)) [marker predicate]
        Backward controlled-behavior: p.loc2 and p.d3 = 1 and (p.d4 = 1 and p.d5 = 1) -> p.loc1 and p.d3 = 4 and (p.d4 = 1 and p.d5 = 1) or (p.loc1 and p.d3 = 3 and (p.d4 = 1 and p.d5 = 1) or p.loc2 and p.d3 = 1 and (p.d4 = 1 and p.d5 = 1)) [backward reach using bounded saturation (transition: 3 of 5) (level: 13 of 32) with edge: (event: p.ed3) (guard: p.loc1) (assignments: p.d3 := p.d3 div 3, p := p.loc2)]
        Backward controlled-behavior: p.loc1 and p.d3 = 4 and (p.d4 = 1 and p.d5 = 1) or (p.loc1 and p.d3 = 3 and (p.d4 = 1 and p.d5 = 1) or p.loc2 and p.d3 = 1 and (p.d4 = 1 and p.d5 = 1)) -> p.loc1 and p.d3 = 4 and (p.d4 = 1 and p.d5 = 1) or p.loc1 and p.d3 = 1 and (p.d4 = 4 and p.d5 = 1) or (p.loc1 and p.d3 = 3 and (p.d4 = 1 and p.d5 = 1) or p.loc2 and p.d3 = 1 and (p.d4 = 1 and p.d5 = 1)) [backward reach using bounded saturation (transition: 4 of 5) (level: 13 of 32) with edge: (event: p.ed4) (guard: p.loc1) (assignments: p.d4 := p.d4 div 4, p := p.loc2)]
        Backward controlled-behavior: <bdd 21n 4p> -> <bdd 24n 6p> [backward reach using bounded saturation (transition: 2 of 5) (level: 7 of 32) with edge: (event: p.ed2) (guard: p.loc1) (assignments: p.d2 := p.d2 div 2, p := p.loc2)]
        Backward controlled-behavior: <bdd 27n 6p> -> <bdd 27n 7p> [backward reach using bounded saturation (transition: 1 of 5) (level: 1 of 32) with edge: (event: p.ed1) (guard: p.loc1) (assignments: p.d1 := p.d1 div 1, p := p.loc2)]

        Backward controlled-behavior: <bdd 27n 7p> [fixed point].

        Controlled behavior: <bdd 15n 243p> -> <bdd 27n 7p>.

    Computing backward uncontrolled bad-state predicate:
        Saturation matrix:
            No edges.

        Backward uncontrolled bad-state: <bdd 27n 62p> [current/previous controlled behavior predicate]

        Controlled behavior not changed.

    Computing forward controlled-behavior predicate:
        Saturation matrix:
                    /-------------------------------- 1  p.d1#0
                    |/------------------------------- 2  p.d1#0+
                    ||/------------------------------ 3  p.d1#1
                    |||/----------------------------- 4  p.d1#1+
                    ||||/---------------------------- 5  p.d1#2
                    |||||/--------------------------- 6  p.d1#2+
                    ||||||/-------------------------- 7  p.d2#0
                    |||||||/------------------------- 8  p.d2#0+
                    ||||||||/------------------------ 9  p.d2#1
                    |||||||||/----------------------- 10 p.d2#1+
                    ||||||||||/---------------------- 11 p.d2#2
                    |||||||||||/--------------------- 12 p.d2#2+
                    ||||||||||||/-------------------- 13 p#0
                    |||||||||||||/------------------- 14 p#0+
                    ||||||||||||||/------------------ 15 p.d3#0
                    |||||||||||||||/----------------- 16 p.d3#0+
                    ||||||||||||||||/---------------- 17 p.d3#1
                    |||||||||||||||||/--------------- 18 p.d3#1+
                    ||||||||||||||||||/-------------- 19 p.d3#2
                    |||||||||||||||||||/------------- 20 p.d3#2+
                    ||||||||||||||||||||/------------ 21 p.d4#0
                    |||||||||||||||||||||/----------- 22 p.d4#0+
                    ||||||||||||||||||||||/---------- 23 p.d4#1
                    |||||||||||||||||||||||/--------- 24 p.d4#1+
                    ||||||||||||||||||||||||/-------- 25 p.d4#2
                    |||||||||||||||||||||||||/------- 26 p.d4#2+
                    ||||||||||||||||||||||||||/------ 27 p.d5#0
                    |||||||||||||||||||||||||||/----- 28 p.d5#0+
                    ||||||||||||||||||||||||||||/---- 29 p.d5#1
                    |||||||||||||||||||||||||||||/--- 30 p.d5#1+
                    ||||||||||||||||||||||||||||||/-- 31 p.d5#2
                    |||||||||||||||||||||||||||||||/- 32 p.d5#2+
            1 p.ed1 rwrwrw      rw
            2 p.ed2       rwrwrwrw
            3 p.ed3             rwrwrwrw
            4 p.ed4             rw      rwrwrw
            5 p.ed5             rw            rwrwrw

        Forward controlled-behavior: <bdd 16n 243p> [initialization predicate]
        Forward controlled-behavior: <bdd 16n 243p> -> <bdd 27n 6p> [restricted to current/previous controlled-behavior predicate: <bdd 27n 7p>]
        Forward controlled-behavior: p.loc1 and p.d3 = 4 and (p.d4 = 1 and p.d5 = 1) or p.loc1 and p.d3 = 1 and (p.d4 = 4 and p.d5 = 1) or (p.loc1 and p.d3 = 1 and (p.d4 = 1 and p.d5 = 1) or p.loc1 and p.d3 = 3 and (p.d4 = 1 and p.d5 = 1)) -> p.loc1 and p.d3 = 4 and (p.d4 = 1 and p.d5 = 1) or p.loc1 and p.d3 = 1 and (p.d4 = 4 and p.d5 = 1) or (p.loc1 and p.d3 = 1 and (p.d4 = 1 and p.d5 = 1) or (p.loc1 and p.d3 = 3 and (p.d4 = 1 and p.d5 = 1) or p.loc2 and p.d3 = 1 and (p.d4 = 1 and p.d5 = 1))) [forward reach using bounded saturation (transition: 3 of 5) (level: 13 of 32) with edge: (event: p.ed3) (guard: p.loc1) (assignments: p.d3 := p.d3 div 3, p := p.loc2)]

        Forward controlled-behavior: <bdd 27n 7p> [fixed point].

        Controlled behavior not changed.

    Finished: controlled behavior is stable.

Computing final controlled system guards:
    Edge (event: p.ed1) (guard: p.loc1) (assignments: p.d1 := p.d1 div 1, p := p.loc2): guard: p.loc1 -> p.d1 = 1 and (p.d2 = 1 and p.loc1) and (p.d3 = 1 and (p.d4 = 1 and p.d5 = 1)).
    Edge (event: p.ed2) (guard: p.loc1) (assignments: p.d2 := p.d2 div 2, p := p.loc2): guard: p.loc1 -> p.d1 = 1 and ((p.d2 = 2 or p.d2 = 3) and p.loc1) and (p.d3 = 1 and (p.d4 = 1 and p.d5 = 1)).
    Edge (event: p.ed3) (guard: p.loc1) (assignments: p.d3 := p.d3 div 3, p := p.loc2): guard: p.loc1 -> p.d1 = 1 and (p.d2 = 1 and p.loc1) and (p.d3 = 4 and (p.d4 = 1 and p.d5 = 1)) or p.d1 = 1 and (p.d2 = 1 and p.loc1) and (p.d3 = 3 and (p.d4 = 1 and p.d5 = 1)).
    Edge (event: p.ed4) (guard: p.loc1) (assignments: p.d4 := p.d4 div 4, p := p.loc2): guard: p.loc1 -> p.d1 = 1 and (p.d2 = 1 and p.loc1) and (p.d3 = 1 and (p.d4 = 4 and p.d5 = 1)).
    Edge (event: p.ed5) (guard: p.loc1) (assignments: p.d5 := p.d5 div 5, p := p.loc2): guard: p.loc1 -> false.

Cleaning up cached predicate of edges that were used when applying edges.

Final synthesis result:
    State: (controlled-behavior: <bdd 27n 7p>)
        Edge: (event: p.ed1) (guard: p.loc1 -> p.d1 = 1 and (p.d2 = 1 and p.loc1) and (p.d3 = 1 and (p.d4 = 1 and p.d5 = 1))) (assignments: p.d1 := p.d1 div 1, p := p.loc2)
        Edge: (event: p.ed2) (guard: p.loc1 -> p.d1 = 1 and ((p.d2 = 2 or p.d2 = 3) and p.loc1) and (p.d3 = 1 and (p.d4 = 1 and p.d5 = 1))) (assignments: p.d2 := p.d2 div 2, p := p.loc2)
        Edge: (event: p.ed3) (guard: p.loc1 -> p.d1 = 1 and (p.d2 = 1 and p.loc1) and (p.d3 = 4 and (p.d4 = 1 and p.d5 = 1)) or p.d1 = 1 and (p.d2 = 1 and p.loc1) and (p.d3 = 3 and (p.d4 = 1 and p.d5 = 1))) (assignments: p.d3 := p.d3 div 3, p := p.loc2)
        Edge: (event: p.ed4) (guard: p.loc1 -> p.d1 = 1 and (p.d2 = 1 and p.loc1) and (p.d3 = 1 and (p.d4 = 4 and p.d5 = 1))) (assignments: p.d4 := p.d4 div 4, p := p.loc2)
        Edge: (event: p.ed5) (guard: p.loc1 -> false) (assignments: p.d5 := p.d5 div 5, p := p.loc2)

Computing initialization predicate of the controlled system.

Controlled system: exactly 7 states.

Determining initialization predicate for output model:
    Initial (synthesis result):            <bdd 27n 7p>
    Initial (uncontrolled system):         <bdd 16n 243p>
    Initial (controlled system):           <bdd 27n 6p>
    Initial (removed by supervisor):       <bdd 41n 405p>
    Initial (added by supervisor):         <bdd 41n 421p>

    Simplifying of controlled system initialization predicate under the assumption of the uncontrolled system initialization predicates:
        Initial: <bdd 27n 6p> -> p.d1 = 1 and p.d2 = 2 and (p.d3 = 1 and (p.d4 = 1 and p.d5 = 1)) or (p.d1 = 1 and p.d2 = 1 and (p.d3 = 4 and (p.d4 = 1 and p.d5 = 1)) or p.d1 = 1 and p.d2 = 1 and (p.d3 = 1 and (p.d4 = 4 and p.d5 = 1))) or (p.d1 = 1 and p.d2 = 1 and (p.d3 = 1 and (p.d4 = 1 and p.d5 = 1)) or (p.d1 = 1 and p.d2 = 1 and (p.d3 = 3 and (p.d4 = 1 and p.d5 = 1)) or p.d1 = 1 and p.d2 = 3 and (p.d3 = 1 and (p.d4 = 1 and p.d5 = 1)))) [assume <bdd 16n 243p>].

    Initial (output model):                p.d1 = 1 and p.d2 = 2 and (p.d3 = 1 and (p.d4 = 1 and p.d5 = 1)) or (p.d1 = 1 and p.d2 = 1 and (p.d3 = 4 and (p.d4 = 1 and p.d5 = 1)) or p.d1 = 1 and p.d2 = 1 and (p.d3 = 1 and (p.d4 = 4 and p.d5 = 1))) or (p.d1 = 1 and p.d2 = 1 and (p.d3 = 1 and (p.d4 = 1 and p.d5 = 1)) or (p.d1 = 1 and p.d2 = 1 and (p.d3 = 3 and (p.d4 = 1 and p.d5 = 1)) or p.d1 = 1 and p.d2 = 3 and (p.d3 = 1 and (p.d4 = 1 and p.d5 = 1))))

Determining supervisor guards for output model:
    Event p.ed1: guard: p.d1 = 1 and (p.d2 = 1 and p.loc1) and (p.d3 = 1 and (p.d4 = 1 and p.d5 = 1)).
    Event p.ed2: guard: p.d1 = 1 and ((p.d2 = 2 or p.d2 = 3) and p.loc1) and (p.d3 = 1 and (p.d4 = 1 and p.d5 = 1)).
    Event p.ed3: guard: p.d1 = 1 and (p.d2 = 1 and p.loc1) and (p.d3 = 4 and (p.d4 = 1 and p.d5 = 1)) or p.d1 = 1 and (p.d2 = 1 and p.loc1) and (p.d3 = 3 and (p.d4 = 1 and p.d5 = 1)).
    Event p.ed4: guard: p.d1 = 1 and (p.d2 = 1 and p.loc1) and (p.d3 = 1 and (p.d4 = 4 and p.d5 = 1)).
    Event p.ed5: guard: false.

Checking post-synthesis for events that are never enabled.

Simplifying supervisor guards for output model:
    Simplification under the assumption of the plants.

    Event p.ed1: guard: p.d1 = 1 and (p.d2 = 1 and p.loc1) and (p.d3 = 1 and (p.d4 = 1 and p.d5 = 1)) -> p.d1 = 1 and p.d2 = 1 and (p.d3 = 1 and (p.d4 = 1 and p.d5 = 1)) [assume p.loc1].
    Event p.ed2: guard: p.d1 = 1 and ((p.d2 = 2 or p.d2 = 3) and p.loc1) and (p.d3 = 1 and (p.d4 = 1 and p.d5 = 1)) -> p.d1 = 1 and (p.d2 = 2 or p.d2 = 3) and (p.d3 = 1 and (p.d4 = 1 and p.d5 = 1)) [assume p.loc1].
    Event p.ed3: guard: p.d1 = 1 and (p.d2 = 1 and p.loc1) and (p.d3 = 4 and (p.d4 = 1 and p.d5 = 1)) or p.d1 = 1 and (p.d2 = 1 and p.loc1) and (p.d3 = 3 and (p.d4 = 1 and p.d5 = 1)) -> p.d1 = 1 and p.d2 = 1 and (p.d3 = 4 and (p.d4 = 1 and p.d5 = 1)) or p.d1 = 1 and p.d2 = 1 and (p.d3 = 3 and (p.d4 = 1 and p.d5 = 1)) [assume p.loc1].
    Event p.ed4: guard: p.d1 = 1 and (p.d2 = 1 and p.loc1) and (p.d3 = 1 and (p.d4 = 4 and p.d5 = 1)) -> p.d1 = 1 and p.d2 = 1 and (p.d3 = 1 and (p.d4 = 4 and p.d5 = 1)) [assume p.loc1].
    Event p.ed5: guard: false -> false [assume p.loc1].

Constructing output CIF specification.

Checking output CIF specification.

Writing output CIF file "datasynth/asgn_div.ctrlsys.real.cif".
