Reading CIF file "datasynth/edge_granularity_errors07_per_edge.cif".

Preprocessing CIF specification (includes checking that the specification is supported).

Converting CIF specification to internal format (BDDs):
    CIF variables and location pointers:
        Nr     Kind               Type       Name  Group  BDD vars  CIF values  BDD values  Values used
        -----  -----------------  ---------  ----  -----  --------  ----------  ----------  -----------
        1      location pointer   n/a        p     0      1 * 2     2 * 2       2 * 2       100%
        2      discrete variable  int[0..7]  p.x   1      3 * 2     8 * 2       8 * 2       100%
        -----  -----------------  ---------  ----  -----  --------  ----------  ----------  -----------
        Total                                      2      8         20          20          100%

    Applying variable ordering:
        Applying 4 orderers, sequentially:
            Applying model variable order:
                Effect: both

            Applying DCSH algorithm:
                Metric: wes
                Relations: legacy
                Effect: var-order
                Number of hyper-edges: 5

                Applying Weighted Cuthill-McKee algorithm:
                    Node finder: george-liu
                    Relations: legacy
                    Effect: var-order
                    Number of graph edges: 1

                    Total span:   1 (total)   0.20 (avg/edge) / WES:   0.600000 (total)   0.120000 (avg/edge) [before]
                    Total span:   1 (total)   0.20 (avg/edge) / WES:   0.600000 (total)   0.120000 (avg/edge) [after]

                Found new best variable order.

                Applying Sloan algorithm:
                    Relations: legacy
                    Effect: var-order
                    Number of graph edges: 1

                    Total span:   1 (total)   0.20 (avg/edge) / WES:   0.600000 (total)   0.120000 (avg/edge) [before]
                    Total span:   1 (total)   0.20 (avg/edge) / WES:   0.600000 (total)   0.120000 (avg/edge) [after]

                Applying 2 orderers, sequentially:
                    Applying Weighted Cuthill-McKee algorithm:
                        Node finder: george-liu
                        Relations: legacy
                        Effect: var-order
                        Number of graph edges: 1

                        Total span:   1 (total)   0.20 (avg/edge) / WES:   0.600000 (total)   0.120000 (avg/edge) [before]
                        Total span:   1 (total)   0.20 (avg/edge) / WES:   0.600000 (total)   0.120000 (avg/edge) [after]

                    Reversing the variable order:
                        Relations: legacy
                        Effect: var-order
                        Number of hyper-edges: 5

                        Total span:   1 (total)   0.20 (avg/edge) / WES:   0.600000 (total)   0.120000 (avg/edge) [before]
                        Total span:   1 (total)   0.20 (avg/edge) / WES:   0.600000 (total)   0.120000 (avg/edge) [reversed]

                Found new best variable order.

                Applying 2 orderers, sequentially:
                    Applying Sloan algorithm:
                        Relations: legacy
                        Effect: var-order
                        Number of graph edges: 1

                        Total span:   1 (total)   0.20 (avg/edge) / WES:   0.600000 (total)   0.120000 (avg/edge) [before]
                        Total span:   1 (total)   0.20 (avg/edge) / WES:   0.600000 (total)   0.120000 (avg/edge) [after]

                    Reversing the variable order:
                        Relations: legacy
                        Effect: var-order
                        Number of hyper-edges: 5

                        Total span:   1 (total)   0.20 (avg/edge) / WES:   0.600000 (total)   0.120000 (avg/edge) [before]
                        Total span:   1 (total)   0.20 (avg/edge) / WES:   0.600000 (total)   0.120000 (avg/edge) [reversed]

            Applying FORCE algorithm:
                Metric: total-span
                Relations: linearized
                Effect: var-order
                Number of hyper-edges: 2
                Maximum number of iterations: 10

                Total span:   2 (total)   1.00 (avg/edge) / WES:   1.000000 (total)   0.500000 (avg/edge) [before]
                Total span:   2 (total)   1.00 (avg/edge) / WES:   1.000000 (total)   0.500000 (avg/edge) [iteration 1]
                Total span:   2 (total)   1.00 (avg/edge) / WES:   1.000000 (total)   0.500000 (avg/edge) [after]

            Applying sliding window algorithm:
                Size: 4
                Metric: total-span
                Relations: linearized
                Effect: var-order
                Number of hyper-edges: 2
                Window length: 2

                Total span:   2 (total)   1.00 (avg/edge) / WES:   1.000000 (total)   0.500000 (avg/edge) [before]
                Total span:   2 (total)   1.00 (avg/edge) / WES:   1.000000 (total)   0.500000 (avg/edge) [after]

    Variable order changed.

    CIF variables and location pointers:
        Nr     Kind               Type       Name  Group  BDD vars  CIF values  BDD values  Values used
        -----  -----------------  ---------  ----  -----  --------  ----------  ----------  -----------
        1      discrete variable  int[0..7]  p.x   0      3 * 2     8 * 2       8 * 2       100%
        2      location pointer   n/a        p     1      1 * 2     2 * 2       2 * 2       100%
        -----  -----------------  ---------  ----  -----  --------  ----------  ----------  -----------
        Total                                      2      8         20          20          100%

Starting data-based synthesis.

Synthesis input:
    Invariant (components state plant inv):      true
    Invariant (locations state plant invariant): true
    Invariant (system state plant invariant):    true

    Invariant (components state req invariant):  true
    Invariant (locations state req invariant):   true
    Invariant (system state req invariant):      true

    Initial   (discrete variable 0):             true
    Initial   (discrete variables):              true
    Initial   (components init predicate):       true
    Initial   (aut/locs init predicate):         p.l1
    Initial   (auts/locs init predicate):        p.l1
    Initial   (uncontrolled system):             p.l1
    Initial   (system, combined init/plant inv): p.l1
    Initial   (system, combined init/state inv): p.l1

    Marked    (components marker predicate):     true
    Marked    (aut/locs marker predicate):       p.l2
    Marked    (auts/locs marker predicate):      p.l2
    Marked    (uncontrolled system):             p.l2
    Marked    (system, combined mark/plant inv): p.l2
    Marked    (system, combined mark/state inv): p.l2

    State/event exclusion plants:
        None

    State/event exclusion requirements:
        None

    Uncontrolled system:
        State: (controlled-behavior: ?)
            Edge: (event: e) (guard: p.x = 4 and p.l1) (assignments: p.x := p.x + 7, p := p.l2)
            Edge: (event: e) (guard: p.x = 5 and p.l1) (assignments: p.x := p.x - 7, p := p.l2)

Checking input for potential problems.

Restricting edge guards to prevent runtime errors:
    Edge: (event: e) (guard: p.x = 4 and p.l1 -> false) (assignments: p.x := p.x + 7, p := p.l2)
    Edge: (event: e) (guard: p.x = 5 and p.l1 -> false) (assignments: p.x := p.x - 7, p := p.l2)

    Uncontrolled system:
        State: (controlled-behavior: ?)
            Edge: (event: e) (guard: p.x = 4 and p.l1 -> false) (assignments: p.x := p.x + 7, p := p.l2)
            Edge: (event: e) (guard: p.x = 5 and p.l1 -> false) (assignments: p.x := p.x - 7, p := p.l2)

Restricting uncontrolled system behavior using state/event exclusion plant invariants:
    No guards changed.

Initializing edges for being applied.

Restricting uncontrolled system behavior using state plant invariants:
    No restrictions needed.

Initializing controlled behavior:
    Controlled-behavior predicate: true.
    Controlled-initialization predicate: p.l1.

Restricting behavior using state requirements:
    Controlled behavior not changed.

Extending controlled-behavior predicate using variable ranges:
    Controlled behavior not changed.

Restricting behavior using state/event exclusion requirements:
    Guards and controlled behavior not changed.

Restricting behavior using implicit runtime error requirements:
    Controlled behavior: true -> p.x != 4 or p.l2 [runtime error requirement (event: e): p.x != 4 or p.l2].
    Controlled behavior: p.x != 4 or p.l2 -> not(p.x = 4 or p.x = 5) or p.l2 [runtime error requirement (event: e): p.x != 5 or p.l2].

    Restricted behavior using implicit runtime error requirements: not(p.x = 4 or p.x = 5) or p.l2.

Re-initializing edges for being applied.

Checking pre-synthesis for events that are never enabled.

Synthesis round 1:
    Computing backward controlled-behavior predicate:
        Saturation matrix:
                /-------- 1 p.x#0
                |/------- 2 p.x#0+
                ||/------ 3 p.x#1
                |||/----- 4 p.x#1+
                ||||/---- 5 p.x#2
                |||||/--- 6 p.x#2+
                ||||||/-- 7 p#0
                |||||||/- 8 p#0+
            1 e rwrwrwrw
            2 e rwrwrwrw

        Backward controlled-behavior: p.l2 [marker predicate]

        Controlled behavior: not(p.x = 4 or p.x = 5) or p.l2 -> p.l2.

    Finished: no initialization possible.

Computing final controlled system guards:
    No guards changed.

Cleaning up cached predicate of edges that were used when applying edges.

Final synthesis result:
    State: (controlled-behavior: p.l2)
        Edge: (event: e) (guard: p.x = 4 and p.l1 -> false) (assignments: p.x := p.x + 7, p := p.l2)
        Edge: (event: e) (guard: p.x = 5 and p.l1 -> false) (assignments: p.x := p.x - 7, p := p.l2)

Computing initialization predicate of the controlled system.

Controlled system: exactly 0 states.

Determining initialization predicate for output model:
    Initial (synthesis result):            p.l2
    Initial (uncontrolled system):         p.l1
    Initial (controlled system):           false
    Initial (removed by supervisor):       p.l1
    Initial (added by supervisor):         p.l2

    Simplifying of controlled system initialization predicate under the assumption of the uncontrolled system initialization predicates:
        Predicate not changed.

    Initial (output model):                false

