Reading CIF file "datasynth/input_vars7.cif".

Preprocessing CIF specification (includes checking that the specification is supported).

Converting CIF specification to internal format (BDDs):
    CIF variables and location pointers:
        Nr     Kind               Type  Name       Group  BDD vars  CIF values  BDD values  Values used
        -----  -----------------  ----  ---------  -----  --------  ----------  ----------  -----------
        1      input variable     bool  io.sensor  0      1 * 2     2 * 2       2 * 2       100%
        2      location pointer   n/a   p          1      1 * 2     2 * 2       2 * 2       100%
        3      discrete variable  bool  p.b        2      1 * 2     2 * 2       2 * 2       100%
        -----  -----------------  ----  ---------  -----  --------  ----------  ----------  -----------
        Total                                      3      6         12          12          100%

    Applying variable ordering:
        Applying 4 orderers, sequentially:
            Applying model variable order:
                Effect: both

            Applying DCSH algorithm:
                Metric: wes
                Relations: legacy
                Effect: var-order
                Number of hyper-edges: 1

                Applying Weighted Cuthill-McKee algorithm:
                    Node finder: george-liu
                    Relations: legacy
                    Effect: var-order
                    Number of graph edges: 1

                    Total span:   1 (total)   1.00 (avg/edge) / WES:   0.888889 (total)   0.888889 (avg/edge) [before]
                    Total span:   1 (total)   1.00 (avg/edge) / WES:   0.444444 (total)   0.444444 (avg/edge) [after]

                Found new best variable order.

                Applying Sloan algorithm:
                    Relations: legacy
                    Effect: var-order
                    Number of graph edges: 1

                    Total span:   1 (total)   1.00 (avg/edge) / WES:   0.888889 (total)   0.888889 (avg/edge) [before]
                    Total span:   1 (total)   1.00 (avg/edge) / WES:   0.444444 (total)   0.444444 (avg/edge) [after]

                Applying 2 orderers, sequentially:
                    Applying Weighted Cuthill-McKee algorithm:
                        Node finder: george-liu
                        Relations: legacy
                        Effect: var-order
                        Number of graph edges: 1

                        Total span:   1 (total)   1.00 (avg/edge) / WES:   0.888889 (total)   0.888889 (avg/edge) [before]
                        Total span:   1 (total)   1.00 (avg/edge) / WES:   0.444444 (total)   0.444444 (avg/edge) [after]

                    Reversing the variable order:
                        Relations: legacy
                        Effect: var-order
                        Number of hyper-edges: 1

                        Total span:   1 (total)   1.00 (avg/edge) / WES:   0.444444 (total)   0.444444 (avg/edge) [before]
                        Total span:   1 (total)   1.00 (avg/edge) / WES:   0.444444 (total)   0.444444 (avg/edge) [reversed]

                Applying 2 orderers, sequentially:
                    Applying Sloan algorithm:
                        Relations: legacy
                        Effect: var-order
                        Number of graph edges: 1

                        Total span:   1 (total)   1.00 (avg/edge) / WES:   0.888889 (total)   0.888889 (avg/edge) [before]
                        Total span:   1 (total)   1.00 (avg/edge) / WES:   0.444444 (total)   0.444444 (avg/edge) [after]

                    Reversing the variable order:
                        Relations: legacy
                        Effect: var-order
                        Number of hyper-edges: 1

                        Total span:   1 (total)   1.00 (avg/edge) / WES:   0.444444 (total)   0.444444 (avg/edge) [before]
                        Total span:   1 (total)   1.00 (avg/edge) / WES:   0.444444 (total)   0.444444 (avg/edge) [reversed]

            Applying FORCE algorithm:
                Metric: total-span
                Relations: linearized
                Effect: var-order
                Number of hyper-edges: 1
                Maximum number of iterations: 20

                Total span:   1 (total)   1.00 (avg/edge) / WES:   0.444444 (total)   0.444444 (avg/edge) [before]
                Total span:   1 (total)   1.00 (avg/edge) / WES:   0.444444 (total)   0.444444 (avg/edge) [iteration 1]
                Total span:   1 (total)   1.00 (avg/edge) / WES:   0.444444 (total)   0.444444 (avg/edge) [after]

            Applying sliding window algorithm:
                Size: 4
                Metric: total-span
                Relations: linearized
                Effect: var-order
                Number of hyper-edges: 1
                Window length: 3

                Total span:   1 (total)   1.00 (avg/edge) / WES:   0.444444 (total)   0.444444 (avg/edge) [before]
                Total span:   1 (total)   1.00 (avg/edge) / WES:   0.444444 (total)   0.444444 (avg/edge) [after]

    Variable order changed.

    CIF variables and location pointers:
        Nr     Kind               Type  Name       Group  BDD vars  CIF values  BDD values  Values used
        -----  -----------------  ----  ---------  -----  --------  ----------  ----------  -----------
        1      location pointer   n/a   p          0      1 * 2     2 * 2       2 * 2       100%
        2      discrete variable  bool  p.b        1      1 * 2     2 * 2       2 * 2       100%
        3      input variable     bool  io.sensor  2      1 * 2     2 * 2       2 * 2       100%
        -----  -----------------  ----  ---------  -----  --------  ----------  ----------  -----------
        Total                                      3      6         12          12          100%

Starting data-based synthesis.

Synthesis input:
    Invariant (components state plant inv):      true
    Invariant (locations state plant invariant): true
    Invariant (system state plant invariant):    true

    Invariant (components state req invariant):  true
    Invariant (locations state req invariant):   true
    Invariant (system state req invariant):      true

    Initial   (discrete variable 1):             (p.b or not io.sensor) and (not p.b or io.sensor)
    Initial   (discrete variables):              (p.b or not io.sensor) and (not p.b or io.sensor)
    Initial   (components init predicate):       true
    Initial   (aut/locs init predicate):         p.test
    Initial   (auts/locs init predicate):        p.test
    Initial   (uncontrolled system):             p.test and (not p.b and not io.sensor) or p.test and (p.b and io.sensor)
    Initial   (system, combined init/plant inv): p.test and (not p.b and not io.sensor) or p.test and (p.b and io.sensor)
    Initial   (system, combined init/state inv): p.test and (not p.b and not io.sensor) or p.test and (p.b and io.sensor)

    Marked    (components marker predicate):     true
    Marked    (aut/locs marker predicate):       p.done
    Marked    (auts/locs marker predicate):      p.done
    Marked    (uncontrolled system):             p.done
    Marked    (system, combined mark/plant inv): p.done
    Marked    (system, combined mark/state inv): p.done

    State/event exclusion plants:
        None

    State/event exclusion requirements:
        None

    Uncontrolled system:
        State: (controlled-behavior: ?)
            Edge: (event: p.u_ok) (guard: p.test and p.b) (assignments: p := p.done)
            Edge: (event: io.sensor) (guard: true) (assignments: io.sensor+ != io.sensor)

Checking input for potential problems.

Restricting edge guards to prevent runtime errors:
    No guards changed.

Restricting uncontrolled system behavior using state/event exclusion plant invariants:
    No guards changed.

Initializing edges for being applied.

Restricting uncontrolled system behavior using state plant invariants:
    No restrictions needed.

Initializing controlled behavior:
    Controlled-behavior predicate: true.
    Controlled-initialization predicate: p.test and (not p.b and not io.sensor) or p.test and (p.b and io.sensor).

Restricting behavior using state requirements:
    Controlled behavior not changed.

Extending controlled-behavior predicate using variable ranges:
    Controlled behavior not changed.

Restricting behavior using state/event exclusion requirements:
    Guards and controlled behavior not changed.

Restricting behavior using implicit runtime error requirements:
    Controlled behavior not changed.

Re-initializing edges for being applied.

Checking pre-synthesis for events that are never enabled.

Synthesis round 1:
    Computing backward controlled-behavior predicate:
        Saturation matrix:
                        /------ 1 p#0
                        |/----- 2 p#0+
                        ||/---- 3 p.b#0
                        |||/--- 4 p.b#0+
                        ||||/-- 5 io.sensor#0
                        |||||/- 6 io.sensor#0+
            1 p.u_ok    rwr
            2 io.sensor     rw

        Backward controlled-behavior: p.done [marker predicate]
        Backward controlled-behavior: p.done -> p.done or p.b [backward reach using bounded saturation (transition: 1 of 2) (level: 1 of 6) with edge: (event: p.u_ok) (guard: p.test and p.b) (assignments: p := p.done)]

        Backward controlled-behavior: p.done or p.b [fixed point].

        Controlled behavior: true -> p.done or p.b.

    Computing backward uncontrolled bad-state predicate:
        Saturation matrix:
                        /------ 1 p#0
                        |/----- 2 p#0+
                        ||/---- 3 p.b#0
                        |||/--- 4 p.b#0+
                        ||||/-- 5 io.sensor#0
                        |||||/- 6 io.sensor#0+
            1 p.u_ok    rwr
            2 io.sensor     rw

        Backward uncontrolled bad-state: p.test and not p.b [current/previous controlled behavior predicate]

        Controlled behavior not changed.

    Computing forward controlled-behavior predicate:
        Saturation matrix:
                        /------ 1 p#0
                        |/----- 2 p#0+
                        ||/---- 3 p.b#0
                        |||/--- 4 p.b#0+
                        ||||/-- 5 io.sensor#0
                        |||||/- 6 io.sensor#0+
            1 p.u_ok    rwr
            2 io.sensor     rw

        Forward controlled-behavior: p.test and (not p.b and not io.sensor) or p.test and (p.b and io.sensor) [initialization predicate]
        Forward controlled-behavior: p.test and (not p.b and not io.sensor) or p.test and (p.b and io.sensor) -> p.test and (p.b and io.sensor) [restricted to current/previous controlled-behavior predicate: p.done or p.b]
        Forward controlled-behavior: io.sensor -> true [forward reach using bounded saturation (transition: 2 of 2) (level: 5 of 6) with edge: (event: io.sensor) (guard: true) (assignments: io.sensor+ != io.sensor)]
        Forward controlled-behavior: p.test and p.b -> p.b [forward reach using bounded saturation (transition: 1 of 2) (level: 1 of 6) with edge: (event: p.u_ok) (guard: p.test and p.b) (assignments: p := p.done)]

        Forward controlled-behavior: p.b [fixed point].

        Controlled behavior: p.done or p.b -> p.b.

    Need another round.

Synthesis round 2:
    Computing backward controlled-behavior predicate:
        Saturation matrix:
                        /------ 1 p#0
                        |/----- 2 p#0+
                        ||/---- 3 p.b#0
                        |||/--- 4 p.b#0+
                        ||||/-- 5 io.sensor#0
                        |||||/- 6 io.sensor#0+
            1 p.u_ok    rwr
            2 io.sensor     rw

        Backward controlled-behavior: p.done [marker predicate]
        Backward controlled-behavior: p.done -> p.done and p.b [restricted to current/previous controlled-behavior predicate: p.b]
        Backward controlled-behavior: p.done and p.b -> p.b [backward reach using bounded saturation (transition: 1 of 2) (level: 1 of 6) with edge: (event: p.u_ok) (guard: p.test and p.b) (assignments: p := p.done)]

        Backward controlled-behavior: p.b [fixed point].

        Controlled behavior not changed.

    Computing backward uncontrolled bad-state predicate:
        Saturation matrix:
                        /------ 1 p#0
                        |/----- 2 p#0+
                        ||/---- 3 p.b#0
                        |||/--- 4 p.b#0+
                        ||||/-- 5 io.sensor#0
                        |||||/- 6 io.sensor#0+
            1 p.u_ok    rwr
            2 io.sensor     rw

        Backward uncontrolled bad-state: not p.b [current/previous controlled behavior predicate]

        Controlled behavior not changed.

    Finished: controlled behavior is stable.

Computing final controlled system guards:
    No guards changed.

Cleaning up cached predicate of edges that were used when applying edges.

Final synthesis result:
    State: (controlled-behavior: p.b)
        Edge: (event: p.u_ok) (guard: p.test and p.b) (assignments: p := p.done)
        Edge: (event: io.sensor) (guard: true) (assignments: io.sensor+ != io.sensor)

Computing initialization predicate of the controlled system.

Controlled system: exactly 4 states.

Determining initialization predicate for output model:
    Initial (synthesis result):            p.b
    Initial (uncontrolled system):         p.test and (not p.b and not io.sensor) or p.test and (p.b and io.sensor)
    Initial (controlled system):           p.test and (p.b and io.sensor)
    Initial (removed by supervisor):       p.test and (not p.b and not io.sensor)
    Initial (added by supervisor):         p.done or (p.b or io.sensor)

    Simplifying of controlled system initialization predicate under the assumption of the uncontrolled system initialization predicates:
        Initial: p.test and (p.b and io.sensor) -> p.b [assume p.test and (not p.b and not io.sensor) or p.test and (p.b and io.sensor)].

    Initial (output model):                p.b

Determining supervisor guards for output model:
    No controllable events.

Checking post-synthesis for events that are never enabled.

Simplifying supervisor guards for output model:
    Simplification under the assumption of the plants.

    Guards not changed.

Constructing output CIF specification.

Checking output CIF specification.

Writing output CIF file "datasynth/input_vars7.ctrlsys.real.cif".
