Reading CIF file "datasynth/inv_state_evt_exclusion_plant_simple.cif".

Preprocessing CIF specification (includes checking that the specification is supported).

Converting CIF specification to internal format (BDDs):
    CIF variables and location pointers:
        Nr     Kind              Type  Name  Group  BDD vars  CIF values  BDD values  Values used
        -----  ----------------  ----  ----  -----  --------  ----------  ----------  -----------
        1      location pointer  n/a   a     0      1 * 2     2 * 2       2 * 2       100%
        -----  ----------------  ----  ----  -----  --------  ----------  ----------  -----------
        Total                                1      2         4           4           100%

    Skipping variable ordering: only one variable present.

Starting data-based synthesis.

Synthesis input:
    Invariant (components state plant inv):      true
    Invariant (locations state plant invariant): true
    Invariant (system state plant invariant):    true

    Invariant (components state req invariant):  true
    Invariant (locations state req invariant):   true
    Invariant (system state req invariant):      true

    Initial   (discrete variables):              true
    Initial   (components init predicate):       true
    Initial   (aut/locs init predicate):         a.l1
    Initial   (auts/locs init predicate):        a.l1
    Initial   (uncontrolled system):             a.l1
    Initial   (system, combined init/plant inv): a.l1
    Initial   (system, combined init/state inv): a.l1

    Marked    (components marker predicate):     true
    Marked    (aut/locs marker predicate):       a.l1
    Marked    (auts/locs marker predicate):      a.l1
    Marked    (uncontrolled system):             a.l1
    Marked    (system, combined mark/plant inv): a.l1
    Marked    (system, combined mark/state inv): a.l1

    State/event exclusion plants:
        Event "u" needs:
            false

    State/event exclusion requirements:
        None

    Uncontrolled system (state/event exclusion plants not applied yet):
        State: (controlled-behavior: ?)
            Edge: (event: u) (guard: a.l1) (assignments: a := a.l2)

Checking input for potential problems.

Restricting edge guards to prevent runtime errors:
    No guards changed.

Restricting uncontrolled system behavior using state/event exclusion plant invariants:
    Edge (event: u) (guard: a.l1) (assignments: a := a.l2): guard: a.l1 -> false [plant: false].

    Uncontrolled system:
        State: (controlled-behavior: ?)
            Edge: (event: u) (guard: a.l1 -> false) (assignments: a := a.l2)

Initializing edges for being applied.

Restricting uncontrolled system behavior using state plant invariants:
    No restrictions needed.

Initializing controlled behavior:
    Controlled-behavior predicate: true.
    Controlled-initialization predicate: a.l1.

Restricting behavior using state requirements:
    Controlled behavior not changed.

Extending controlled-behavior predicate using variable ranges:
    Controlled behavior not changed.

Restricting behavior using state/event exclusion requirements:
    Guards and controlled behavior not changed.

Restricting behavior using implicit runtime error requirements:
    Controlled behavior not changed.

Re-initializing edges for being applied.

Synthesis round 1:
    Computing backward controlled-behavior predicate:
        Saturation matrix:
                /-- 1 a#0
                |/- 2 a#0+
            1 u rw

        Backward controlled-behavior: a.l1 [marker predicate]

        Controlled behavior: true -> a.l1.

    Computing backward uncontrolled bad-state predicate:
        Saturation matrix:
                /-- 1 a#0
                |/- 2 a#0+
            1 u rw

        Backward uncontrolled bad-state: a.l2 [current/previous controlled behavior predicate]

        Controlled behavior not changed.

    Computing forward controlled-behavior predicate:
        Saturation matrix:
                /-- 1 a#0
                |/- 2 a#0+
            1 u rw

        Forward controlled-behavior: a.l1 [initialization predicate]

        Controlled behavior not changed.

    Finished: controlled behavior is stable.

Computing final controlled system guards:
    No guards changed.

Cleaning up cached predicate of edges that were used when applying edges.

Final synthesis result:
    State: (controlled-behavior: a.l1)
        Edge: (event: u) (guard: a.l1 -> false) (assignments: a := a.l2)

Computing initialization predicate of the controlled system.

Controlled system: exactly 1 state.

Determining initialization predicate for output model:
    Initial (synthesis result):            a.l1
    Initial (uncontrolled system):         a.l1
    Initial (controlled system):           a.l1
    Initial (removed by supervisor):       false
    Initial (added by supervisor):         true

    Initial (output model):                n/a

Determining supervisor guards for output model:
    No controllable events.

Simplifying supervisor guards for output model:
    Simplification under the assumption of the plants.

    Guards not changed.

Constructing output CIF specification.

Checking output CIF specification.

Writing output CIF file "datasynth/inv_state_evt_exclusion_plant_simple.ctrlsys.real.cif".
