Reading CIF file "datasynth/multi_req_invs1.cif".

Preprocessing CIF specification (includes checking that the specification is supported).

Converting CIF specification to internal format (BDDs):
    CIF variables and location pointers:
        Nr     Kind               Type        Name  Group  BDD vars  CIF values  BDD values  Values used
        -----  -----------------  ----------  ----  -----  --------  ----------  ----------  -----------
        1      discrete variable  int[0..10]  p.x   0      4 * 2     11 * 2      16 * 2      ~69%
        2      discrete variable  int[0..10]  p.y   1      4 * 2     11 * 2      16 * 2      ~69%
        -----  -----------------  ----------  ----  -----  --------  ----------  ----------  -----------
        Total                                       2      16        44          64          ~69%

    Applying variable ordering:
        Applying 4 orderers, sequentially:
            Applying model variable order:
                Effect: both

            Applying DCSH algorithm:
                Metric: wes
                Relations: legacy
                Effect: var-order
                Number of hyper-edges: 10

                Applying Weighted Cuthill-McKee algorithm:
                    Node finder: george-liu
                    Relations: legacy
                    Effect: var-order
                    Number of graph edges: 1

                    Total span:   1 (total)   0.10 (avg/edge) / WES:   0.300000 (total)   0.030000 (avg/edge) [before]
                    Total span:   1 (total)   0.10 (avg/edge) / WES:   0.300000 (total)   0.030000 (avg/edge) [after]

                Found new best variable order.

                Applying Sloan algorithm:
                    Relations: legacy
                    Effect: var-order
                    Number of graph edges: 1

                    Total span:   1 (total)   0.10 (avg/edge) / WES:   0.300000 (total)   0.030000 (avg/edge) [before]
                    Total span:   1 (total)   0.10 (avg/edge) / WES:   0.300000 (total)   0.030000 (avg/edge) [after]

                Applying 2 orderers, sequentially:
                    Applying Weighted Cuthill-McKee algorithm:
                        Node finder: george-liu
                        Relations: legacy
                        Effect: var-order
                        Number of graph edges: 1

                        Total span:   1 (total)   0.10 (avg/edge) / WES:   0.300000 (total)   0.030000 (avg/edge) [before]
                        Total span:   1 (total)   0.10 (avg/edge) / WES:   0.300000 (total)   0.030000 (avg/edge) [after]

                    Reversing the variable order:
                        Relations: legacy
                        Effect: var-order
                        Number of hyper-edges: 10

                        Total span:   1 (total)   0.10 (avg/edge) / WES:   0.300000 (total)   0.030000 (avg/edge) [before]
                        Total span:   1 (total)   0.10 (avg/edge) / WES:   0.300000 (total)   0.030000 (avg/edge) [reversed]

                Applying 2 orderers, sequentially:
                    Applying Sloan algorithm:
                        Relations: legacy
                        Effect: var-order
                        Number of graph edges: 1

                        Total span:   1 (total)   0.10 (avg/edge) / WES:   0.300000 (total)   0.030000 (avg/edge) [before]
                        Total span:   1 (total)   0.10 (avg/edge) / WES:   0.300000 (total)   0.030000 (avg/edge) [after]

                    Reversing the variable order:
                        Relations: legacy
                        Effect: var-order
                        Number of hyper-edges: 10

                        Total span:   1 (total)   0.10 (avg/edge) / WES:   0.300000 (total)   0.030000 (avg/edge) [before]
                        Total span:   1 (total)   0.10 (avg/edge) / WES:   0.300000 (total)   0.030000 (avg/edge) [reversed]

            Applying FORCE algorithm:
                Metric: total-span
                Relations: linearized
                Effect: var-order
                Number of hyper-edges: 3
                Maximum number of iterations: 10

                Total span:   1 (total)   0.33 (avg/edge) / WES:   0.500000 (total)   0.166667 (avg/edge) [before]
                Total span:   1 (total)   0.33 (avg/edge) / WES:   0.500000 (total)   0.166667 (avg/edge) [iteration 1]
                Total span:   1 (total)   0.33 (avg/edge) / WES:   0.500000 (total)   0.166667 (avg/edge) [after]

            Applying sliding window algorithm:
                Size: 4
                Metric: total-span
                Relations: linearized
                Effect: var-order
                Number of hyper-edges: 3
                Window length: 2

                Total span:   1 (total)   0.33 (avg/edge) / WES:   0.500000 (total)   0.166667 (avg/edge) [before]
                Total span:   1 (total)   0.33 (avg/edge) / WES:   0.500000 (total)   0.166667 (avg/edge) [after]

    Variable order unchanged.

Starting data-based synthesis.

Synthesis input:
    Invariant (components state plant inv):      true
    Invariant (locations state plant invariant): true
    Invariant (system state plant invariant):    true

    Invariant (component state req invariant):   p.x != 10 and p.x != 9
    Invariant (component state req invariant):   p.y != 7
    Invariant (component state req invariant):   2 <= p.x and p.x <= 10
    Invariant (components state req invariant):  p.x != 0 and (p.x != 8 or p.y != 7) and ((p.x != 4 or p.y != 7) and (not(p.x = 2 or p.x = 6) or p.y != 7)) and (p.x != 10 and not(p.x = 1 or p.x = 9) and ((p.x != 5 or p.y != 7) and (not(p.x = 3 or p.x = 7) or p.y != 7)))
    Invariant (locations state req invariant):   true
    Invariant (system state req invariant):      p.x != 0 and (p.x != 8 or p.y != 7) and ((p.x != 4 or p.y != 7) and (not(p.x = 2 or p.x = 6) or p.y != 7)) and (p.x != 10 and not(p.x = 1 or p.x = 9) and ((p.x != 5 or p.y != 7) and (not(p.x = 3 or p.x = 7) or p.y != 7)))

    Initial   (discrete variable 0):             p.x = 5
    Initial   (discrete variable 1):             p.y = 6
    Initial   (discrete variables):              p.x = 5 and p.y = 6
    Initial   (components init predicate):       true
    Initial   (aut/locs init predicate):         true
    Initial   (aut/locs init predicate):         true
    Initial   (auts/locs init predicate):        true
    Initial   (uncontrolled system):             p.x = 5 and p.y = 6
    Initial   (system, combined init/plant inv): p.x = 5 and p.y = 6
    Initial   (system, combined init/state inv): p.x = 5 and p.y = 6

    Marked    (components marker predicate):     true
    Marked    (aut/locs marker predicate):       true
    Marked    (aut/locs marker predicate):       true
    Marked    (auts/locs marker predicate):      true
    Marked    (uncontrolled system):             true
    Marked    (system, combined mark/plant inv): true
    Marked    (system, combined mark/state inv): p.x != 0 and (p.x != 8 or p.y != 7) and ((p.x != 4 or p.y != 7) and (not(p.x = 2 or p.x = 6) or p.y != 7)) and (p.x != 10 and not(p.x = 1 or p.x = 9) and ((p.x != 5 or p.y != 7) and (not(p.x = 3 or p.x = 7) or p.y != 7)))

    State/event exclusion plants:
        None

    State/event exclusion requirements:
        None

    Uncontrolled system:
        State: (controlled-behavior: ?)
            Edge: (event: a) (guard: true) (assignments: p.x := p.x + 1)
            Edge: (event: b) (guard: true) (assignments: p.x := p.x - 1, p.y := p.y + 1)
            Edge: (event: c) (guard: true) (assignments: p.y := p.y - 1)

Checking input for potential problems.

Restricting edge guards to prevent runtime errors:
    Edge: (event: a) (guard: true -> true) (assignments: p.x := p.x + 1)
    Edge: (event: b) (guard: true -> p.x != 0) (assignments: p.x := p.x - 1, p.y := p.y + 1)
    Edge: (event: c) (guard: true -> p.y != 0) (assignments: p.y := p.y - 1)

    Uncontrolled system:
        State: (controlled-behavior: ?)
            Edge: (event: a) (guard: true -> true) (assignments: p.x := p.x + 1)
            Edge: (event: b) (guard: true -> p.x != 0) (assignments: p.x := p.x - 1, p.y := p.y + 1)
            Edge: (event: c) (guard: true -> p.y != 0) (assignments: p.y := p.y - 1)

Restricting uncontrolled system behavior using state/event exclusion plant invariants:
    No guards changed.

Initializing edges for being applied.

Restricting uncontrolled system behavior using state plant invariants:
    No restrictions needed.

Initializing controlled behavior:
    Controlled-behavior predicate: true.
    Controlled-initialization predicate: p.x = 5 and p.y = 6.

Restricting behavior using state requirements:
    Controlled behavior: true -> p.x != 0 and (p.x != 8 or p.y != 7) and ((p.x != 4 or p.y != 7) and (not(p.x = 2 or p.x = 6) or p.y != 7)) and (p.x != 10 and not(p.x = 1 or p.x = 9) and ((p.x != 5 or p.y != 7) and (not(p.x = 3 or p.x = 7) or p.y != 7))) [state requirements: p.x != 0 and (p.x != 8 or p.y != 7) and ((p.x != 4 or p.y != 7) and (not(p.x = 2 or p.x = 6) or p.y != 7)) and (p.x != 10 and not(p.x = 1 or p.x = 9) and ((p.x != 5 or p.y != 7) and (not(p.x = 3 or p.x = 7) or p.y != 7)))].

Extending controlled-behavior predicate using variable ranges:
    Controlled behavior: p.x != 0 and (p.x != 8 or p.y != 7) and ((p.x != 4 or p.y != 7) and (not(p.x = 2 or p.x = 6) or p.y != 7)) and (p.x != 10 and not(p.x = 1 or p.x = 9) and ((p.x != 5 or p.y != 7) and (not(p.x = 3 or p.x = 7) or p.y != 7))) -> <bdd 12n 25p> [range: true, variable: discrete variable "p.y" of type "int[0..10]" (group: 1, domain: 2+3, BDD variables: 4, CIF/BDD values: 11/16)].

    Extended controlled-behavior predicate using variable ranges: <bdd 12n 25p>.

Restricting behavior using state/event exclusion requirements:
    Guards and controlled behavior not changed.

Restricting behavior using implicit runtime error requirements:
    Controlled behavior not changed.

Re-initializing edges for being applied.

Checking pre-synthesis for events that are never enabled.

Synthesis round 1:
    Computing backward controlled-behavior predicate:
        Saturation matrix:
                /---------------- 1  p.x#0
                |/--------------- 2  p.x#0+
                ||/-------------- 3  p.x#1
                |||/------------- 4  p.x#1+
                ||||/------------ 5  p.x#2
                |||||/----------- 6  p.x#2+
                ||||||/---------- 7  p.x#3
                |||||||/--------- 8  p.x#3+
                ||||||||/-------- 9  p.y#0
                |||||||||/------- 10 p.y#0+
                ||||||||||/------ 11 p.y#1
                |||||||||||/----- 12 p.y#1+
                ||||||||||||/---- 13 p.y#2
                |||||||||||||/--- 14 p.y#2+
                ||||||||||||||/-- 15 p.y#3
                |||||||||||||||/- 16 p.y#3+
            1 a rwrwrwrw
            2 b rwrwrwrwrwrwrwrw
            3 c         rwrwrwrw

        Backward controlled-behavior: true [marker predicate]
        Backward controlled-behavior: true -> <bdd 12n 25p> [restricted to current/previous controlled-behavior predicate: <bdd 12n 25p>]

        Backward controlled-behavior: <bdd 12n 25p> [fixed point].

        Controlled behavior not changed.

    Computing backward uncontrolled bad-state predicate:
        Saturation matrix:
            No edges.

        Backward uncontrolled bad-state: <bdd 12n 26p> [current/previous controlled behavior predicate]

        Controlled behavior not changed.

    Computing forward controlled-behavior predicate:
        Saturation matrix:
                /---------------- 1  p.x#0
                |/--------------- 2  p.x#0+
                ||/-------------- 3  p.x#1
                |||/------------- 4  p.x#1+
                ||||/------------ 5  p.x#2
                |||||/----------- 6  p.x#2+
                ||||||/---------- 7  p.x#3
                |||||||/--------- 8  p.x#3+
                ||||||||/-------- 9  p.y#0
                |||||||||/------- 10 p.y#0+
                ||||||||||/------ 11 p.y#1
                |||||||||||/----- 12 p.y#1+
                ||||||||||||/---- 13 p.y#2
                |||||||||||||/--- 14 p.y#2+
                ||||||||||||||/-- 15 p.y#3
                |||||||||||||||/- 16 p.y#3+
            1 a rwrwrwrw
            2 b rwrwrwrwrwrwrwrw
            3 c         rwrwrwrw

        Forward controlled-behavior: p.x = 5 and p.y = 6 [initialization predicate]
        Forward controlled-behavior: p.y = 6 -> p.y = 6 or p.y = 5 [forward reach using bounded saturation (transition: 3 of 3) (level: 9 of 16) with edge: (event: c) (guard: true -> p.y != 0) (assignments: p.y := p.y - 1)]
        Forward controlled-behavior: p.y = 6 or p.y = 5 -> p.y = 4 or (p.y = 6 or p.y = 5) [forward reach using bounded saturation (transition: 3 of 3) (level: 9 of 16) with edge: (event: c) (guard: true -> p.y != 0) (assignments: p.y := p.y - 1)]
        Forward controlled-behavior: p.y = 4 or (p.y = 6 or p.y = 5) -> p.y = 4 or p.y = 6 or (p.y = 5 or p.y = 3) [forward reach using bounded saturation (transition: 3 of 3) (level: 9 of 16) with edge: (event: c) (guard: true -> p.y != 0) (assignments: p.y := p.y - 1)]
        Forward controlled-behavior: p.y = 4 or p.y = 6 or (p.y = 5 or p.y = 3) -> p.y = 4 or p.y = 2 or (p.y = 6 or (p.y = 5 or p.y = 3)) [forward reach using bounded saturation (transition: 3 of 3) (level: 9 of 16) with edge: (event: c) (guard: true -> p.y != 0) (assignments: p.y := p.y - 1)]
        Forward controlled-behavior: p.y = 4 or p.y = 2 or (p.y = 6 or (p.y = 5 or p.y = 3)) -> not(p.y = 0 or p.y = 8) and p.y != 10 and (p.y != 9 and p.y != 7) [forward reach using bounded saturation (transition: 3 of 3) (level: 9 of 16) with edge: (event: c) (guard: true -> p.y != 0) (assignments: p.y := p.y - 1)]
        Forward controlled-behavior: not(p.y = 0 or p.y = 8) and p.y != 10 and (p.y != 9 and p.y != 7) -> (0 <= p.y and p.y <= 7 or p.y = 9) and (p.y != 9 and p.y != 7) [forward reach using bounded saturation (transition: 3 of 3) (level: 9 of 16) with edge: (event: c) (guard: true -> p.y != 0) (assignments: p.y := p.y - 1)]
        Forward controlled-behavior: p.x = 5 and (p.y = 0 or p.y = 2 or (p.y = 4 or p.y = 6)) or (p.x = 5 and (p.y = 1 or p.y = 5) or p.x = 5 and p.y = 3) -> p.x = 6 and (p.y = 0 or p.y = 2 or (p.y = 4 or p.y = 6)) or (p.x = 6 and (p.y = 1 or p.y = 5) or p.x = 6 and p.y = 3) or (p.x = 5 and (p.y = 0 or p.y = 2 or (p.y = 4 or p.y = 6)) or (p.x = 5 and (p.y = 1 or p.y = 5) or p.x = 5 and p.y = 3)) [forward reach using bounded saturation (transition: 1 of 3) (level: 1 of 16) with edge: (event: a) (guard: true -> true) (assignments: p.x := p.x + 1)]
        Forward controlled-behavior: p.x = 6 and (p.y = 0 or p.y = 2 or (p.y = 4 or p.y = 6)) or (p.x = 6 and (p.y = 1 or p.y = 5) or p.x = 6 and p.y = 3) or (p.x = 5 and (p.y = 0 or p.y = 2 or (p.y = 4 or p.y = 6)) or (p.x = 5 and (p.y = 1 or p.y = 5) or p.x = 5 and p.y = 3)) -> p.x = 4 and p.y = 4 or p.x = 4 and (p.y = 2 or p.y = 6) or (p.x = 4 and (p.y = 1 or p.y = 5) or (p.x = 4 and p.y = 3 or p.x = 6 and (p.y = 0 or p.y = 2 or (p.y = 4 or p.y = 6)))) or (p.x = 6 and (p.y = 1 or p.y = 5) or p.x = 6 and p.y = 3 or (p.x = 5 and (p.y = 0 or p.y = 2 or (p.y = 4 or p.y = 6)) or (p.x = 5 and (p.y = 1 or p.y = 5) or p.x = 5 and p.y = 3))) [forward reach using bounded saturation (transition: 2 of 3) (level: 1 of 16) with edge: (event: b) (guard: true -> p.x != 0) (assignments: p.x := p.x - 1, p.y := p.y + 1)]
        Forward controlled-behavior: not(p.y = 0 or p.y = 8) and p.y != 10 and (p.y != 9 and p.y != 7) -> (0 <= p.y and p.y <= 7 or p.y = 9) and (p.y != 9 and p.y != 7) [forward reach using bounded saturation (transition: 3 of 3) (level: 9 of 16) with edge: (event: c) (guard: true -> p.y != 0) (assignments: p.y := p.y - 1)]
        Forward controlled-behavior: (p.x = 4 or p.x = 6) and (p.y = 0 or p.y = 2 or (p.y = 4 or p.y = 6)) or ((p.x = 4 or p.x = 6) and (p.y = 1 or p.y = 5) or (p.x = 4 or p.x = 6) and p.y = 3) or (p.x = 5 and (p.y = 0 or p.y = 2 or (p.y = 4 or p.y = 6)) or (p.x = 5 and (p.y = 1 or p.y = 5) or p.x = 5 and p.y = 3)) -> 4 <= p.x and (p.x <= 7 and (p.y = 0 or p.y = 2 or (p.y = 4 or p.y = 6))) or (4 <= p.x and (p.x <= 7 and (p.y = 1 or p.y = 5)) or 4 <= p.x and (p.x <= 7 and p.y = 3)) [forward reach using bounded saturation (transition: 1 of 3) (level: 1 of 16) with edge: (event: a) (guard: true -> true) (assignments: p.x := p.x + 1)]
        Forward controlled-behavior: 4 <= p.x and (p.x <= 7 and (p.y = 0 or p.y = 2 or (p.y = 4 or p.y = 6))) or (4 <= p.x and (p.x <= 7 and (p.y = 1 or p.y = 5)) or 4 <= p.x and (p.x <= 7 and p.y = 3)) -> (p.x = 4 or p.x = 6) and (p.y = 0 or p.y = 2 or (p.y = 4 or p.y = 6)) or ((p.x = 4 or p.x = 6) and (p.y = 1 or p.y = 5) or (p.x = 4 or p.x = 6) and p.y = 3) or (p.x = 5 and (p.y = 0 or p.y = 2 or (p.y = 4 or p.y = 6)) or (p.x = 5 and (p.y = 1 or p.y = 5) or p.x = 5 and p.y = 3)) or (p.x = 3 and p.y = 4 or (p.x = 3 and (p.y = 2 or p.y = 6) or p.x = 3 and (p.y = 1 or p.y = 5)) or (p.x = 3 and p.y = 3 or p.x = 7 and (p.y = 0 or p.y = 2 or (p.y = 4 or p.y = 6)) or (p.x = 7 and (p.y = 1 or p.y = 5) or p.x = 7 and p.y = 3))) [forward reach using bounded saturation (transition: 2 of 3) (level: 1 of 16) with edge: (event: b) (guard: true -> p.x != 0) (assignments: p.x := p.x - 1, p.y := p.y + 1)]
        Forward controlled-behavior: (p.x = 4 or p.x = 6) and (p.y = 0 or p.y = 2 or (p.y = 4 or p.y = 6)) or (p.x = 4 or p.x = 6) and (p.y = 1 or p.y = 5) or ((p.x = 4 or p.x = 6) and p.y = 3 or p.x = 5 and (p.y = 0 or p.y = 2 or (p.y = 4 or p.y = 6))) or (p.x = 5 and (p.y = 1 or p.y = 5) or p.x = 5 and p.y = 3 or ((p.x = 3 or p.x = 7) and (p.y = 0 or p.y = 2 or (p.y = 4 or p.y = 6)) or ((p.x = 3 or p.x = 7) and (p.y = 1 or p.y = 5) or (p.x = 3 or p.x = 7) and p.y = 3))) -> p.x != 0 and (p.x != 8 or (0 <= p.y and p.y <= 7 or p.y = 9)) and ((p.x != 8 or p.y != 9) and (p.x != 8 or p.y != 7)) and ((p.x != 4 or (0 <= p.y and p.y <= 7 or p.y = 9)) and (p.x != 4 or p.y != 9) and ((p.x != 4 or p.y != 7) and (not(p.x = 2 or p.x = 10) and (p.x != 6 or (0 <= p.y and p.y <= 7 or p.y = 9))))) and ((p.x != 6 or p.y != 9) and (p.x != 6 or p.y != 7) and (not(p.x = 1 or p.x = 9) and (p.x != 5 or (0 <= p.y and p.y <= 7 or p.y = 9))) and ((p.x != 5 or p.y != 9) and (p.x != 5 or p.y != 7) and ((not(p.x = 3 or p.x = 7) or (0 <= p.y and p.y <= 7 or p.y = 9)) and ((not(p.x = 3 or p.x = 7) or p.y != 9) and (not(p.x = 3 or p.x = 7) or p.y != 7))))) [forward reach using bounded saturation (transition: 1 of 3) (level: 1 of 16) with edge: (event: a) (guard: true -> true) (assignments: p.x := p.x + 1)]
        Forward controlled-behavior: p.x != 0 and (p.x != 8 or (0 <= p.y and p.y <= 7 or p.y = 9)) and ((p.x != 8 or p.y != 9) and (p.x != 8 or p.y != 7)) and ((p.x != 4 or (0 <= p.y and p.y <= 7 or p.y = 9)) and (p.x != 4 or p.y != 9) and ((p.x != 4 or p.y != 7) and (not(p.x = 2 or p.x = 10) and (p.x != 6 or (0 <= p.y and p.y <= 7 or p.y = 9))))) and ((p.x != 6 or p.y != 9) and (p.x != 6 or p.y != 7) and (not(p.x = 1 or p.x = 9) and (p.x != 5 or (0 <= p.y and p.y <= 7 or p.y = 9))) and ((p.x != 5 or p.y != 9) and (p.x != 5 or p.y != 7) and ((not(p.x = 3 or p.x = 7) or (0 <= p.y and p.y <= 7 or p.y = 9)) and ((not(p.x = 3 or p.x = 7) or p.y != 9) and (not(p.x = 3 or p.x = 7) or p.y != 7))))) -> p.x != 0 and (p.x != 8 or (0 <= p.y and p.y <= 7 or p.y = 9)) and ((p.x != 8 or p.y != 9) and ((p.x != 8 or p.y != 7) and (p.x != 4 or (0 <= p.y and p.y <= 7 or p.y = 9)))) and ((p.x != 4 or p.y != 9) and ((p.x != 4 or p.y != 7) and (p.x != 2 or not(p.y = 0 or p.y = 8))) and ((p.x != 2 or p.y != 10) and ((p.x != 2 or p.y != 9) and (p.x != 2 or p.y != 7)))) and (p.x != 10 and (p.x != 6 or (0 <= p.y and p.y <= 7 or p.y = 9)) and ((p.x != 6 or p.y != 9) and ((p.x != 6 or p.y != 7) and not(p.x = 1 or p.x = 9))) and ((p.x != 5 or (0 <= p.y and p.y <= 7 or p.y = 9)) and ((p.x != 5 or p.y != 9) and (p.x != 5 or p.y != 7)) and ((not(p.x = 3 or p.x = 7) or (0 <= p.y and p.y <= 7 or p.y = 9)) and ((not(p.x = 3 or p.x = 7) or p.y != 9) and (not(p.x = 3 or p.x = 7) or p.y != 7))))) [forward reach using bounded saturation (transition: 2 of 3) (level: 1 of 16) with edge: (event: b) (guard: true -> p.x != 0) (assignments: p.x := p.x - 1, p.y := p.y + 1)]

        Forward controlled-behavior: p.x != 0 and (p.x != 8 or (0 <= p.y and p.y <= 7 or p.y = 9)) and ((p.x != 8 or p.y != 9) and (p.x != 8 or p.y != 7)) and ((p.x != 4 or (0 <= p.y and p.y <= 7 or p.y = 9)) and (p.x != 4 or p.y != 9) and ((p.x != 4 or p.y != 7) and ((not(p.x = 2 or p.x = 6) or (0 <= p.y and p.y <= 7 or p.y = 9)) and (not(p.x = 2 or p.x = 6) or p.y != 9)))) and ((not(p.x = 2 or p.x = 6) or p.y != 7) and p.x != 10 and (not(p.x = 1 or p.x = 9) and (p.x != 5 or (0 <= p.y and p.y <= 7 or p.y = 9))) and ((p.x != 5 or p.y != 9) and (p.x != 5 or p.y != 7) and ((not(p.x = 3 or p.x = 7) or (0 <= p.y and p.y <= 7 or p.y = 9)) and ((not(p.x = 3 or p.x = 7) or p.y != 9) and (not(p.x = 3 or p.x = 7) or p.y != 7))))) [fixed point].

        Controlled behavior: <bdd 12n 25p> -> p.x != 0 and (p.x != 8 or (0 <= p.y and p.y <= 7 or p.y = 9)) and ((p.x != 8 or p.y != 9) and (p.x != 8 or p.y != 7)) and ((p.x != 4 or (0 <= p.y and p.y <= 7 or p.y = 9)) and (p.x != 4 or p.y != 9) and ((p.x != 4 or p.y != 7) and ((not(p.x = 2 or p.x = 6) or (0 <= p.y and p.y <= 7 or p.y = 9)) and (not(p.x = 2 or p.x = 6) or p.y != 9)))) and ((not(p.x = 2 or p.x = 6) or p.y != 7) and p.x != 10 and (not(p.x = 1 or p.x = 9) and (p.x != 5 or (0 <= p.y and p.y <= 7 or p.y = 9))) and ((p.x != 5 or p.y != 9) and (p.x != 5 or p.y != 7) and ((not(p.x = 3 or p.x = 7) or (0 <= p.y and p.y <= 7 or p.y = 9)) and ((not(p.x = 3 or p.x = 7) or p.y != 9) and (not(p.x = 3 or p.x = 7) or p.y != 7))))).

    Need another round.

Synthesis round 2:
    Computing backward controlled-behavior predicate:
        Saturation matrix:
                /---------------- 1  p.x#0
                |/--------------- 2  p.x#0+
                ||/-------------- 3  p.x#1
                |||/------------- 4  p.x#1+
                ||||/------------ 5  p.x#2
                |||||/----------- 6  p.x#2+
                ||||||/---------- 7  p.x#3
                |||||||/--------- 8  p.x#3+
                ||||||||/-------- 9  p.y#0
                |||||||||/------- 10 p.y#0+
                ||||||||||/------ 11 p.y#1
                |||||||||||/----- 12 p.y#1+
                ||||||||||||/---- 13 p.y#2
                |||||||||||||/--- 14 p.y#2+
                ||||||||||||||/-- 15 p.y#3
                |||||||||||||||/- 16 p.y#3+
            1 a rwrwrwrw
            2 b rwrwrwrwrwrwrwrw
            3 c         rwrwrwrw

        Backward controlled-behavior: true [marker predicate]
        Backward controlled-behavior: true -> p.x != 0 and (p.x != 8 or (0 <= p.y and p.y <= 7 or p.y = 9)) and ((p.x != 8 or p.y != 9) and (p.x != 8 or p.y != 7)) and ((p.x != 4 or (0 <= p.y and p.y <= 7 or p.y = 9)) and (p.x != 4 or p.y != 9) and ((p.x != 4 or p.y != 7) and ((not(p.x = 2 or p.x = 6) or (0 <= p.y and p.y <= 7 or p.y = 9)) and (not(p.x = 2 or p.x = 6) or p.y != 9)))) and ((not(p.x = 2 or p.x = 6) or p.y != 7) and p.x != 10 and (not(p.x = 1 or p.x = 9) and (p.x != 5 or (0 <= p.y and p.y <= 7 or p.y = 9))) and ((p.x != 5 or p.y != 9) and (p.x != 5 or p.y != 7) and ((not(p.x = 3 or p.x = 7) or (0 <= p.y and p.y <= 7 or p.y = 9)) and ((not(p.x = 3 or p.x = 7) or p.y != 9) and (not(p.x = 3 or p.x = 7) or p.y != 7))))) [restricted to current/previous controlled-behavior predicate: p.x != 0 and (p.x != 8 or (0 <= p.y and p.y <= 7 or p.y = 9)) and ((p.x != 8 or p.y != 9) and (p.x != 8 or p.y != 7)) and ((p.x != 4 or (0 <= p.y and p.y <= 7 or p.y = 9)) and (p.x != 4 or p.y != 9) and ((p.x != 4 or p.y != 7) and ((not(p.x = 2 or p.x = 6) or (0 <= p.y and p.y <= 7 or p.y = 9)) and (not(p.x = 2 or p.x = 6) or p.y != 9)))) and ((not(p.x = 2 or p.x = 6) or p.y != 7) and p.x != 10 and (not(p.x = 1 or p.x = 9) and (p.x != 5 or (0 <= p.y and p.y <= 7 or p.y = 9))) and ((p.x != 5 or p.y != 9) and (p.x != 5 or p.y != 7) and ((not(p.x = 3 or p.x = 7) or (0 <= p.y and p.y <= 7 or p.y = 9)) and ((not(p.x = 3 or p.x = 7) or p.y != 9) and (not(p.x = 3 or p.x = 7) or p.y != 7)))))]

        Backward controlled-behavior: p.x != 0 and (p.x != 8 or (0 <= p.y and p.y <= 7 or p.y = 9)) and ((p.x != 8 or p.y != 9) and (p.x != 8 or p.y != 7)) and ((p.x != 4 or (0 <= p.y and p.y <= 7 or p.y = 9)) and (p.x != 4 or p.y != 9) and ((p.x != 4 or p.y != 7) and ((not(p.x = 2 or p.x = 6) or (0 <= p.y and p.y <= 7 or p.y = 9)) and (not(p.x = 2 or p.x = 6) or p.y != 9)))) and ((not(p.x = 2 or p.x = 6) or p.y != 7) and p.x != 10 and (not(p.x = 1 or p.x = 9) and (p.x != 5 or (0 <= p.y and p.y <= 7 or p.y = 9))) and ((p.x != 5 or p.y != 9) and (p.x != 5 or p.y != 7) and ((not(p.x = 3 or p.x = 7) or (0 <= p.y and p.y <= 7 or p.y = 9)) and ((not(p.x = 3 or p.x = 7) or p.y != 9) and (not(p.x = 3 or p.x = 7) or p.y != 7))))) [fixed point].

        Controlled behavior not changed.

    Computing backward uncontrolled bad-state predicate:
        Saturation matrix:
            No edges.

        Backward uncontrolled bad-state: <bdd 11n 26p> [current/previous controlled behavior predicate]

        Controlled behavior not changed.

    Finished: controlled behavior is stable.

Computing final controlled system guards:
    Edge (event: a) (guard: true -> true) (assignments: p.x := p.x + 1): guard: true -> not(p.x = 0 or p.x = 8) and ((p.x != 4 or (0 <= p.y and p.y <= 7 or p.y = 9)) and (p.x != 4 or p.y != 9)) and ((p.x != 4 or p.y != 7) and ((not(p.x = 2 or p.x = 6) or (0 <= p.y and p.y <= 7 or p.y = 9)) and (not(p.x = 2 or p.x = 6) or p.y != 9))) and ((not(p.x = 2 or p.x = 6) or p.y != 7) and (p.x != 10 and (not(p.x = 1 or p.x = 3 or (p.x = 5 or p.x = 7)) or (0 <= p.y and p.y <= 7 or p.y = 9))) and ((not(p.x = 1 or p.x = 3 or (p.x = 5 or p.x = 7)) or p.y != 9) and ((not(p.x = 1 or p.x = 3 or (p.x = 5 or p.x = 7)) or p.y != 7) and p.x != 9))).
    Edge (event: b) (guard: true -> p.x != 0) (assignments: p.x := p.x - 1, p.y := p.y + 1): guard: p.x != 0 -> p.x = 8 and (p.y = 0 or p.y = 1 or (p.y = 4 or p.y = 5)) or (p.x = 8 and (p.y = 2 or p.y = 3) or p.x = 4 and (p.y = 0 or p.y = 1 or (p.y = 4 or p.y = 5))) or (p.x = 4 and (p.y = 2 or p.y = 3) or (p.x = 6 and (p.y = 0 or p.y = 1 or (p.y = 4 or p.y = 5)) or p.x = 6 and (p.y = 2 or p.y = 3))) or (p.x = 9 and (p.y = 0 or p.y = 1 or (p.y = 4 or p.y = 5)) or (p.x = 9 and (p.y = 2 or p.y = 3) or p.x = 5 and (p.y = 0 or p.y = 1 or (p.y = 4 or p.y = 5))) or (p.x = 5 and (p.y = 2 or p.y = 3) or ((p.x = 3 or p.x = 7) and (p.y = 0 or p.y = 1 or (p.y = 4 or p.y = 5)) or (p.x = 3 or p.x = 7) and (p.y = 2 or p.y = 3)))).
    Edge (event: c) (guard: true -> p.y != 0) (assignments: p.y := p.y - 1): guard: p.y != 0 -> p.x != 0 and (p.x != 8 or not(p.y = 0 or p.y = 8)) and ((p.x != 8 or p.y != 10) and (p.x != 8 or p.y != 9)) and ((p.x != 4 or not(p.y = 0 or p.y = 8)) and (p.x != 4 or p.y != 10) and ((p.x != 4 or p.y != 9) and ((not(p.x = 2 or p.x = 6) or not(p.y = 0 or p.y = 8)) and (not(p.x = 2 or p.x = 6) or p.y != 10)))) and ((not(p.x = 2 or p.x = 6) or p.y != 9) and p.x != 10 and (not(p.x = 1 or p.x = 9) and (p.x != 5 or not(p.y = 0 or p.y = 8))) and ((p.x != 5 or p.y != 10) and (p.x != 5 or p.y != 9) and ((not(p.x = 3 or p.x = 7) or not(p.y = 0 or p.y = 8)) and ((not(p.x = 3 or p.x = 7) or p.y != 10) and (not(p.x = 3 or p.x = 7) or p.y != 9))))).

Cleaning up cached predicate of edges that were used when applying edges.

Final synthesis result:
    State: (controlled-behavior: p.x != 0 and (p.x != 8 or (0 <= p.y and p.y <= 7 or p.y = 9)) and ((p.x != 8 or p.y != 9) and (p.x != 8 or p.y != 7)) and ((p.x != 4 or (0 <= p.y and p.y <= 7 or p.y = 9)) and (p.x != 4 or p.y != 9) and ((p.x != 4 or p.y != 7) and ((not(p.x = 2 or p.x = 6) or (0 <= p.y and p.y <= 7 or p.y = 9)) and (not(p.x = 2 or p.x = 6) or p.y != 9)))) and ((not(p.x = 2 or p.x = 6) or p.y != 7) and p.x != 10 and (not(p.x = 1 or p.x = 9) and (p.x != 5 or (0 <= p.y and p.y <= 7 or p.y = 9))) and ((p.x != 5 or p.y != 9) and (p.x != 5 or p.y != 7) and ((not(p.x = 3 or p.x = 7) or (0 <= p.y and p.y <= 7 or p.y = 9)) and ((not(p.x = 3 or p.x = 7) or p.y != 9) and (not(p.x = 3 or p.x = 7) or p.y != 7))))))
        Edge: (event: a) (guard: true -> not(p.x = 0 or p.x = 8) and ((p.x != 4 or (0 <= p.y and p.y <= 7 or p.y = 9)) and (p.x != 4 or p.y != 9)) and ((p.x != 4 or p.y != 7) and ((not(p.x = 2 or p.x = 6) or (0 <= p.y and p.y <= 7 or p.y = 9)) and (not(p.x = 2 or p.x = 6) or p.y != 9))) and ((not(p.x = 2 or p.x = 6) or p.y != 7) and (p.x != 10 and (not(p.x = 1 or p.x = 3 or (p.x = 5 or p.x = 7)) or (0 <= p.y and p.y <= 7 or p.y = 9))) and ((not(p.x = 1 or p.x = 3 or (p.x = 5 or p.x = 7)) or p.y != 9) and ((not(p.x = 1 or p.x = 3 or (p.x = 5 or p.x = 7)) or p.y != 7) and p.x != 9)))) (assignments: p.x := p.x + 1)
        Edge: (event: b) (guard: true -> p.x = 8 and (p.y = 0 or p.y = 1 or (p.y = 4 or p.y = 5)) or (p.x = 8 and (p.y = 2 or p.y = 3) or p.x = 4 and (p.y = 0 or p.y = 1 or (p.y = 4 or p.y = 5))) or (p.x = 4 and (p.y = 2 or p.y = 3) or (p.x = 6 and (p.y = 0 or p.y = 1 or (p.y = 4 or p.y = 5)) or p.x = 6 and (p.y = 2 or p.y = 3))) or (p.x = 9 and (p.y = 0 or p.y = 1 or (p.y = 4 or p.y = 5)) or (p.x = 9 and (p.y = 2 or p.y = 3) or p.x = 5 and (p.y = 0 or p.y = 1 or (p.y = 4 or p.y = 5))) or (p.x = 5 and (p.y = 2 or p.y = 3) or ((p.x = 3 or p.x = 7) and (p.y = 0 or p.y = 1 or (p.y = 4 or p.y = 5)) or (p.x = 3 or p.x = 7) and (p.y = 2 or p.y = 3))))) (assignments: p.x := p.x - 1, p.y := p.y + 1)
        Edge: (event: c) (guard: true -> p.x != 0 and (p.x != 8 or not(p.y = 0 or p.y = 8)) and ((p.x != 8 or p.y != 10) and (p.x != 8 or p.y != 9)) and ((p.x != 4 or not(p.y = 0 or p.y = 8)) and (p.x != 4 or p.y != 10) and ((p.x != 4 or p.y != 9) and ((not(p.x = 2 or p.x = 6) or not(p.y = 0 or p.y = 8)) and (not(p.x = 2 or p.x = 6) or p.y != 10)))) and ((not(p.x = 2 or p.x = 6) or p.y != 9) and p.x != 10 and (not(p.x = 1 or p.x = 9) and (p.x != 5 or not(p.y = 0 or p.y = 8))) and ((p.x != 5 or p.y != 10) and (p.x != 5 or p.y != 9) and ((not(p.x = 3 or p.x = 7) or not(p.y = 0 or p.y = 8)) and ((not(p.x = 3 or p.x = 7) or p.y != 10) and (not(p.x = 3 or p.x = 7) or p.y != 9)))))) (assignments: p.y := p.y - 1)

Computing initialization predicate of the controlled system.

Controlled system: exactly 49 states.

Determining initialization predicate for output model:
    Initial (synthesis result):            p.x != 0 and (p.x != 8 or (0 <= p.y and p.y <= 7 or p.y = 9)) and ((p.x != 8 or p.y != 9) and (p.x != 8 or p.y != 7)) and ((p.x != 4 or (0 <= p.y and p.y <= 7 or p.y = 9)) and (p.x != 4 or p.y != 9) and ((p.x != 4 or p.y != 7) and ((not(p.x = 2 or p.x = 6) or (0 <= p.y and p.y <= 7 or p.y = 9)) and (not(p.x = 2 or p.x = 6) or p.y != 9)))) and ((not(p.x = 2 or p.x = 6) or p.y != 7) and p.x != 10 and (not(p.x = 1 or p.x = 9) and (p.x != 5 or (0 <= p.y and p.y <= 7 or p.y = 9))) and ((p.x != 5 or p.y != 9) and (p.x != 5 or p.y != 7) and ((not(p.x = 3 or p.x = 7) or (0 <= p.y and p.y <= 7 or p.y = 9)) and ((not(p.x = 3 or p.x = 7) or p.y != 9) and (not(p.x = 3 or p.x = 7) or p.y != 7)))))
    Initial (uncontrolled system):         p.x = 5 and p.y = 6
    Initial (controlled system):           p.x = 5 and p.y = 6
    Initial (removed by supervisor):       false
    Initial (added by supervisor):         true

    Initial (output model):                n/a

Determining supervisor guards for output model:
    Event a: guard: not(p.x = 0 or p.x = 8) and ((p.x != 4 or (0 <= p.y and p.y <= 7 or p.y = 9)) and (p.x != 4 or p.y != 9)) and ((p.x != 4 or p.y != 7) and ((not(p.x = 2 or p.x = 6) or (0 <= p.y and p.y <= 7 or p.y = 9)) and (not(p.x = 2 or p.x = 6) or p.y != 9))) and ((not(p.x = 2 or p.x = 6) or p.y != 7) and (p.x != 10 and (not(p.x = 1 or p.x = 3 or (p.x = 5 or p.x = 7)) or (0 <= p.y and p.y <= 7 or p.y = 9))) and ((not(p.x = 1 or p.x = 3 or (p.x = 5 or p.x = 7)) or p.y != 9) and ((not(p.x = 1 or p.x = 3 or (p.x = 5 or p.x = 7)) or p.y != 7) and p.x != 9))).
    Event b: guard: p.x = 8 and (p.y = 0 or p.y = 1 or (p.y = 4 or p.y = 5)) or (p.x = 8 and (p.y = 2 or p.y = 3) or p.x = 4 and (p.y = 0 or p.y = 1 or (p.y = 4 or p.y = 5))) or (p.x = 4 and (p.y = 2 or p.y = 3) or (p.x = 6 and (p.y = 0 or p.y = 1 or (p.y = 4 or p.y = 5)) or p.x = 6 and (p.y = 2 or p.y = 3))) or (p.x = 9 and (p.y = 0 or p.y = 1 or (p.y = 4 or p.y = 5)) or (p.x = 9 and (p.y = 2 or p.y = 3) or p.x = 5 and (p.y = 0 or p.y = 1 or (p.y = 4 or p.y = 5))) or (p.x = 5 and (p.y = 2 or p.y = 3) or ((p.x = 3 or p.x = 7) and (p.y = 0 or p.y = 1 or (p.y = 4 or p.y = 5)) or (p.x = 3 or p.x = 7) and (p.y = 2 or p.y = 3)))).
    Event c: guard: p.x != 0 and (p.x != 8 or not(p.y = 0 or p.y = 8)) and ((p.x != 8 or p.y != 10) and (p.x != 8 or p.y != 9)) and ((p.x != 4 or not(p.y = 0 or p.y = 8)) and (p.x != 4 or p.y != 10) and ((p.x != 4 or p.y != 9) and ((not(p.x = 2 or p.x = 6) or not(p.y = 0 or p.y = 8)) and (not(p.x = 2 or p.x = 6) or p.y != 10)))) and ((not(p.x = 2 or p.x = 6) or p.y != 9) and p.x != 10 and (not(p.x = 1 or p.x = 9) and (p.x != 5 or not(p.y = 0 or p.y = 8))) and ((p.x != 5 or p.y != 10) and (p.x != 5 or p.y != 9) and ((not(p.x = 3 or p.x = 7) or not(p.y = 0 or p.y = 8)) and ((not(p.x = 3 or p.x = 7) or p.y != 10) and (not(p.x = 3 or p.x = 7) or p.y != 9))))).

Checking post-synthesis for events that are never enabled.

Simplifying supervisor guards for output model:
    Simplification under the assumption of the plants.

    Guards not changed.

Constructing output CIF specification.

Checking output CIF specification.

Writing output CIF file "datasynth/multi_req_invs1.ctrlsys.real.cif".
