Reading CIF file "datasynth/simplify_initial_unctrl_off.cif".

Preprocessing CIF specification (includes checking that the specification is supported).

Converting CIF specification to internal format (BDDs):
    CIF variables and location pointers:
        Nr     Kind               Type       Name  Group  BDD vars  CIF values  BDD values  Values used
        -----  -----------------  ---------  ----  -----  --------  ----------  ----------  -----------
        1      discrete variable  int[0..9]  p.x   0      4 * 2     10 * 2      16 * 2      ~63%
        -----  -----------------  ---------  ----  -----  --------  ----------  ----------  -----------
        Total                                      1      8         20          32          ~63%

    Skipping variable ordering: only one variable present.

Starting data-based synthesis.

Synthesis input:
    Invariant (components state plant inv):      true
    Invariant (locations state plant invariant): true
    Invariant (system state plant invariant):    true

    Invariant (components state req invariant):  true
    Invariant (locations state req invariant):   true
    Invariant (system state req invariant):      true

    Initial   (discrete variable 0):             true
    Initial   (discrete variables):              true
    Initial   (component init predicate):        p.x = 1 or p.x = 3 or (p.x = 5 or (p.x = 7 or p.x = 9))
    Initial   (components init predicate):       p.x = 1 or p.x = 3 or (p.x = 5 or (p.x = 7 or p.x = 9))
    Initial   (aut/locs init predicate):         true
    Initial   (auts/locs init predicate):        true
    Initial   (uncontrolled system):             p.x = 1 or p.x = 3 or (p.x = 5 or (p.x = 7 or p.x = 9))
    Initial   (system, combined init/plant inv): p.x = 1 or p.x = 3 or (p.x = 5 or (p.x = 7 or p.x = 9))
    Initial   (system, combined init/state inv): p.x = 1 or p.x = 3 or (p.x = 5 or (p.x = 7 or p.x = 9))

    Marked    (components marker predicate):     true
    Marked    (aut/locs marker predicate):       true
    Marked    (auts/locs marker predicate):      true
    Marked    (uncontrolled system):             true
    Marked    (system, combined mark/plant inv): true
    Marked    (system, combined mark/state inv): true

    State/event exclusion plants:
        None

    State/event exclusion requirements:
        Event "e" needs:
            p.x = 8 or p.x = 6 or (p.x = 9 or (p.x = 5 or p.x = 7))

    Uncontrolled system:
        State: (controlled-behavior: ?)
            Edge: (event: e) (guard: true)

Checking input for potential problems.

Restricting edge guards to prevent runtime errors:
    No guards changed.

Restricting uncontrolled system behavior using state/event exclusion plant invariants:
    No guards changed.

Initializing edges for being applied.

Restricting uncontrolled system behavior using state plant invariants:
    No restrictions needed.

Initializing controlled behavior:
    Controlled-behavior predicate: true.
    Controlled-initialization predicate: p.x = 1 or p.x = 3 or (p.x = 5 or (p.x = 7 or p.x = 9)).

Restricting behavior using state requirements:
    Controlled behavior not changed.

Extending controlled-behavior predicate using variable ranges:
    Controlled behavior: true -> true [range: true, variable: discrete variable "p.x" of type "int[0..9]" (group: 0, domain: 0+1, BDD variables: 4, CIF/BDD values: 10/16)].

    Extended controlled-behavior predicate using variable ranges: true.

Restricting behavior using state/event exclusion requirements:
    Controlled behavior: true -> p.x != 0 and p.x != 4 and (p.x != 2 and (p.x != 1 and p.x != 3)) [state/event exclusion requirement: p.x = 8 or p.x = 6 or (p.x = 9 or (p.x = 5 or p.x = 7)), edge: (event: e) (guard: true)].

    Restricted behavior using state/event exclusion requirements:
        State: (controlled-behavior: p.x != 0 and p.x != 4 and (p.x != 2 and (p.x != 1 and p.x != 3)))

Restricting behavior using implicit runtime error requirements:
    Controlled behavior not changed.

Re-initializing edges for being applied.

Checking pre-synthesis for events that are never enabled.

Synthesis round 1:
    Computing backward controlled-behavior predicate:
        Saturation matrix:
                /-------- 1 p.x#0
                |/------- 2 p.x#0+
                ||/------ 3 p.x#1
                |||/----- 4 p.x#1+
                ||||/---- 5 p.x#2
                |||||/--- 6 p.x#2+
                ||||||/-- 7 p.x#3
                |||||||/- 8 p.x#3+
            1 e

        Backward controlled-behavior: true [marker predicate]
        Backward controlled-behavior: true -> p.x != 0 and p.x != 4 and (p.x != 2 and (p.x != 1 and p.x != 3)) [restricted to current/previous controlled-behavior predicate: p.x != 0 and p.x != 4 and (p.x != 2 and (p.x != 1 and p.x != 3))]

        Backward controlled-behavior: p.x != 0 and p.x != 4 and (p.x != 2 and (p.x != 1 and p.x != 3)) [fixed point].

        Controlled behavior not changed.

    Computing backward uncontrolled bad-state predicate:
        Saturation matrix:
                /-------- 1 p.x#0
                |/------- 2 p.x#0+
                ||/------ 3 p.x#1
                |||/----- 4 p.x#1+
                ||||/---- 5 p.x#2
                |||||/--- 6 p.x#2+
                ||||||/-- 7 p.x#3
                |||||||/- 8 p.x#3+
            1 e

        Backward uncontrolled bad-state: p.x != 8 and p.x != 6 and (p.x != 9 and (p.x != 5 and p.x != 7)) [current/previous controlled behavior predicate]

        Controlled behavior not changed.

    Computing forward controlled-behavior predicate:
        Saturation matrix:
                /-------- 1 p.x#0
                |/------- 2 p.x#0+
                ||/------ 3 p.x#1
                |||/----- 4 p.x#1+
                ||||/---- 5 p.x#2
                |||||/--- 6 p.x#2+
                ||||||/-- 7 p.x#3
                |||||||/- 8 p.x#3+
            1 e

        Forward controlled-behavior: p.x = 1 or p.x = 3 or (p.x = 5 or (p.x = 7 or p.x = 9)) [initialization predicate]
        Forward controlled-behavior: p.x = 1 or p.x = 3 or (p.x = 5 or (p.x = 7 or p.x = 9)) -> p.x = 9 or (p.x = 5 or p.x = 7) [restricted to current/previous controlled-behavior predicate: p.x != 0 and p.x != 4 and (p.x != 2 and (p.x != 1 and p.x != 3))]

        Forward controlled-behavior: p.x = 9 or (p.x = 5 or p.x = 7) [fixed point].

        Controlled behavior: p.x != 0 and p.x != 4 and (p.x != 2 and (p.x != 1 and p.x != 3)) -> p.x = 9 or (p.x = 5 or p.x = 7).

    Need another round.

Synthesis round 2:
    Computing backward controlled-behavior predicate:
        Saturation matrix:
                /-------- 1 p.x#0
                |/------- 2 p.x#0+
                ||/------ 3 p.x#1
                |||/----- 4 p.x#1+
                ||||/---- 5 p.x#2
                |||||/--- 6 p.x#2+
                ||||||/-- 7 p.x#3
                |||||||/- 8 p.x#3+
            1 e

        Backward controlled-behavior: true [marker predicate]
        Backward controlled-behavior: true -> p.x = 9 or (p.x = 5 or p.x = 7) [restricted to current/previous controlled-behavior predicate: p.x = 9 or (p.x = 5 or p.x = 7)]

        Backward controlled-behavior: p.x = 9 or (p.x = 5 or p.x = 7) [fixed point].

        Controlled behavior not changed.

    Computing backward uncontrolled bad-state predicate:
        Saturation matrix:
                /-------- 1 p.x#0
                |/------- 2 p.x#0+
                ||/------ 3 p.x#1
                |||/----- 4 p.x#1+
                ||||/---- 5 p.x#2
                |||||/--- 6 p.x#2+
                ||||||/-- 7 p.x#3
                |||||||/- 8 p.x#3+
            1 e

        Backward uncontrolled bad-state: p.x != 9 and (p.x != 5 and p.x != 7) [current/previous controlled behavior predicate]

        Controlled behavior not changed.

    Finished: controlled behavior is stable.

Computing final controlled system guards:
    No guards changed.

Cleaning up cached predicate of edges that were used when applying edges.

Final synthesis result:
    State: (controlled-behavior: p.x = 9 or (p.x = 5 or p.x = 7))
        Edge: (event: e) (guard: true)

Computing initialization predicate of the controlled system.

Controlled system: exactly 3 states.

Determining initialization predicate for output model:
    Initial (synthesis result):            p.x = 9 or (p.x = 5 or p.x = 7)
    Initial (uncontrolled system):         p.x = 1 or p.x = 3 or (p.x = 5 or (p.x = 7 or p.x = 9))
    Initial (controlled system):           p.x = 9 or (p.x = 5 or p.x = 7)
    Initial (removed by supervisor):       p.x = 1 or p.x = 3
    Initial (added by supervisor):         not(p.x = 1 or p.x = 3)

    Initial (output model):                p.x = 9 or (p.x = 5 or p.x = 7)

Determining supervisor guards for output model:
    No controllable events.

Checking post-synthesis for events that are never enabled.

Simplifying supervisor guards for output model:
    No simplifications enabled.

Constructing output CIF specification.

Checking output CIF specification.

Writing output CIF file "datasynth/simplify_initial_unctrl_off.ctrlsys.real.cif".
