Reading CIF file "datasynth/var_order_hyper_edge_linearized.cif".

Preprocessing CIF specification (includes checking that the specification is supported).

Converting CIF specification to internal format (BDDs):
    CIF variables and location pointers:
        Nr     Kind               Type       Name           Group  BDD vars  CIF values  BDD values  Values used
        -----  -----------------  ---------  -------------  -----  --------  ----------  ----------  -----------
        1      location pointer   n/a        buffer1        0      1 * 2     2 * 2       2 * 2       100%
        2      discrete variable  int[0..3]  buffer1.count  1      2 * 2     4 * 2       4 * 2       100%
        3      location pointer   n/a        buffer3        2      1 * 2     2 * 2       2 * 2       100%
        4      discrete variable  int[0..3]  buffer3.count  3      2 * 2     4 * 2       4 * 2       100%
        5      location pointer   n/a        buffer2        4      1 * 2     2 * 2       2 * 2       100%
        6      discrete variable  int[0..3]  buffer2.count  5      2 * 2     4 * 2       4 * 2       100%
        -----  -----------------  ---------  -------------  -----  --------  ----------  ----------  -----------
        Total                                               6      18        36          36          100%

    Applying variable ordering:
        Applying 4 orderers, sequentially:
            Applying model variable order:
                Effect: both

            Applying DCSH algorithm:
                Metric: wes
                Relations: linearized
                Effect: var-order
                Number of hyper-edges: 12

                Applying Weighted Cuthill-McKee algorithm:
                    Node finder: george-liu
                    Relations: linearized
                    Effect: var-order
                    Number of graph edges: 3

                    Total span:   12 (total)   1.00 (avg/edge) / WES:   0.333333 (total)   0.027778 (avg/edge) [before]
                    Total span:   12 (total)   1.00 (avg/edge) / WES:   0.333333 (total)   0.027778 (avg/edge) [after]

                Found new best variable order.

                Applying Sloan algorithm:
                    Relations: linearized
                    Effect: var-order
                    Number of graph edges: 3

                    Total span:   12 (total)   1.00 (avg/edge) / WES:   0.333333 (total)   0.027778 (avg/edge) [before]
                    Total span:   12 (total)   1.00 (avg/edge) / WES:   0.333333 (total)   0.027778 (avg/edge) [after]

                Applying 2 orderers, sequentially:
                    Applying Weighted Cuthill-McKee algorithm:
                        Node finder: george-liu
                        Relations: linearized
                        Effect: var-order
                        Number of graph edges: 3

                        Total span:   12 (total)   1.00 (avg/edge) / WES:   0.333333 (total)   0.027778 (avg/edge) [before]
                        Total span:   12 (total)   1.00 (avg/edge) / WES:   0.333333 (total)   0.027778 (avg/edge) [after]

                    Reversing the variable order:
                        Relations: linearized
                        Effect: var-order
                        Number of hyper-edges: 12

                        Total span:   12 (total)   1.00 (avg/edge) / WES:   0.333333 (total)   0.027778 (avg/edge) [before]
                        Total span:   12 (total)   1.00 (avg/edge) / WES:   0.333333 (total)   0.027778 (avg/edge) [reversed]

                Applying 2 orderers, sequentially:
                    Applying Sloan algorithm:
                        Relations: linearized
                        Effect: var-order
                        Number of graph edges: 3

                        Total span:   12 (total)   1.00 (avg/edge) / WES:   0.333333 (total)   0.027778 (avg/edge) [before]
                        Total span:   12 (total)   1.00 (avg/edge) / WES:   0.333333 (total)   0.027778 (avg/edge) [after]

                    Reversing the variable order:
                        Relations: linearized
                        Effect: var-order
                        Number of hyper-edges: 12

                        Total span:   12 (total)   1.00 (avg/edge) / WES:   0.333333 (total)   0.027778 (avg/edge) [before]
                        Total span:   12 (total)   1.00 (avg/edge) / WES:   0.333333 (total)   0.027778 (avg/edge) [reversed]

            Applying FORCE algorithm:
                Metric: total-span
                Relations: linearized
                Effect: var-order
                Number of hyper-edges: 12
                Maximum number of iterations: 20

                Total span:   12 (total)   1.00 (avg/edge) / WES:   0.333333 (total)   0.027778 (avg/edge) [before]
                Total span:   12 (total)   1.00 (avg/edge) / WES:   0.333333 (total)   0.027778 (avg/edge) [iteration 1]
                Total span:   12 (total)   1.00 (avg/edge) / WES:   0.333333 (total)   0.027778 (avg/edge) [after]

            Applying sliding window algorithm:
                Size: 4
                Metric: total-span
                Relations: linearized
                Effect: var-order
                Number of hyper-edges: 12
                Window length: 4

                Total span:   12 (total)   1.00 (avg/edge) / WES:   0.333333 (total)   0.027778 (avg/edge) [before]
                Total span:   12 (total)   1.00 (avg/edge) / WES:   0.333333 (total)   0.027778 (avg/edge) [after]

    Variable order unchanged.

Starting data-based synthesis.

Synthesis input:
    Invariant (components state plant inv):      true
    Invariant (locations state plant invariant): true
    Invariant (system state plant invariant):    true

    Invariant (component state req invariant):   buffer1.count != 3 or (buffer3.count != 3 or buffer2.count != 3)
    Invariant (components state req invariant):  buffer1.count != 3 or (buffer3.count != 3 or buffer2.count != 3)
    Invariant (locations state req invariant):   true
    Invariant (system state req invariant):      buffer1.count != 3 or (buffer3.count != 3 or buffer2.count != 3)

    Initial   (discrete variable 1):             buffer1.count = 0
    Initial   (discrete variable 3):             buffer3.count = 0
    Initial   (discrete variable 5):             buffer2.count = 0
    Initial   (discrete variables):              buffer1.count = 0 and (buffer3.count = 0 and buffer2.count = 0)
    Initial   (components init predicate):       true
    Initial   (aut/locs init predicate):         buffer1.add
    Initial   (aut/locs init predicate):         buffer3.add
    Initial   (aut/locs init predicate):         buffer2.add
    Initial   (auts/locs init predicate):        buffer1.add and (buffer3.add and buffer2.add)
    Initial   (uncontrolled system):             buffer1.add and (buffer1.count = 0 and buffer3.add) and (buffer3.count = 0 and (buffer2.add and buffer2.count = 0))
    Initial   (system, combined init/plant inv): buffer1.add and (buffer1.count = 0 and buffer3.add) and (buffer3.count = 0 and (buffer2.add and buffer2.count = 0))
    Initial   (system, combined init/state inv): buffer1.add and (buffer1.count = 0 and buffer3.add) and (buffer3.count = 0 and (buffer2.add and buffer2.count = 0))

    Marked    (components marker predicate):     true
    Marked    (aut/locs marker predicate):       true
    Marked    (aut/locs marker predicate):       true
    Marked    (aut/locs marker predicate):       true
    Marked    (auts/locs marker predicate):      true
    Marked    (uncontrolled system):             true
    Marked    (system, combined mark/plant inv): true
    Marked    (system, combined mark/state inv): buffer1.count != 3 or (buffer3.count != 3 or buffer2.count != 3)

    State/event exclusion plants:
        None

    State/event exclusion requirements:
        None

    Uncontrolled system:
        State: (controlled-behavior: ?)
            Edge: (event: buffer1.u_switch_loc) (guard: (buffer1.remove or buffer1.count != 3) and buffer1.add) (assignments: buffer1 := buffer1.remove)
            Edge: (event: buffer1.u_switch_loc) (guard: buffer1.remove and (buffer1.add or buffer1.count != 0)) (assignments: buffer1 := buffer1.add)
            Edge: (event: buffer1.c_add) (guard: buffer1.add) (assignments: buffer1.count := buffer1.count + 1)
            Edge: (event: buffer1.c_remove) (guard: buffer1.remove) (assignments: buffer1.count := buffer1.count - 1)
            Edge: (event: buffer3.u_switch_loc) (guard: (buffer3.remove or buffer3.count != 3) and buffer3.add) (assignments: buffer3 := buffer3.remove)
            Edge: (event: buffer3.u_switch_loc) (guard: buffer3.remove and (buffer3.add or buffer3.count != 0)) (assignments: buffer3 := buffer3.add)
            Edge: (event: buffer3.c_add) (guard: buffer3.add) (assignments: buffer3.count := buffer3.count + 1)
            Edge: (event: buffer3.c_remove) (guard: buffer3.remove) (assignments: buffer3.count := buffer3.count - 1)
            Edge: (event: buffer2.u_switch_loc) (guard: (buffer2.remove or buffer2.count != 3) and buffer2.add) (assignments: buffer2 := buffer2.remove)
            Edge: (event: buffer2.u_switch_loc) (guard: buffer2.remove and (buffer2.add or buffer2.count != 0)) (assignments: buffer2 := buffer2.add)
            Edge: (event: buffer2.c_add) (guard: buffer2.add) (assignments: buffer2.count := buffer2.count + 1)
            Edge: (event: buffer2.c_remove) (guard: buffer2.remove) (assignments: buffer2.count := buffer2.count - 1)

Checking input for potential problems.

Restricting edge guards to prevent runtime errors:
    Edge: (event: buffer1.c_add) (guard: buffer1.add -> (buffer1.remove or buffer1.count != 3) and buffer1.add) (assignments: buffer1.count := buffer1.count + 1)
    Edge: (event: buffer1.c_remove) (guard: buffer1.remove -> buffer1.remove and (buffer1.add or buffer1.count != 0)) (assignments: buffer1.count := buffer1.count - 1)
    Edge: (event: buffer3.c_add) (guard: buffer3.add -> (buffer3.remove or buffer3.count != 3) and buffer3.add) (assignments: buffer3.count := buffer3.count + 1)
    Edge: (event: buffer3.c_remove) (guard: buffer3.remove -> buffer3.remove and (buffer3.add or buffer3.count != 0)) (assignments: buffer3.count := buffer3.count - 1)
    Edge: (event: buffer2.c_add) (guard: buffer2.add -> (buffer2.remove or buffer2.count != 3) and buffer2.add) (assignments: buffer2.count := buffer2.count + 1)
    Edge: (event: buffer2.c_remove) (guard: buffer2.remove -> buffer2.remove and (buffer2.add or buffer2.count != 0)) (assignments: buffer2.count := buffer2.count - 1)

    Uncontrolled system:
        State: (controlled-behavior: ?)
            Edge: (event: buffer1.u_switch_loc) (guard: (buffer1.remove or buffer1.count != 3) and buffer1.add) (assignments: buffer1 := buffer1.remove)
            Edge: (event: buffer1.u_switch_loc) (guard: buffer1.remove and (buffer1.add or buffer1.count != 0)) (assignments: buffer1 := buffer1.add)
            Edge: (event: buffer1.c_add) (guard: buffer1.add -> (buffer1.remove or buffer1.count != 3) and buffer1.add) (assignments: buffer1.count := buffer1.count + 1)
            Edge: (event: buffer1.c_remove) (guard: buffer1.remove -> buffer1.remove and (buffer1.add or buffer1.count != 0)) (assignments: buffer1.count := buffer1.count - 1)
            Edge: (event: buffer3.u_switch_loc) (guard: (buffer3.remove or buffer3.count != 3) and buffer3.add) (assignments: buffer3 := buffer3.remove)
            Edge: (event: buffer3.u_switch_loc) (guard: buffer3.remove and (buffer3.add or buffer3.count != 0)) (assignments: buffer3 := buffer3.add)
            Edge: (event: buffer3.c_add) (guard: buffer3.add -> (buffer3.remove or buffer3.count != 3) and buffer3.add) (assignments: buffer3.count := buffer3.count + 1)
            Edge: (event: buffer3.c_remove) (guard: buffer3.remove -> buffer3.remove and (buffer3.add or buffer3.count != 0)) (assignments: buffer3.count := buffer3.count - 1)
            Edge: (event: buffer2.u_switch_loc) (guard: (buffer2.remove or buffer2.count != 3) and buffer2.add) (assignments: buffer2 := buffer2.remove)
            Edge: (event: buffer2.u_switch_loc) (guard: buffer2.remove and (buffer2.add or buffer2.count != 0)) (assignments: buffer2 := buffer2.add)
            Edge: (event: buffer2.c_add) (guard: buffer2.add -> (buffer2.remove or buffer2.count != 3) and buffer2.add) (assignments: buffer2.count := buffer2.count + 1)
            Edge: (event: buffer2.c_remove) (guard: buffer2.remove -> buffer2.remove and (buffer2.add or buffer2.count != 0)) (assignments: buffer2.count := buffer2.count - 1)

Restricting uncontrolled system behavior using state/event exclusion plant invariants:
    No guards changed.

Initializing edges for being applied.

Restricting uncontrolled system behavior using state plant invariants:
    No restrictions needed.

Initializing controlled behavior:
    Controlled-behavior predicate: true.
    Controlled-initialization predicate: buffer1.add and (buffer1.count = 0 and buffer3.add) and (buffer3.count = 0 and (buffer2.add and buffer2.count = 0)).

Restricting behavior using state requirements:
    Controlled behavior: true -> buffer1.count != 3 or (buffer3.count != 3 or buffer2.count != 3) [state requirements: buffer1.count != 3 or (buffer3.count != 3 or buffer2.count != 3)].

Extending controlled-behavior predicate using variable ranges:
    Controlled behavior not changed.

Restricting behavior using state/event exclusion requirements:
    Guards and controlled behavior not changed.

Restricting behavior using implicit runtime error requirements:
    Controlled behavior not changed.

Re-initializing edges for being applied.

Checking pre-synthesis for events that are never enabled.

Synthesis round 1:
    Computing backward controlled-behavior predicate:
        Saturation matrix:
                                    /------------------ 1  buffer1#0
                                    |/----------------- 2  buffer1#0+
                                    ||/---------------- 3  buffer1.count#0
                                    |||/--------------- 4  buffer1.count#0+
                                    ||||/-------------- 5  buffer1.count#1
                                    |||||/------------- 6  buffer1.count#1+
                                    ||||||/------------ 7  buffer3#0
                                    |||||||/----------- 8  buffer3#0+
                                    ||||||||/---------- 9  buffer3.count#0
                                    |||||||||/--------- 10 buffer3.count#0+
                                    ||||||||||/-------- 11 buffer3.count#1
                                    |||||||||||/------- 12 buffer3.count#1+
                                    ||||||||||||/------ 13 buffer2#0
                                    |||||||||||||/----- 14 buffer2#0+
                                    ||||||||||||||/---- 15 buffer2.count#0
                                    |||||||||||||||/--- 16 buffer2.count#0+
                                    ||||||||||||||||/-- 17 buffer2.count#1
                                    |||||||||||||||||/- 18 buffer2.count#1+
            1  buffer1.u_switch_loc rwr r
            2  buffer1.u_switch_loc rwr r
            3  buffer1.c_add        r rwrw
            4  buffer1.c_remove     r rwrw
            5  buffer3.u_switch_loc       rwr r
            6  buffer3.u_switch_loc       rwr r
            7  buffer3.c_add              r rwrw
            8  buffer3.c_remove           r rwrw
            9  buffer2.u_switch_loc             rwr r
            10 buffer2.u_switch_loc             rwr r
            11 buffer2.c_add                    r rwrw
            12 buffer2.c_remove                 r rwrw

        Backward controlled-behavior: true [marker predicate]
        Backward controlled-behavior: true -> buffer1.count != 3 or (buffer3.count != 3 or buffer2.count != 3) [restricted to current/previous controlled-behavior predicate: buffer1.count != 3 or (buffer3.count != 3 or buffer2.count != 3)]

        Backward controlled-behavior: buffer1.count != 3 or (buffer3.count != 3 or buffer2.count != 3) [fixed point].

        Controlled behavior not changed.

    Computing backward uncontrolled bad-state predicate:
        Saturation matrix:
                                   /------------------ 1  buffer1#0
                                   |/----------------- 2  buffer1#0+
                                   ||/---------------- 3  buffer1.count#0
                                   |||/--------------- 4  buffer1.count#0+
                                   ||||/-------------- 5  buffer1.count#1
                                   |||||/------------- 6  buffer1.count#1+
                                   ||||||/------------ 7  buffer3#0
                                   |||||||/----------- 8  buffer3#0+
                                   ||||||||/---------- 9  buffer3.count#0
                                   |||||||||/--------- 10 buffer3.count#0+
                                   ||||||||||/-------- 11 buffer3.count#1
                                   |||||||||||/------- 12 buffer3.count#1+
                                   ||||||||||||/------ 13 buffer2#0
                                   |||||||||||||/----- 14 buffer2#0+
                                   ||||||||||||||/---- 15 buffer2.count#0
                                   |||||||||||||||/--- 16 buffer2.count#0+
                                   ||||||||||||||||/-- 17 buffer2.count#1
                                   |||||||||||||||||/- 18 buffer2.count#1+
            1 buffer1.u_switch_loc rwr r
            2 buffer1.u_switch_loc rwr r
            3 buffer3.u_switch_loc       rwr r
            4 buffer3.u_switch_loc       rwr r
            5 buffer2.u_switch_loc             rwr r
            6 buffer2.u_switch_loc             rwr r

        Backward uncontrolled bad-state: buffer1.count = 3 and (buffer3.count = 3 and buffer2.count = 3) [current/previous controlled behavior predicate]

        Controlled behavior not changed.

    Computing forward controlled-behavior predicate:
        Saturation matrix:
                                    /------------------ 1  buffer1#0
                                    |/----------------- 2  buffer1#0+
                                    ||/---------------- 3  buffer1.count#0
                                    |||/--------------- 4  buffer1.count#0+
                                    ||||/-------------- 5  buffer1.count#1
                                    |||||/------------- 6  buffer1.count#1+
                                    ||||||/------------ 7  buffer3#0
                                    |||||||/----------- 8  buffer3#0+
                                    ||||||||/---------- 9  buffer3.count#0
                                    |||||||||/--------- 10 buffer3.count#0+
                                    ||||||||||/-------- 11 buffer3.count#1
                                    |||||||||||/------- 12 buffer3.count#1+
                                    ||||||||||||/------ 13 buffer2#0
                                    |||||||||||||/----- 14 buffer2#0+
                                    ||||||||||||||/---- 15 buffer2.count#0
                                    |||||||||||||||/--- 16 buffer2.count#0+
                                    ||||||||||||||||/-- 17 buffer2.count#1
                                    |||||||||||||||||/- 18 buffer2.count#1+
            1  buffer1.u_switch_loc rwr r
            2  buffer1.u_switch_loc rwr r
            3  buffer1.c_add        r rwrw
            4  buffer1.c_remove     r rwrw
            5  buffer3.u_switch_loc       rwr r
            6  buffer3.u_switch_loc       rwr r
            7  buffer3.c_add              r rwrw
            8  buffer3.c_remove           r rwrw
            9  buffer2.u_switch_loc             rwr r
            10 buffer2.u_switch_loc             rwr r
            11 buffer2.c_add                    r rwrw
            12 buffer2.c_remove                 r rwrw

        Forward controlled-behavior: buffer1.add and (buffer1.count = 0 and buffer3.add) and (buffer3.count = 0 and (buffer2.add and buffer2.count = 0)) [initialization predicate]
        Forward controlled-behavior: buffer2.add and buffer2.count = 0 -> buffer2.count = 0 [forward reach using bounded saturation (transition: 9 of 12) (level: 13 of 18) with edge: (event: buffer2.u_switch_loc) (guard: (buffer2.remove or buffer2.count != 3) and buffer2.add) (assignments: buffer2 := buffer2.remove)]
        Forward controlled-behavior: buffer2.count = 0 -> buffer2.add and (buffer2.count = 0 or buffer2.count = 1) or buffer2.remove and buffer2.count = 0 [forward reach using bounded saturation (transition: 11 of 12) (level: 13 of 18) with edge: (event: buffer2.c_add) (guard: buffer2.add -> (buffer2.remove or buffer2.count != 3) and buffer2.add) (assignments: buffer2.count := buffer2.count + 1)]
        Forward controlled-behavior: buffer2.add and (buffer2.count = 0 or buffer2.count = 1) or buffer2.remove and buffer2.count = 0 -> buffer2.count = 0 or buffer2.count = 1 [forward reach using bounded saturation (transition: 9 of 12) (level: 13 of 18) with edge: (event: buffer2.u_switch_loc) (guard: (buffer2.remove or buffer2.count != 3) and buffer2.add) (assignments: buffer2 := buffer2.remove)]
        Forward controlled-behavior: buffer2.count = 0 or buffer2.count = 1 -> (buffer2.remove or buffer2.count != 3) and (buffer2.add or (buffer2.count = 0 or buffer2.count = 1)) [forward reach using bounded saturation (transition: 11 of 12) (level: 13 of 18) with edge: (event: buffer2.c_add) (guard: buffer2.add -> (buffer2.remove or buffer2.count != 3) and buffer2.add) (assignments: buffer2.count := buffer2.count + 1)]
        Forward controlled-behavior: (buffer2.remove or buffer2.count != 3) and (buffer2.add or (buffer2.count = 0 or buffer2.count = 1)) -> buffer2.count != 3 [forward reach using bounded saturation (transition: 9 of 12) (level: 13 of 18) with edge: (event: buffer2.u_switch_loc) (guard: (buffer2.remove or buffer2.count != 3) and buffer2.add) (assignments: buffer2 := buffer2.remove)]
        Forward controlled-behavior: buffer2.count != 3 -> buffer2.add or buffer2.count != 3 [forward reach using bounded saturation (transition: 11 of 12) (level: 13 of 18) with edge: (event: buffer2.c_add) (guard: buffer2.add -> (buffer2.remove or buffer2.count != 3) and buffer2.add) (assignments: buffer2.count := buffer2.count + 1)]
        Forward controlled-behavior: (buffer3.remove or buffer3.count != 0 or (buffer2.add or buffer2.count != 3)) and (buffer3.remove or buffer3.count != 2) and ((buffer3.remove or (buffer3.count = 0 or buffer3.count = 2)) and buffer3.add) -> (buffer3.count != 0 or (buffer2.add or buffer2.count != 3)) and (buffer3.count != 2 and (buffer3.count = 0 or buffer3.count = 2)) [forward reach using bounded saturation (transition: 5 of 12) (level: 7 of 18) with edge: (event: buffer3.u_switch_loc) (guard: (buffer3.remove or buffer3.count != 3) and buffer3.add) (assignments: buffer3 := buffer3.remove)]
        Forward controlled-behavior: (buffer3.count != 0 or (buffer2.add or buffer2.count != 3)) and (buffer3.count != 2 and (buffer3.count = 0 or buffer3.count = 2)) -> (buffer3.remove or buffer3.count = 2 or (buffer3.count = 3 or (buffer2.add or buffer2.count != 3))) and (buffer3.remove or (buffer3.count = 0 or buffer3.count = 1)) and ((buffer3.add or buffer3.count != 0 or (buffer2.add or buffer2.count != 3)) and ((buffer3.add or buffer3.count != 2) and (buffer3.add or (buffer3.count = 0 or buffer3.count = 2)))) [forward reach using bounded saturation (transition: 7 of 12) (level: 7 of 18) with edge: (event: buffer3.c_add) (guard: buffer3.add -> (buffer3.remove or buffer3.count != 3) and buffer3.add) (assignments: buffer3.count := buffer3.count + 1)]
        Forward controlled-behavior: (buffer3.remove or buffer3.count = 2 or (buffer3.count = 3 or (buffer2.add or buffer2.count != 3))) and (buffer3.remove or (buffer3.count = 0 or buffer3.count = 1)) and ((buffer3.add or buffer3.count != 0 or (buffer2.add or buffer2.count != 3)) and ((buffer3.add or buffer3.count != 2) and (buffer3.add or (buffer3.count = 0 or buffer3.count = 2)))) -> (buffer3.count = 2 or buffer3.count = 3 or (buffer2.add or buffer2.count != 3)) and (buffer3.count = 0 or buffer3.count = 1) [forward reach using bounded saturation (transition: 5 of 12) (level: 7 of 18) with edge: (event: buffer3.u_switch_loc) (guard: (buffer3.remove or buffer3.count != 3) and buffer3.add) (assignments: buffer3 := buffer3.remove)]
        Forward controlled-behavior: (buffer3.count = 2 or buffer3.count = 3 or (buffer2.add or buffer2.count != 3)) and (buffer3.count = 0 or buffer3.count = 1) -> (buffer3.remove or buffer3.count = 1 or (buffer3.count = 3 or (buffer2.add or buffer2.count != 3))) and (buffer3.remove or buffer3.count != 1 or (buffer2.add or buffer2.count != 3)) and ((buffer3.remove or buffer3.count != 3) and ((buffer3.add or buffer3.count = 2 or (buffer3.count = 3 or (buffer2.add or buffer2.count != 3))) and (buffer3.add or (buffer3.count = 0 or buffer3.count = 1)))) [forward reach using bounded saturation (transition: 7 of 12) (level: 7 of 18) with edge: (event: buffer3.c_add) (guard: buffer3.add -> (buffer3.remove or buffer3.count != 3) and buffer3.add) (assignments: buffer3.count := buffer3.count + 1)]
        Forward controlled-behavior: (buffer3.remove or buffer3.count = 1 or (buffer3.count = 3 or (buffer2.add or buffer2.count != 3))) and (buffer3.remove or buffer3.count != 1 or (buffer2.add or buffer2.count != 3)) and ((buffer3.remove or buffer3.count != 3) and ((buffer3.add or buffer3.count = 2 or (buffer3.count = 3 or (buffer2.add or buffer2.count != 3))) and (buffer3.add or (buffer3.count = 0 or buffer3.count = 1)))) -> (buffer3.count = 1 or buffer3.count = 3 or (buffer2.add or buffer2.count != 3)) and ((buffer3.count != 1 or (buffer2.add or buffer2.count != 3)) and buffer3.count != 3) [forward reach using bounded saturation (transition: 5 of 12) (level: 7 of 18) with edge: (event: buffer3.u_switch_loc) (guard: (buffer3.remove or buffer3.count != 3) and buffer3.add) (assignments: buffer3 := buffer3.remove)]
        Forward controlled-behavior: (buffer3.count = 1 or buffer3.count = 3 or (buffer2.add or buffer2.count != 3)) and ((buffer3.count != 1 or (buffer2.add or buffer2.count != 3)) and buffer3.count != 3) -> (buffer3.remove or (buffer2.add or buffer2.count != 3)) and (buffer3.add or buffer3.count = 1 or (buffer3.count = 3 or (buffer2.add or buffer2.count != 3))) and ((buffer3.add or buffer3.count != 1 or (buffer2.add or buffer2.count != 3)) and (buffer3.add or buffer3.count != 3)) [forward reach using bounded saturation (transition: 7 of 12) (level: 7 of 18) with edge: (event: buffer3.c_add) (guard: buffer3.add -> (buffer3.remove or buffer3.count != 3) and buffer3.add) (assignments: buffer3.count := buffer3.count + 1)]
        Forward controlled-behavior: (buffer1.remove or buffer1.count != 0 or (buffer3.remove or (buffer2.add or buffer2.count != 3))) and ((buffer1.remove or (buffer1.count != 0 or buffer3.add) or (buffer3.count = 1 or buffer3.count = 3 or (buffer2.add or buffer2.count != 3))) and (buffer1.remove or (buffer1.count != 0 or buffer3.add) or (buffer3.count != 1 or (buffer2.add or buffer2.count != 3)))) and ((buffer1.remove or buffer1.count != 0 or (buffer3.add or buffer3.count != 3)) and (buffer1.remove or buffer1.count != 2) and ((buffer1.remove or (buffer1.count = 0 or buffer1.count = 2)) and buffer1.add)) -> (buffer1.count != 0 or buffer3.remove or (buffer2.add or buffer2.count != 3)) and ((buffer1.count != 0 or (buffer3.add or buffer3.count = 1) or (buffer3.count = 3 or (buffer2.add or buffer2.count != 3))) and (buffer1.count != 0 or buffer3.add or (buffer3.count != 1 or (buffer2.add or buffer2.count != 3)))) and ((buffer1.count != 0 or (buffer3.add or buffer3.count != 3)) and (buffer1.count != 2 and (buffer1.count = 0 or buffer1.count = 2))) [forward reach using bounded saturation (transition: 1 of 12) (level: 1 of 18) with edge: (event: buffer1.u_switch_loc) (guard: (buffer1.remove or buffer1.count != 3) and buffer1.add) (assignments: buffer1 := buffer1.remove)]
        Forward controlled-behavior: (buffer1.count != 0 or buffer3.remove or (buffer2.add or buffer2.count != 3)) and ((buffer1.count != 0 or (buffer3.add or buffer3.count = 1) or (buffer3.count = 3 or (buffer2.add or buffer2.count != 3))) and (buffer1.count != 0 or buffer3.add or (buffer3.count != 1 or (buffer2.add or buffer2.count != 3)))) and ((buffer1.count != 0 or (buffer3.add or buffer3.count != 3)) and (buffer1.count != 2 and (buffer1.count = 0 or buffer1.count = 2))) -> (buffer1.remove or (buffer1.count = 2 or buffer1.count = 3) or (buffer3.remove or (buffer2.add or buffer2.count != 3))) and (buffer1.remove or buffer1.count = 2 or (buffer1.count = 3 or buffer3.add) or (buffer3.count = 1 or buffer3.count = 3 or (buffer2.add or buffer2.count != 3))) and ((buffer1.remove or (buffer1.count = 2 or buffer1.count = 3) or (buffer3.add or buffer3.count != 1 or (buffer2.add or buffer2.count != 3))) and ((buffer1.remove or buffer1.count = 2 or (buffer1.count = 3 or (buffer3.add or buffer3.count != 3))) and (buffer1.remove or (buffer1.count = 0 or buffer1.count = 1)))) and ((buffer1.add or buffer1.count != 0 or (buffer3.remove or (buffer2.add or buffer2.count != 3))) and ((buffer1.add or (buffer1.count != 0 or buffer3.add) or (buffer3.count = 1 or buffer3.count = 3 or (buffer2.add or buffer2.count != 3))) and (buffer1.add or (buffer1.count != 0 or buffer3.add) or (buffer3.count != 1 or (buffer2.add or buffer2.count != 3)))) and ((buffer1.add or buffer1.count != 0 or (buffer3.add or buffer3.count != 3)) and ((buffer1.add or buffer1.count != 2) and (buffer1.add or (buffer1.count = 0 or buffer1.count = 2))))) [forward reach using bounded saturation (transition: 3 of 12) (level: 1 of 18) with edge: (event: buffer1.c_add) (guard: buffer1.add -> (buffer1.remove or buffer1.count != 3) and buffer1.add) (assignments: buffer1.count := buffer1.count + 1)]
        Forward controlled-behavior: (buffer1.remove or (buffer1.count = 2 or buffer1.count = 3) or (buffer3.remove or (buffer2.add or buffer2.count != 3))) and (buffer1.remove or buffer1.count = 2 or (buffer1.count = 3 or buffer3.add) or (buffer3.count = 1 or buffer3.count = 3 or (buffer2.add or buffer2.count != 3))) and ((buffer1.remove or (buffer1.count = 2 or buffer1.count = 3) or (buffer3.add or buffer3.count != 1 or (buffer2.add or buffer2.count != 3))) and ((buffer1.remove or buffer1.count = 2 or (buffer1.count = 3 or (buffer3.add or buffer3.count != 3))) and (buffer1.remove or (buffer1.count = 0 or buffer1.count = 1)))) and ((buffer1.add or buffer1.count != 0 or (buffer3.remove or (buffer2.add or buffer2.count != 3))) and ((buffer1.add or (buffer1.count != 0 or buffer3.add) or (buffer3.count = 1 or buffer3.count = 3 or (buffer2.add or buffer2.count != 3))) and (buffer1.add or (buffer1.count != 0 or buffer3.add) or (buffer3.count != 1 or (buffer2.add or buffer2.count != 3)))) and ((buffer1.add or buffer1.count != 0 or (buffer3.add or buffer3.count != 3)) and ((buffer1.add or buffer1.count != 2) and (buffer1.add or (buffer1.count = 0 or buffer1.count = 2))))) -> (buffer1.count = 2 or buffer1.count = 3 or (buffer3.remove or (buffer2.add or buffer2.count != 3))) and (buffer1.count = 2 or (buffer1.count = 3 or buffer3.add) or (buffer3.count = 1 or buffer3.count = 3 or (buffer2.add or buffer2.count != 3))) and ((buffer1.count = 2 or (buffer1.count = 3 or buffer3.add) or (buffer3.count != 1 or (buffer2.add or buffer2.count != 3))) and ((buffer1.count = 2 or buffer1.count = 3 or (buffer3.add or buffer3.count != 3)) and (buffer1.count = 0 or buffer1.count = 1))) [forward reach using bounded saturation (transition: 1 of 12) (level: 1 of 18) with edge: (event: buffer1.u_switch_loc) (guard: (buffer1.remove or buffer1.count != 3) and buffer1.add) (assignments: buffer1 := buffer1.remove)]
        Forward controlled-behavior: (buffer1.count = 2 or buffer1.count = 3 or (buffer3.remove or (buffer2.add or buffer2.count != 3))) and (buffer1.count = 2 or (buffer1.count = 3 or buffer3.add) or (buffer3.count = 1 or buffer3.count = 3 or (buffer2.add or buffer2.count != 3))) and ((buffer1.count = 2 or (buffer1.count = 3 or buffer3.add) or (buffer3.count != 1 or (buffer2.add or buffer2.count != 3))) and ((buffer1.count = 2 or buffer1.count = 3 or (buffer3.add or buffer3.count != 3)) and (buffer1.count = 0 or buffer1.count = 1))) -> <bdd 9n 27p> [forward reach using bounded saturation (transition: 3 of 12) (level: 1 of 18) with edge: (event: buffer1.c_add) (guard: buffer1.add -> (buffer1.remove or buffer1.count != 3) and buffer1.add) (assignments: buffer1.count := buffer1.count + 1)]
        Forward controlled-behavior: <bdd 9n 27p> -> (buffer1.count = 1 or buffer1.count = 3 or (buffer3.remove or (buffer2.add or buffer2.count != 3))) and (buffer1.count = 1 or (buffer1.count = 3 or buffer3.add) or (buffer3.count = 1 or buffer3.count = 3 or (buffer2.add or buffer2.count != 3))) and ((buffer1.count = 1 or (buffer1.count = 3 or buffer3.add) or (buffer3.count != 1 or (buffer2.add or buffer2.count != 3))) and (buffer1.count = 1 or buffer1.count = 3 or (buffer3.add or buffer3.count != 3))) and ((buffer1.count != 1 or buffer3.remove or (buffer2.add or buffer2.count != 3)) and (buffer1.count != 1 or (buffer3.add or buffer3.count = 1) or (buffer3.count = 3 or (buffer2.add or buffer2.count != 3))) and ((buffer1.count != 1 or buffer3.add or (buffer3.count != 1 or (buffer2.add or buffer2.count != 3))) and ((buffer1.count != 1 or (buffer3.add or buffer3.count != 3)) and buffer1.count != 3))) [forward reach using bounded saturation (transition: 1 of 12) (level: 1 of 18) with edge: (event: buffer1.u_switch_loc) (guard: (buffer1.remove or buffer1.count != 3) and buffer1.add) (assignments: buffer1 := buffer1.remove)]
        Forward controlled-behavior: (buffer1.count = 1 or buffer1.count = 3 or (buffer3.remove or (buffer2.add or buffer2.count != 3))) and (buffer1.count = 1 or (buffer1.count = 3 or buffer3.add) or (buffer3.count = 1 or buffer3.count = 3 or (buffer2.add or buffer2.count != 3))) and ((buffer1.count = 1 or (buffer1.count = 3 or buffer3.add) or (buffer3.count != 1 or (buffer2.add or buffer2.count != 3))) and (buffer1.count = 1 or buffer1.count = 3 or (buffer3.add or buffer3.count != 3))) and ((buffer1.count != 1 or buffer3.remove or (buffer2.add or buffer2.count != 3)) and (buffer1.count != 1 or (buffer3.add or buffer3.count = 1) or (buffer3.count = 3 or (buffer2.add or buffer2.count != 3))) and ((buffer1.count != 1 or buffer3.add or (buffer3.count != 1 or (buffer2.add or buffer2.count != 3))) and ((buffer1.count != 1 or (buffer3.add or buffer3.count != 3)) and buffer1.count != 3))) -> <bdd 14n 50p> [forward reach using bounded saturation (transition: 3 of 12) (level: 1 of 18) with edge: (event: buffer1.c_add) (guard: buffer1.add -> (buffer1.remove or buffer1.count != 3) and buffer1.add) (assignments: buffer1.count := buffer1.count + 1)]

        Forward controlled-behavior: <bdd 14n 50p> [fixed point].

        Controlled behavior: buffer1.count != 3 or (buffer3.count != 3 or buffer2.count != 3) -> <bdd 14n 50p>.

    Need another round.

Synthesis round 2:
    Computing backward controlled-behavior predicate:
        Saturation matrix:
                                    /------------------ 1  buffer1#0
                                    |/----------------- 2  buffer1#0+
                                    ||/---------------- 3  buffer1.count#0
                                    |||/--------------- 4  buffer1.count#0+
                                    ||||/-------------- 5  buffer1.count#1
                                    |||||/------------- 6  buffer1.count#1+
                                    ||||||/------------ 7  buffer3#0
                                    |||||||/----------- 8  buffer3#0+
                                    ||||||||/---------- 9  buffer3.count#0
                                    |||||||||/--------- 10 buffer3.count#0+
                                    ||||||||||/-------- 11 buffer3.count#1
                                    |||||||||||/------- 12 buffer3.count#1+
                                    ||||||||||||/------ 13 buffer2#0
                                    |||||||||||||/----- 14 buffer2#0+
                                    ||||||||||||||/---- 15 buffer2.count#0
                                    |||||||||||||||/--- 16 buffer2.count#0+
                                    ||||||||||||||||/-- 17 buffer2.count#1
                                    |||||||||||||||||/- 18 buffer2.count#1+
            1  buffer1.u_switch_loc rwr r
            2  buffer1.u_switch_loc rwr r
            3  buffer1.c_add        r rwrw
            4  buffer1.c_remove     r rwrw
            5  buffer3.u_switch_loc       rwr r
            6  buffer3.u_switch_loc       rwr r
            7  buffer3.c_add              r rwrw
            8  buffer3.c_remove           r rwrw
            9  buffer2.u_switch_loc             rwr r
            10 buffer2.u_switch_loc             rwr r
            11 buffer2.c_add                    r rwrw
            12 buffer2.c_remove                 r rwrw

        Backward controlled-behavior: true [marker predicate]
        Backward controlled-behavior: true -> <bdd 14n 50p> [restricted to current/previous controlled-behavior predicate: <bdd 14n 50p>]

        Backward controlled-behavior: <bdd 14n 50p> [fixed point].

        Controlled behavior not changed.

    Computing backward uncontrolled bad-state predicate:
        Saturation matrix:
                                   /------------------ 1  buffer1#0
                                   |/----------------- 2  buffer1#0+
                                   ||/---------------- 3  buffer1.count#0
                                   |||/--------------- 4  buffer1.count#0+
                                   ||||/-------------- 5  buffer1.count#1
                                   |||||/------------- 6  buffer1.count#1+
                                   ||||||/------------ 7  buffer3#0
                                   |||||||/----------- 8  buffer3#0+
                                   ||||||||/---------- 9  buffer3.count#0
                                   |||||||||/--------- 10 buffer3.count#0+
                                   ||||||||||/-------- 11 buffer3.count#1
                                   |||||||||||/------- 12 buffer3.count#1+
                                   ||||||||||||/------ 13 buffer2#0
                                   |||||||||||||/----- 14 buffer2#0+
                                   ||||||||||||||/---- 15 buffer2.count#0
                                   |||||||||||||||/--- 16 buffer2.count#0+
                                   ||||||||||||||||/-- 17 buffer2.count#1
                                   |||||||||||||||||/- 18 buffer2.count#1+
            1 buffer1.u_switch_loc rwr r
            2 buffer1.u_switch_loc rwr r
            3 buffer3.u_switch_loc       rwr r
            4 buffer3.u_switch_loc       rwr r
            5 buffer2.u_switch_loc             rwr r
            6 buffer2.u_switch_loc             rwr r

        Backward uncontrolled bad-state: <bdd 14n 23p> [current/previous controlled behavior predicate]

        Controlled behavior not changed.

    Finished: controlled behavior is stable.

Computing final controlled system guards:
    Edge (event: buffer1.c_add) (guard: buffer1.add -> (buffer1.remove or buffer1.count != 3) and buffer1.add) (assignments: buffer1.count := buffer1.count + 1): guard: (buffer1.remove or buffer1.count != 3) and buffer1.add -> <bdd 13n 32p>.
    Edge (event: buffer1.c_remove) (guard: buffer1.remove -> buffer1.remove and (buffer1.add or buffer1.count != 0)) (assignments: buffer1.count := buffer1.count - 1): guard: buffer1.remove and (buffer1.add or buffer1.count != 0) -> buffer1.remove and (buffer1.add or buffer1.count != 0) and ((buffer1.add or buffer1.count != 2 or (buffer3.remove or (buffer2.add or buffer2.count != 3))) and ((buffer1.add or (buffer1.count != 2 or buffer3.add) or (buffer3.count = 1 or buffer3.count = 3 or (buffer2.add or buffer2.count != 3))) and (buffer1.add or (buffer1.count != 2 or buffer3.add) or (buffer3.count != 1 or (buffer2.add or buffer2.count != 3))))) and ((buffer1.add or buffer1.count != 2 or (buffer3.add or buffer3.count != 3)) and (buffer1.add or (buffer1.count = 0 or buffer1.count = 2) or (buffer3.remove or (buffer2.add or buffer2.count != 3))) and ((buffer1.add or buffer1.count = 0 or (buffer1.count = 2 or buffer3.add) or (buffer3.count = 1 or buffer3.count = 3 or (buffer2.add or buffer2.count != 3))) and ((buffer1.add or (buffer1.count = 0 or buffer1.count = 2) or (buffer3.add or buffer3.count != 1 or (buffer2.add or buffer2.count != 3))) and (buffer1.add or buffer1.count = 0 or (buffer1.count = 2 or (buffer3.add or buffer3.count != 3)))))).
    Edge (event: buffer3.c_add) (guard: buffer3.add -> (buffer3.remove or buffer3.count != 3) and buffer3.add) (assignments: buffer3.count := buffer3.count + 1): guard: (buffer3.remove or buffer3.count != 3) and buffer3.add -> <bdd 14n 32p>.
    Edge (event: buffer3.c_remove) (guard: buffer3.remove -> buffer3.remove and (buffer3.add or buffer3.count != 0)) (assignments: buffer3.count := buffer3.count - 1): guard: buffer3.remove and (buffer3.add or buffer3.count != 0) -> (buffer1.remove or buffer3.remove) and ((buffer1.remove or (buffer3.add or buffer3.count != 0)) and (buffer1.remove or buffer3.add or (buffer3.count != 2 or (buffer2.add or buffer2.count != 3)))) and ((buffer1.remove or (buffer3.add or buffer3.count = 0) or (buffer3.count = 2 or (buffer2.add or buffer2.count != 3))) and ((buffer1.add or buffer1.count = 1 or (buffer1.count = 3 or buffer3.remove)) and (buffer1.add or buffer1.count = 1 or (buffer1.count = 3 or (buffer3.add or buffer3.count != 0))))) and ((buffer1.add or (buffer1.count = 1 or buffer1.count = 3) or (buffer3.add or buffer3.count != 2 or (buffer2.add or buffer2.count != 3))) and ((buffer1.add or buffer1.count = 1 or (buffer1.count = 3 or buffer3.add) or (buffer3.count = 0 or buffer3.count = 2 or (buffer2.add or buffer2.count != 3))) and (buffer1.add or (buffer1.count != 1 or buffer3.remove))) and ((buffer1.add or buffer1.count != 1 or (buffer3.add or buffer3.count != 0)) and (buffer1.add or (buffer1.count != 1 or buffer3.add) or (buffer3.count != 2 or (buffer2.add or buffer2.count != 3))) and ((buffer1.add or (buffer1.count != 1 or buffer3.add) or (buffer3.count = 0 or buffer3.count = 2 or (buffer2.add or buffer2.count != 3))) and (buffer1.add or buffer1.count != 3)))).
    Edge (event: buffer2.c_add) (guard: buffer2.add -> (buffer2.remove or buffer2.count != 3) and buffer2.add) (assignments: buffer2.count := buffer2.count + 1): guard: (buffer2.remove or buffer2.count != 3) and buffer2.add -> <bdd 15n 33p>.
    Edge (event: buffer2.c_remove) (guard: buffer2.remove -> buffer2.remove and (buffer2.add or buffer2.count != 0)) (assignments: buffer2.count := buffer2.count - 1): guard: buffer2.remove and (buffer2.add or buffer2.count != 0) -> (buffer1.remove or (buffer3.remove or buffer2.remove)) and (buffer1.remove or buffer3.remove or (buffer2.add or buffer2.count != 0)) and ((buffer1.remove or buffer3.add or (buffer3.count = 1 or (buffer3.count = 3 or buffer2.remove))) and ((buffer1.remove or (buffer3.add or buffer3.count = 1) or (buffer3.count = 3 or (buffer2.add or buffer2.count != 0))) and (buffer1.remove or buffer3.add or (buffer3.count != 1 or buffer2.remove)))) and ((buffer1.remove or buffer3.add or (buffer3.count != 1 or (buffer2.add or buffer2.count != 0))) and ((buffer1.remove or (buffer3.add or buffer3.count != 3)) and (buffer1.add or buffer1.count = 1 or (buffer1.count = 3 or (buffer3.remove or buffer2.remove)))) and ((buffer1.add or (buffer1.count = 1 or buffer1.count = 3) or (buffer3.remove or (buffer2.add or buffer2.count != 0))) and ((buffer1.add or (buffer1.count = 1 or buffer1.count = 3) or (buffer3.add or buffer3.count = 1 or (buffer3.count = 3 or buffer2.remove))) and (buffer1.add or buffer1.count = 1 or (buffer1.count = 3 or buffer3.add) or (buffer3.count = 1 or buffer3.count = 3 or (buffer2.add or buffer2.count != 0)))))) and ((buffer1.add or (buffer1.count = 1 or buffer1.count = 3) or (buffer3.add or (buffer3.count != 1 or buffer2.remove))) and (buffer1.add or (buffer1.count = 1 or buffer1.count = 3) or (buffer3.add or buffer3.count != 1 or (buffer2.add or buffer2.count != 0))) and ((buffer1.add or buffer1.count = 1 or (buffer1.count = 3 or (buffer3.add or buffer3.count != 3))) and ((buffer1.add or buffer1.count != 1 or (buffer3.remove or buffer2.remove)) and (buffer1.add or buffer1.count != 1 or (buffer3.remove or (buffer2.add or buffer2.count != 0))))) and ((buffer1.add or (buffer1.count != 1 or buffer3.add) or (buffer3.count = 1 or (buffer3.count = 3 or buffer2.remove))) and ((buffer1.add or (buffer1.count != 1 or buffer3.add) or (buffer3.count = 1 or buffer3.count = 3 or (buffer2.add or buffer2.count != 0))) and (buffer1.add or buffer1.count != 1 or (buffer3.add or (buffer3.count != 1 or buffer2.remove)))) and ((buffer1.add or (buffer1.count != 1 or buffer3.add) or (buffer3.count != 1 or (buffer2.add or buffer2.count != 0))) and ((buffer1.add or buffer1.count != 1 or (buffer3.add or buffer3.count != 3)) and (buffer1.add or buffer1.count != 3))))).

Cleaning up cached predicate of edges that were used when applying edges.

Final synthesis result:
    State: (controlled-behavior: <bdd 14n 50p>)
        Edge: (event: buffer1.u_switch_loc) (guard: (buffer1.remove or buffer1.count != 3) and buffer1.add) (assignments: buffer1 := buffer1.remove)
        Edge: (event: buffer1.u_switch_loc) (guard: buffer1.remove and (buffer1.add or buffer1.count != 0)) (assignments: buffer1 := buffer1.add)
        Edge: (event: buffer1.c_add) (guard: buffer1.add -> <bdd 13n 32p>) (assignments: buffer1.count := buffer1.count + 1)
        Edge: (event: buffer1.c_remove) (guard: buffer1.remove -> buffer1.remove and (buffer1.add or buffer1.count != 0) and ((buffer1.add or buffer1.count != 2 or (buffer3.remove or (buffer2.add or buffer2.count != 3))) and ((buffer1.add or (buffer1.count != 2 or buffer3.add) or (buffer3.count = 1 or buffer3.count = 3 or (buffer2.add or buffer2.count != 3))) and (buffer1.add or (buffer1.count != 2 or buffer3.add) or (buffer3.count != 1 or (buffer2.add or buffer2.count != 3))))) and ((buffer1.add or buffer1.count != 2 or (buffer3.add or buffer3.count != 3)) and (buffer1.add or (buffer1.count = 0 or buffer1.count = 2) or (buffer3.remove or (buffer2.add or buffer2.count != 3))) and ((buffer1.add or buffer1.count = 0 or (buffer1.count = 2 or buffer3.add) or (buffer3.count = 1 or buffer3.count = 3 or (buffer2.add or buffer2.count != 3))) and ((buffer1.add or (buffer1.count = 0 or buffer1.count = 2) or (buffer3.add or buffer3.count != 1 or (buffer2.add or buffer2.count != 3))) and (buffer1.add or buffer1.count = 0 or (buffer1.count = 2 or (buffer3.add or buffer3.count != 3))))))) (assignments: buffer1.count := buffer1.count - 1)
        Edge: (event: buffer3.u_switch_loc) (guard: (buffer3.remove or buffer3.count != 3) and buffer3.add) (assignments: buffer3 := buffer3.remove)
        Edge: (event: buffer3.u_switch_loc) (guard: buffer3.remove and (buffer3.add or buffer3.count != 0)) (assignments: buffer3 := buffer3.add)
        Edge: (event: buffer3.c_add) (guard: buffer3.add -> <bdd 14n 32p>) (assignments: buffer3.count := buffer3.count + 1)
        Edge: (event: buffer3.c_remove) (guard: buffer3.remove -> (buffer1.remove or buffer3.remove) and ((buffer1.remove or (buffer3.add or buffer3.count != 0)) and (buffer1.remove or buffer3.add or (buffer3.count != 2 or (buffer2.add or buffer2.count != 3)))) and ((buffer1.remove or (buffer3.add or buffer3.count = 0) or (buffer3.count = 2 or (buffer2.add or buffer2.count != 3))) and ((buffer1.add or buffer1.count = 1 or (buffer1.count = 3 or buffer3.remove)) and (buffer1.add or buffer1.count = 1 or (buffer1.count = 3 or (buffer3.add or buffer3.count != 0))))) and ((buffer1.add or (buffer1.count = 1 or buffer1.count = 3) or (buffer3.add or buffer3.count != 2 or (buffer2.add or buffer2.count != 3))) and ((buffer1.add or buffer1.count = 1 or (buffer1.count = 3 or buffer3.add) or (buffer3.count = 0 or buffer3.count = 2 or (buffer2.add or buffer2.count != 3))) and (buffer1.add or (buffer1.count != 1 or buffer3.remove))) and ((buffer1.add or buffer1.count != 1 or (buffer3.add or buffer3.count != 0)) and (buffer1.add or (buffer1.count != 1 or buffer3.add) or (buffer3.count != 2 or (buffer2.add or buffer2.count != 3))) and ((buffer1.add or (buffer1.count != 1 or buffer3.add) or (buffer3.count = 0 or buffer3.count = 2 or (buffer2.add or buffer2.count != 3))) and (buffer1.add or buffer1.count != 3))))) (assignments: buffer3.count := buffer3.count - 1)
        Edge: (event: buffer2.u_switch_loc) (guard: (buffer2.remove or buffer2.count != 3) and buffer2.add) (assignments: buffer2 := buffer2.remove)
        Edge: (event: buffer2.u_switch_loc) (guard: buffer2.remove and (buffer2.add or buffer2.count != 0)) (assignments: buffer2 := buffer2.add)
        Edge: (event: buffer2.c_add) (guard: buffer2.add -> <bdd 15n 33p>) (assignments: buffer2.count := buffer2.count + 1)
        Edge: (event: buffer2.c_remove) (guard: buffer2.remove -> (buffer1.remove or (buffer3.remove or buffer2.remove)) and (buffer1.remove or buffer3.remove or (buffer2.add or buffer2.count != 0)) and ((buffer1.remove or buffer3.add or (buffer3.count = 1 or (buffer3.count = 3 or buffer2.remove))) and ((buffer1.remove or (buffer3.add or buffer3.count = 1) or (buffer3.count = 3 or (buffer2.add or buffer2.count != 0))) and (buffer1.remove or buffer3.add or (buffer3.count != 1 or buffer2.remove)))) and ((buffer1.remove or buffer3.add or (buffer3.count != 1 or (buffer2.add or buffer2.count != 0))) and ((buffer1.remove or (buffer3.add or buffer3.count != 3)) and (buffer1.add or buffer1.count = 1 or (buffer1.count = 3 or (buffer3.remove or buffer2.remove)))) and ((buffer1.add or (buffer1.count = 1 or buffer1.count = 3) or (buffer3.remove or (buffer2.add or buffer2.count != 0))) and ((buffer1.add or (buffer1.count = 1 or buffer1.count = 3) or (buffer3.add or buffer3.count = 1 or (buffer3.count = 3 or buffer2.remove))) and (buffer1.add or buffer1.count = 1 or (buffer1.count = 3 or buffer3.add) or (buffer3.count = 1 or buffer3.count = 3 or (buffer2.add or buffer2.count != 0)))))) and ((buffer1.add or (buffer1.count = 1 or buffer1.count = 3) or (buffer3.add or (buffer3.count != 1 or buffer2.remove))) and (buffer1.add or (buffer1.count = 1 or buffer1.count = 3) or (buffer3.add or buffer3.count != 1 or (buffer2.add or buffer2.count != 0))) and ((buffer1.add or buffer1.count = 1 or (buffer1.count = 3 or (buffer3.add or buffer3.count != 3))) and ((buffer1.add or buffer1.count != 1 or (buffer3.remove or buffer2.remove)) and (buffer1.add or buffer1.count != 1 or (buffer3.remove or (buffer2.add or buffer2.count != 0))))) and ((buffer1.add or (buffer1.count != 1 or buffer3.add) or (buffer3.count = 1 or (buffer3.count = 3 or buffer2.remove))) and ((buffer1.add or (buffer1.count != 1 or buffer3.add) or (buffer3.count = 1 or buffer3.count = 3 or (buffer2.add or buffer2.count != 0))) and (buffer1.add or buffer1.count != 1 or (buffer3.add or (buffer3.count != 1 or buffer2.remove)))) and ((buffer1.add or (buffer1.count != 1 or buffer3.add) or (buffer3.count != 1 or (buffer2.add or buffer2.count != 0))) and ((buffer1.add or buffer1.count != 1 or (buffer3.add or buffer3.count != 3)) and (buffer1.add or buffer1.count != 3)))))) (assignments: buffer2.count := buffer2.count - 1)

Computing initialization predicate of the controlled system.

Controlled system: exactly 342 states.

Determining initialization predicate for output model:
    Initial (synthesis result):            <bdd 14n 50p>
    Initial (uncontrolled system):         buffer1.add and (buffer1.count = 0 and buffer3.add) and (buffer3.count = 0 and (buffer2.add and buffer2.count = 0))
    Initial (controlled system):           buffer1.add and (buffer1.count = 0 and buffer3.add) and (buffer3.count = 0 and (buffer2.add and buffer2.count = 0))
    Initial (removed by supervisor):       false
    Initial (added by supervisor):         true

    Initial (output model):                n/a

Determining supervisor guards for output model:
    Event buffer1.c_add: guard: <bdd 13n 32p>.
    Event buffer1.c_remove: guard: buffer1.remove and (buffer1.add or buffer1.count != 0) and ((buffer1.add or buffer1.count != 2 or (buffer3.remove or (buffer2.add or buffer2.count != 3))) and ((buffer1.add or (buffer1.count != 2 or buffer3.add) or (buffer3.count = 1 or buffer3.count = 3 or (buffer2.add or buffer2.count != 3))) and (buffer1.add or (buffer1.count != 2 or buffer3.add) or (buffer3.count != 1 or (buffer2.add or buffer2.count != 3))))) and ((buffer1.add or buffer1.count != 2 or (buffer3.add or buffer3.count != 3)) and (buffer1.add or (buffer1.count = 0 or buffer1.count = 2) or (buffer3.remove or (buffer2.add or buffer2.count != 3))) and ((buffer1.add or buffer1.count = 0 or (buffer1.count = 2 or buffer3.add) or (buffer3.count = 1 or buffer3.count = 3 or (buffer2.add or buffer2.count != 3))) and ((buffer1.add or (buffer1.count = 0 or buffer1.count = 2) or (buffer3.add or buffer3.count != 1 or (buffer2.add or buffer2.count != 3))) and (buffer1.add or buffer1.count = 0 or (buffer1.count = 2 or (buffer3.add or buffer3.count != 3)))))).
    Event buffer3.c_add: guard: <bdd 14n 32p>.
    Event buffer3.c_remove: guard: (buffer1.remove or buffer3.remove) and ((buffer1.remove or (buffer3.add or buffer3.count != 0)) and (buffer1.remove or buffer3.add or (buffer3.count != 2 or (buffer2.add or buffer2.count != 3)))) and ((buffer1.remove or (buffer3.add or buffer3.count = 0) or (buffer3.count = 2 or (buffer2.add or buffer2.count != 3))) and ((buffer1.add or buffer1.count = 1 or (buffer1.count = 3 or buffer3.remove)) and (buffer1.add or buffer1.count = 1 or (buffer1.count = 3 or (buffer3.add or buffer3.count != 0))))) and ((buffer1.add or (buffer1.count = 1 or buffer1.count = 3) or (buffer3.add or buffer3.count != 2 or (buffer2.add or buffer2.count != 3))) and ((buffer1.add or buffer1.count = 1 or (buffer1.count = 3 or buffer3.add) or (buffer3.count = 0 or buffer3.count = 2 or (buffer2.add or buffer2.count != 3))) and (buffer1.add or (buffer1.count != 1 or buffer3.remove))) and ((buffer1.add or buffer1.count != 1 or (buffer3.add or buffer3.count != 0)) and (buffer1.add or (buffer1.count != 1 or buffer3.add) or (buffer3.count != 2 or (buffer2.add or buffer2.count != 3))) and ((buffer1.add or (buffer1.count != 1 or buffer3.add) or (buffer3.count = 0 or buffer3.count = 2 or (buffer2.add or buffer2.count != 3))) and (buffer1.add or buffer1.count != 3)))).
    Event buffer2.c_add: guard: <bdd 15n 33p>.
    Event buffer2.c_remove: guard: (buffer1.remove or (buffer3.remove or buffer2.remove)) and (buffer1.remove or buffer3.remove or (buffer2.add or buffer2.count != 0)) and ((buffer1.remove or buffer3.add or (buffer3.count = 1 or (buffer3.count = 3 or buffer2.remove))) and ((buffer1.remove or (buffer3.add or buffer3.count = 1) or (buffer3.count = 3 or (buffer2.add or buffer2.count != 0))) and (buffer1.remove or buffer3.add or (buffer3.count != 1 or buffer2.remove)))) and ((buffer1.remove or buffer3.add or (buffer3.count != 1 or (buffer2.add or buffer2.count != 0))) and ((buffer1.remove or (buffer3.add or buffer3.count != 3)) and (buffer1.add or buffer1.count = 1 or (buffer1.count = 3 or (buffer3.remove or buffer2.remove)))) and ((buffer1.add or (buffer1.count = 1 or buffer1.count = 3) or (buffer3.remove or (buffer2.add or buffer2.count != 0))) and ((buffer1.add or (buffer1.count = 1 or buffer1.count = 3) or (buffer3.add or buffer3.count = 1 or (buffer3.count = 3 or buffer2.remove))) and (buffer1.add or buffer1.count = 1 or (buffer1.count = 3 or buffer3.add) or (buffer3.count = 1 or buffer3.count = 3 or (buffer2.add or buffer2.count != 0)))))) and ((buffer1.add or (buffer1.count = 1 or buffer1.count = 3) or (buffer3.add or (buffer3.count != 1 or buffer2.remove))) and (buffer1.add or (buffer1.count = 1 or buffer1.count = 3) or (buffer3.add or buffer3.count != 1 or (buffer2.add or buffer2.count != 0))) and ((buffer1.add or buffer1.count = 1 or (buffer1.count = 3 or (buffer3.add or buffer3.count != 3))) and ((buffer1.add or buffer1.count != 1 or (buffer3.remove or buffer2.remove)) and (buffer1.add or buffer1.count != 1 or (buffer3.remove or (buffer2.add or buffer2.count != 0))))) and ((buffer1.add or (buffer1.count != 1 or buffer3.add) or (buffer3.count = 1 or (buffer3.count = 3 or buffer2.remove))) and ((buffer1.add or (buffer1.count != 1 or buffer3.add) or (buffer3.count = 1 or buffer3.count = 3 or (buffer2.add or buffer2.count != 0))) and (buffer1.add or buffer1.count != 1 or (buffer3.add or (buffer3.count != 1 or buffer2.remove)))) and ((buffer1.add or (buffer1.count != 1 or buffer3.add) or (buffer3.count != 1 or (buffer2.add or buffer2.count != 0))) and ((buffer1.add or buffer1.count != 1 or (buffer3.add or buffer3.count != 3)) and (buffer1.add or buffer1.count != 3))))).

Checking post-synthesis for events that are never enabled.

Simplifying supervisor guards for output model:
    Simplification under the assumption of the plants.

    Event buffer1.c_add: guard: <bdd 13n 32p> -> <bdd 12n 32p> [assume buffer1.add].
    Event buffer1.c_remove: guard: buffer1.remove and (buffer1.add or buffer1.count != 0) and ((buffer1.add or buffer1.count != 2 or (buffer3.remove or (buffer2.add or buffer2.count != 3))) and ((buffer1.add or (buffer1.count != 2 or buffer3.add) or (buffer3.count = 1 or buffer3.count = 3 or (buffer2.add or buffer2.count != 3))) and (buffer1.add or (buffer1.count != 2 or buffer3.add) or (buffer3.count != 1 or (buffer2.add or buffer2.count != 3))))) and ((buffer1.add or buffer1.count != 2 or (buffer3.add or buffer3.count != 3)) and (buffer1.add or (buffer1.count = 0 or buffer1.count = 2) or (buffer3.remove or (buffer2.add or buffer2.count != 3))) and ((buffer1.add or buffer1.count = 0 or (buffer1.count = 2 or buffer3.add) or (buffer3.count = 1 or buffer3.count = 3 or (buffer2.add or buffer2.count != 3))) and ((buffer1.add or (buffer1.count = 0 or buffer1.count = 2) or (buffer3.add or buffer3.count != 1 or (buffer2.add or buffer2.count != 3))) and (buffer1.add or buffer1.count = 0 or (buffer1.count = 2 or (buffer3.add or buffer3.count != 3)))))) -> buffer1.count != 0 and (buffer1.count != 2 or buffer3.remove or (buffer2.add or buffer2.count != 3)) and ((buffer1.count != 2 or (buffer3.add or buffer3.count = 1) or (buffer3.count = 3 or (buffer2.add or buffer2.count != 3))) and (buffer1.count != 2 or buffer3.add or (buffer3.count != 1 or (buffer2.add or buffer2.count != 3)))) and ((buffer1.count != 2 or (buffer3.add or buffer3.count != 3)) and (buffer1.count = 0 or buffer1.count = 2 or (buffer3.remove or (buffer2.add or buffer2.count != 3))) and ((buffer1.count = 0 or (buffer1.count = 2 or buffer3.add) or (buffer3.count = 1 or buffer3.count = 3 or (buffer2.add or buffer2.count != 3))) and ((buffer1.count = 0 or (buffer1.count = 2 or buffer3.add) or (buffer3.count != 1 or (buffer2.add or buffer2.count != 3))) and (buffer1.count = 0 or buffer1.count = 2 or (buffer3.add or buffer3.count != 3))))) [assume buffer1.remove].
    Event buffer3.c_add: guard: <bdd 14n 32p> -> <bdd 12n 32p> [assume buffer3.add].
    Event buffer3.c_remove: guard: (buffer1.remove or buffer3.remove) and ((buffer1.remove or (buffer3.add or buffer3.count != 0)) and (buffer1.remove or buffer3.add or (buffer3.count != 2 or (buffer2.add or buffer2.count != 3)))) and ((buffer1.remove or (buffer3.add or buffer3.count = 0) or (buffer3.count = 2 or (buffer2.add or buffer2.count != 3))) and ((buffer1.add or buffer1.count = 1 or (buffer1.count = 3 or buffer3.remove)) and (buffer1.add or buffer1.count = 1 or (buffer1.count = 3 or (buffer3.add or buffer3.count != 0))))) and ((buffer1.add or (buffer1.count = 1 or buffer1.count = 3) or (buffer3.add or buffer3.count != 2 or (buffer2.add or buffer2.count != 3))) and ((buffer1.add or buffer1.count = 1 or (buffer1.count = 3 or buffer3.add) or (buffer3.count = 0 or buffer3.count = 2 or (buffer2.add or buffer2.count != 3))) and (buffer1.add or (buffer1.count != 1 or buffer3.remove))) and ((buffer1.add or buffer1.count != 1 or (buffer3.add or buffer3.count != 0)) and (buffer1.add or (buffer1.count != 1 or buffer3.add) or (buffer3.count != 2 or (buffer2.add or buffer2.count != 3))) and ((buffer1.add or (buffer1.count != 1 or buffer3.add) or (buffer3.count = 0 or buffer3.count = 2 or (buffer2.add or buffer2.count != 3))) and (buffer1.add or buffer1.count != 3)))) -> (buffer1.remove or buffer3.count != 0) and (buffer1.remove or buffer3.count != 2 or (buffer2.add or buffer2.count != 3)) and ((buffer1.remove or buffer3.count = 0 or (buffer3.count = 2 or (buffer2.add or buffer2.count != 3))) and ((buffer1.add or buffer1.count = 1 or (buffer1.count = 3 or buffer3.count != 0)) and (buffer1.add or (buffer1.count = 1 or buffer1.count = 3) or (buffer3.count != 2 or (buffer2.add or buffer2.count != 3))))) and ((buffer1.add or (buffer1.count = 1 or buffer1.count = 3) or (buffer3.count = 0 or buffer3.count = 2 or (buffer2.add or buffer2.count != 3))) and (buffer1.add or (buffer1.count != 1 or buffer3.count != 0)) and ((buffer1.add or buffer1.count != 1 or (buffer3.count != 2 or (buffer2.add or buffer2.count != 3))) and ((buffer1.add or (buffer1.count != 1 or buffer3.count = 0) or (buffer3.count = 2 or (buffer2.add or buffer2.count != 3))) and (buffer1.add or buffer1.count != 3)))) [assume buffer3.remove].
    Event buffer2.c_add: guard: <bdd 15n 33p> -> <bdd 13n 33p> [assume buffer2.add].
    Event buffer2.c_remove: guard: (buffer1.remove or (buffer3.remove or buffer2.remove)) and (buffer1.remove or buffer3.remove or (buffer2.add or buffer2.count != 0)) and ((buffer1.remove or buffer3.add or (buffer3.count = 1 or (buffer3.count = 3 or buffer2.remove))) and ((buffer1.remove or (buffer3.add or buffer3.count = 1) or (buffer3.count = 3 or (buffer2.add or buffer2.count != 0))) and (buffer1.remove or buffer3.add or (buffer3.count != 1 or buffer2.remove)))) and ((buffer1.remove or buffer3.add or (buffer3.count != 1 or (buffer2.add or buffer2.count != 0))) and ((buffer1.remove or (buffer3.add or buffer3.count != 3)) and (buffer1.add or buffer1.count = 1 or (buffer1.count = 3 or (buffer3.remove or buffer2.remove)))) and ((buffer1.add or (buffer1.count = 1 or buffer1.count = 3) or (buffer3.remove or (buffer2.add or buffer2.count != 0))) and ((buffer1.add or (buffer1.count = 1 or buffer1.count = 3) or (buffer3.add or buffer3.count = 1 or (buffer3.count = 3 or buffer2.remove))) and (buffer1.add or buffer1.count = 1 or (buffer1.count = 3 or buffer3.add) or (buffer3.count = 1 or buffer3.count = 3 or (buffer2.add or buffer2.count != 0)))))) and ((buffer1.add or (buffer1.count = 1 or buffer1.count = 3) or (buffer3.add or (buffer3.count != 1 or buffer2.remove))) and (buffer1.add or (buffer1.count = 1 or buffer1.count = 3) or (buffer3.add or buffer3.count != 1 or (buffer2.add or buffer2.count != 0))) and ((buffer1.add or buffer1.count = 1 or (buffer1.count = 3 or (buffer3.add or buffer3.count != 3))) and ((buffer1.add or buffer1.count != 1 or (buffer3.remove or buffer2.remove)) and (buffer1.add or buffer1.count != 1 or (buffer3.remove or (buffer2.add or buffer2.count != 0))))) and ((buffer1.add or (buffer1.count != 1 or buffer3.add) or (buffer3.count = 1 or (buffer3.count = 3 or buffer2.remove))) and ((buffer1.add or (buffer1.count != 1 or buffer3.add) or (buffer3.count = 1 or buffer3.count = 3 or (buffer2.add or buffer2.count != 0))) and (buffer1.add or buffer1.count != 1 or (buffer3.add or (buffer3.count != 1 or buffer2.remove)))) and ((buffer1.add or (buffer1.count != 1 or buffer3.add) or (buffer3.count != 1 or (buffer2.add or buffer2.count != 0))) and ((buffer1.add or buffer1.count != 1 or (buffer3.add or buffer3.count != 3)) and (buffer1.add or buffer1.count != 3))))) -> (buffer1.remove or (buffer3.remove or buffer2.count != 0)) and ((buffer1.remove or buffer3.add or (buffer3.count = 1 or (buffer3.count = 3 or buffer2.count != 0))) and (buffer1.remove or buffer3.add or (buffer3.count != 1 or buffer2.count != 0))) and ((buffer1.remove or (buffer3.add or buffer3.count != 3)) and ((buffer1.add or buffer1.count = 1 or (buffer1.count = 3 or (buffer3.remove or buffer2.count != 0))) and (buffer1.add or (buffer1.count = 1 or buffer1.count = 3) or (buffer3.add or buffer3.count = 1 or (buffer3.count = 3 or buffer2.count != 0))))) and ((buffer1.add or (buffer1.count = 1 or buffer1.count = 3) or (buffer3.add or (buffer3.count != 1 or buffer2.count != 0))) and ((buffer1.add or buffer1.count = 1 or (buffer1.count = 3 or (buffer3.add or buffer3.count != 3))) and (buffer1.add or buffer1.count != 1 or (buffer3.remove or buffer2.count != 0))) and ((buffer1.add or (buffer1.count != 1 or buffer3.add) or (buffer3.count = 1 or (buffer3.count = 3 or buffer2.count != 0))) and (buffer1.add or buffer1.count != 1 or (buffer3.add or (buffer3.count != 1 or buffer2.count != 0))) and ((buffer1.add or buffer1.count != 1 or (buffer3.add or buffer3.count != 3)) and (buffer1.add or buffer1.count != 3)))) [assume buffer2.remove].

Constructing output CIF specification.

Checking output CIF specification.

Writing output CIF file "datasynth/var_order_hyper_edge_linearized.ctrlsys.real.cif".
