WARNING: File "plcgen/generation/empty_edges.cif": Semantic warning at line 27, column 12: The alphabet of automaton "Block" globally disables event "noSync", as the event is not used on any of the edges of the automaton.
WARNING: File "plcgen/generation/empty_edges.cif": Semantic warning at line 27, column 20: Automaton "Block" monitors event "noMonitor", but the event is not used on any of the edges of the automaton.
WARNING: File "plcgen/generation/empty_edges.cif": Semantic warning at line 35, column 12: The alphabet of automaton "UseChannel" globally disables event "channel", as the event is not used on any of the edges of the automaton.
WARNING: The input specification has no controller properties annotation that specifies the bounded response property.
WARNING: The input specification has no controller properties annotation that specifies the confluence property.
WARNING: The input specification has no controller properties annotation that specifies the non-blocking under control property.
WARNING: Before generating PLC code, the bounded response, confluence and non-blocking under control properties of the CIF specification should be checked and should hold.
WARNING: Please apply the CIF controller properties checker on the CIF specification before generating PLC code from it.
WARNING: Using control code generated from a CIF specification without bounded response, confluence or non-blocking under control properties may result in undesired or unexpected behavior of the controlled system.
WARNING: Bounded response limit for uncontrollable events is not available, falling back to limitless trying of events until blocked.
WARNING: Bounded response limit for controllable events is not available, falling back to limitless trying of events until blocked.
WARNING: Maximum real type size supported by the PLC is less than the CIF real type size. Some values in the program may be truncated.
WARNING: I/O table file "plcgen/generation/empty_edges.csv" not found. The PLC code will not perform any I/O with the environment.
