Loading CIF specification "controllercheck/bounded_response/cycle_invert.cif".
Checking for bounded response:
    Converting CIF specification to a BDD representation:
        CIF variables and location pointers:
            Nr     Kind               Type  Name  Group  BDD vars  CIF values  BDD values  Values used
            -----  -----------------  ----  ----  -----  --------  ----------  ----------  -----------
            1      discrete variable  bool  p.xc  0      1 * 2     2 * 2       2 * 2       100%
            2      discrete variable  bool  p.xu  1      1 * 2     2 * 2       2 * 2       100%
            -----  -----------------  ----  ----  -----  --------  ----------  ----------  -----------
            Total                                 2      4         8           8           100%

        Applying variable ordering:
            Applying 4 orderers, sequentially:
                Applying sorted variable order:
                    Effect: both

                Applying DCSH algorithm:
                    Metric: wes
                    Relations: legacy
                    Effect: var-order
                    Number of hyper-edges: 7

                    Applying Weighted Cuthill-McKee algorithm:
                        Node finder: george-liu
                        Relations: legacy
                        Effect: var-order
                        Number of graph edges: 0

                        Skipping algorithm: no graph edges.

                    Found new best variable order.

                    Applying Sloan algorithm:
                        Relations: legacy
                        Effect: var-order
                        Number of graph edges: 0

                        Skipping algorithm: no graph edges.

                    Applying 2 orderers, sequentially:
                        Applying Weighted Cuthill-McKee algorithm:
                            Node finder: george-liu
                            Relations: legacy
                            Effect: var-order
                            Number of graph edges: 0

                            Skipping algorithm: no graph edges.

                        Reversing the variable order:
                            Relations: legacy
                            Effect: var-order
                            Number of hyper-edges: 7

                            Total span:   0 (total)   0.00 (avg/edge) / WES:   0.214286 (total)   0.030612 (avg/edge) [before]
                            Total span:   0 (total)   0.00 (avg/edge) / WES:   0.214286 (total)   0.030612 (avg/edge) [reversed]

                    Applying 2 orderers, sequentially:
                        Applying Sloan algorithm:
                            Relations: legacy
                            Effect: var-order
                            Number of graph edges: 0

                            Skipping algorithm: no graph edges.

                        Reversing the variable order:
                            Relations: legacy
                            Effect: var-order
                            Number of hyper-edges: 7

                            Total span:   0 (total)   0.00 (avg/edge) / WES:   0.214286 (total)   0.030612 (avg/edge) [before]
                            Total span:   0 (total)   0.00 (avg/edge) / WES:   0.214286 (total)   0.030612 (avg/edge) [reversed]

                Applying FORCE algorithm:
                    Metric: total-span
                    Relations: linearized
                    Effect: var-order
                    Number of hyper-edges: 4
                    Maximum number of iterations: 10

                    Total span:   0 (total)   0.00 (avg/edge) / WES:   0.250000 (total)   0.062500 (avg/edge) [before]
                    Total span:   0 (total)   0.00 (avg/edge) / WES:   0.250000 (total)   0.062500 (avg/edge) [iteration 1]
                    Total span:   0 (total)   0.00 (avg/edge) / WES:   0.250000 (total)   0.062500 (avg/edge) [after]

                Applying sliding window algorithm:
                    Size: 4
                    Metric: total-span
                    Relations: linearized
                    Effect: var-order
                    Number of hyper-edges: 4
                    Window length: 2

                    Total span:   0 (total)   0.00 (avg/edge) / WES:   0.250000 (total)   0.062500 (avg/edge) [before]
                    Total span:   0 (total)   0.00 (avg/edge) / WES:   0.250000 (total)   0.062500 (avg/edge) [after]

        Variable order unchanged.

        Restricting system behavior using state/event exclusion plant invariants:
            No guards changed.

    Computing states we can be in at the start of uncontrollable and controllable event loops:
        Round 1:
            Pre input states: not p.xc and not p.xu
            Pre uncontrollables states: false
            Pre controllables states: false

            Applying event loop for input variable events:
                No input variable events.

            Pre uncontrollables states: false -> not p.xc and not p.xu

            Applying event loop for uncontrollable events:
                Iteration 1 (states before iteration: not p.xc and not p.xu):
                    Event u1: not p.xc and not p.xu -> not p.xc and p.xu
                    Event u2: not p.xc and p.xu -> not p.xc and not p.xu
                    All iterations end states: not p.xc and not p.xu

                Iteration 2 (states before iteration: not p.xc and not p.xu):
                    Event u1: not p.xc and not p.xu -> not p.xc and p.xu
                    Event u2: not p.xc and p.xu -> not p.xc and not p.xu
                    All iterations end states: not p.xc and not p.xu

            Pre controllables states: false -> not p.xc and not p.xu

            Applying event loop for controllable events:
                Iteration 1 (states before iteration: not p.xc and not p.xu):
                    Event c1: not p.xc and not p.xu -> p.xc and not p.xu
                    Event c2: p.xc and not p.xu -> not p.xc and not p.xu
                    All iterations end states: not p.xc and not p.xu

                Iteration 2 (states before iteration: not p.xc and not p.xu):
                    Event c1: not p.xc and not p.xu -> p.xc and not p.xu
                    Event c2: p.xc and not p.xu -> not p.xc and not p.xu
                    All iterations end states: not p.xc and not p.xu

        Round 2:
            Pre input states: not p.xc and not p.xu
            Pre uncontrollables states: not p.xc and not p.xu
            Pre controllables states: not p.xc and not p.xu

            Applying event loop for input variable events:
                No input variable events.

            Applying event loop for uncontrollable events:
                Iteration 1 (states before iteration: not p.xc and not p.xu):
                    Event u1: not p.xc and not p.xu -> not p.xc and p.xu
                    Event u2: not p.xc and p.xu -> not p.xc and not p.xu
                    All iterations end states: not p.xc and not p.xu

                Iteration 2 (states before iteration: not p.xc and not p.xu):
                    Event u1: not p.xc and not p.xu -> not p.xc and p.xu
                    Event u2: not p.xc and p.xu -> not p.xc and not p.xu
                    All iterations end states: not p.xc and not p.xu

            Applying event loop for controllable events:
                Iteration 1 (states before iteration: not p.xc and not p.xu):
                    Event c1: not p.xc and not p.xu -> p.xc and not p.xu
                    Event c2: p.xc and not p.xu -> not p.xc and not p.xu
                    All iterations end states: not p.xc and not p.xu

                Iteration 2 (states before iteration: not p.xc and not p.xu):
                    Event c1: not p.xc and not p.xu -> p.xc and not p.xu
                    Event c2: p.xc and not p.xu -> not p.xc and not p.xu
                    All iterations end states: not p.xc and not p.xu

    Computing bound for uncontrollable events:
        Iteration 1 (states before iteration: not p.xc and not p.xu):
            Event u1: not p.xc and not p.xu -> not p.xc and p.xu
            Event u2: not p.xc and p.xu -> not p.xc and not p.xu

        Bound: n/a (cycle).

    Computing bound for controllable events:
        Iteration 1 (states before iteration: not p.xc and not p.xu):
            Event c1: not p.xc and not p.xu -> p.xc and not p.xu
            Event c2: p.xc and not p.xu -> not p.xc and not p.xu

        Bound: n/a (cycle).

    Bounded response check completed.

CONCLUSION:
    [ERROR] The specification does NOT have bounded response:

        - An infinite sequence of transitions is possible for uncontrollable events.

          Edges enabled in cycle(s):
            (event: u1) (guard: true) (assignments: p.xu := not p.xu)
            (event: u2) (guard: true) (assignments: p.xu := not p.xu)

          States in cycle(s) at end of event loop executions:
            p.xc=false, p.xu=false

        - An infinite sequence of transitions is possible for controllable events.

          Edges enabled in cycle(s):
            (event: c1) (guard: not p.xc) (assignments: p.xc := true)
            (event: c2) (guard: p.xc) (assignments: p.xc := false)

          States in cycle(s) at end of event loop executions:
            p.xc=false, p.xu=false

    [UNKNOWN] Non-blocking under control checking was disabled, non-blocking under control property is unknown.
    [UNKNOWN] Finite response checking was disabled, finite response property is unknown.
    [UNKNOWN] Confluence checking was disabled, confluence property is unknown.

The model with the check results has been written to "controllercheck/bounded_response/cycle_invert.Bxxx.out.cif.real".
