<?xml version="1.0" encoding="UTF-8" standalone="no"?>
<!--
  Copyright (c) 2010, 2025 Contributors to the Eclipse Foundation

  See the NOTICE file(s) distributed with this work for additional
  information regarding copyright ownership.

  This program and the accompanying materials are made available under the terms
  of the MIT License which is available at https://opensource.org/licenses/MIT

  SPDX-License-Identifier: MIT
-->
<!-- Created with Inkscape (http://www.inkscape.org/) -->

<svg
   xmlns:dc="http://purl.org/dc/elements/1.1/"
   xmlns:cc="http://creativecommons.org/ns#"
   xmlns:rdf="http://www.w3.org/1999/02/22-rdf-syntax-ns#"
   xmlns:svg="http://www.w3.org/2000/svg"
   xmlns="http://www.w3.org/2000/svg"
   xmlns:sodipodi="http://sodipodi.sourceforge.net/DTD/sodipodi-0.dtd"
   xmlns:inkscape="http://www.inkscape.org/namespaces/inkscape"
   width="800"
   height="500"
   id="svg2816"
   version="1.1"
   inkscape:version="0.47 r22583"
   sodipodi:docname="gbse.svg">
  <defs
     id="defs2818">
    <inkscape:perspective
       sodipodi:type="inkscape:persp3d"
       inkscape:vp_x="0 : 250 : 1"
       inkscape:vp_y="0 : 1000 : 0"
       inkscape:vp_z="800 : 250 : 1"
       inkscape:persp3d-origin="400 : 166.66667 : 1"
       id="perspective12" />
  </defs>
  <sodipodi:namedview
     id="base"
     pagecolor="#ffffff"
     bordercolor="#295e5c"
     borderopacity="0.8627451"
     inkscape:pageopacity="0.0"
     inkscape:pageshadow="0"
     inkscape:zoom="0.7710304"
     inkscape:cx="-165.23345"
     inkscape:cy="169.26507"
     inkscape:document-units="px"
     inkscape:current-layer="layer1"
     showgrid="false"
     inkscape:window-width="1418"
     inkscape:window-height="904"
     inkscape:window-x="212"
     inkscape:window-y="163"
     inkscape:window-maximized="0"
     borderlayer="true" />
  <metadata
     id="metadata2821">
    <rdf:RDF>
      <cc:Work
         rdf:about="">
        <dc:format>image/svg+xml</dc:format>
        <dc:type
           rdf:resource="http://purl.org/dc/dcmitype/StillImage" />
        <dc:title />
      </cc:Work>
    </rdf:RDF>
  </metadata>
  <g
     inkscape:label="Layer 1"
     inkscape:groupmode="layer"
     id="layer1"
     transform="translate(-22.615557,-542.76302)">
    <rect
       style="fill:#979a52;fill-opacity:0.57534246;stroke:#afafaf;stroke-width:0.40000001;stroke-linecap:square;stroke-miterlimit:4;stroke-opacity:1;stroke-dasharray:none"
       id="rect2828"
       width="146.28572"
       height="302.85715"
       x="22.815557"
       y="731.66083" />
    <rect
       style="fill:#979a52;fill-opacity:0.57534246;stroke:#afafaf;stroke-width:0.40000001;stroke-linecap:square;stroke-miterlimit:4;stroke-opacity:1;stroke-dasharray:none"
       id="buf0"
       width="73.142265"
       height="213.71423"
       x="59.386955"
       y="788.80371" />
    <rect
       style="fill:#979a52;fill-opacity:0.57534246;stroke:#afafaf;stroke-width:0.40000001;stroke-linecap:square;stroke-miterlimit:4;stroke-opacity:1;stroke-dasharray:none"
       id="rect2828-9"
       width="146.28572"
       height="302.85715"
       x="403.39786"
       y="739.70587" />
    <rect
       style="fill:#979a52;fill-opacity:0.57534246;stroke:#afafaf;stroke-width:0.40000001;stroke-linecap:square;stroke-miterlimit:4;stroke-opacity:1;stroke-dasharray:none"
       id="buf1"
       width="73.142265"
       height="213.71423"
       x="439.96927"
       y="796.84869" />
    <g
       id="server">
      <path
         transform="matrix(0.4,0,0,0.4,-147.56569,662.74193)"
         d="m 354.28572,738.07648 c 0,110.45695 -95.93898,200 -214.28572,200 -118.346736,0 -214.285721,-89.54305 -214.285721,-200 0,-110.45695 95.938985,-200 214.285721,-200 118.34674,0 214.28572,89.54305 214.28572,200 z"
         sodipodi:ry="200"
         sodipodi:rx="214.28572"
         sodipodi:cy="738.07648"
         sodipodi:cx="140"
         id="s"
         style="fill:#979a52;fill-opacity:0.57534246;stroke:#afafaf;stroke-width:1;stroke-linecap:square;stroke-miterlimit:4;stroke-opacity:1;stroke-dasharray:none"
         sodipodi:type="arc" />
    </g>
  </g>
</svg>
