WARNING: File "tchecker/svg_out_transform_affected_by_ancestor.cif": Semantic warning at line 20, column 23: The SVG output mapping specifies a transformation that is combined with transformation "rotate(45,10.5,27.5)" of its ancestor element with id "g2".
WARNING: File "tchecker/svg_out_transform_affected_by_ancestor.cif": Semantic warning at line 23, column 23: The SVG output mapping specifies a transformation that is combined with transformation "matrix(0.7,0,0,0.7,0.7,11.2)" of its ancestor element with id "g3".
WARNING: File "tchecker/svg_out_transform_affected_by_ancestor.cif": Semantic warning at line 26, column 23: The SVG output mapping specifies a transformation that is combined with transformation "scale(1.1)" of its ancestor element with id "g4".
WARNING: File "tchecker/svg_out_transform_affected_by_ancestor.cif": Semantic warning at line 29, column 23: The SVG output mapping specifies a transformation that is combined with transformation "scaleX(1.1)" of its ancestor element with id "g5".
WARNING: File "tchecker/svg_out_transform_affected_by_ancestor.cif": Semantic warning at line 32, column 23: The SVG output mapping specifies a transformation that is combined with transformation "scaleY(1.1)" of its ancestor element with id "g6".
WARNING: File "tchecker/svg_out_transform_affected_by_ancestor.cif": Semantic warning at line 35, column 23: The SVG output mapping specifies a transformation that is combined with transformation "skew(3, 3)" of its ancestor element with id "g7".
WARNING: File "tchecker/svg_out_transform_affected_by_ancestor.cif": Semantic warning at line 38, column 23: The SVG output mapping specifies a transformation that is combined with transformation "skewX(3)" of its ancestor element with id "g8".
WARNING: File "tchecker/svg_out_transform_affected_by_ancestor.cif": Semantic warning at line 41, column 23: The SVG output mapping specifies a transformation that is combined with transformation "skewY(3)" of its ancestor element with id "g9".
WARNING: File "tchecker/svg_out_transform_affected_by_ancestor.cif": Semantic warning at line 44, column 24: The SVG output mapping specifies a transformation that is combined with transformation "rotate(45,10.5,87.5)" of its ancestor element with id "g10".
WARNING: File "tchecker/svg_out_transform_affected_by_ancestor.cif": Semantic warning at line 50, column 24: The SVG output mapping specifies a transformation that is combined with transformation "skewX(1)" of a nameless ancestor element.
