Loading CIF specification "controllercheck/common/anno_true_to_false.cif".
Checking for bounded response:
    Converting CIF specification to a BDD representation:
        CIF variables and location pointers:
            Nr     Kind               Type  Name  Group  BDD vars  CIF values  BDD values  Values used
            -----  -----------------  ----  ----  -----  --------  ----------  ----------  -----------
            1      location pointer   n/a   p     0      1 * 2     2 * 2       2 * 2       100%
            2      discrete variable  bool  p.v   1      1 * 2     2 * 2       2 * 2       100%
            -----  -----------------  ----  ----  -----  --------  ----------  ----------  -----------
            Total                                 2      4         8           8           100%

        Applying variable ordering:
            Applying 4 orderers, sequentially:
                Applying sorted variable order:
                    Effect: both

                Applying DCSH algorithm:
                    Metric: wes
                    Relations: legacy
                    Effect: var-order
                    Number of hyper-edges: 6

                    Applying Weighted Cuthill-McKee algorithm:
                        Node finder: george-liu
                        Relations: legacy
                        Effect: var-order
                        Number of graph edges: 1

                        Total span:   2 (total)   0.33 (avg/edge) / WES:   0.500000 (total)   0.083333 (avg/edge) [before]
                        Total span:   2 (total)   0.33 (avg/edge) / WES:   0.500000 (total)   0.083333 (avg/edge) [after]

                    Found new best variable order.

                    Applying Sloan algorithm:
                        Relations: legacy
                        Effect: var-order
                        Number of graph edges: 1

                        Total span:   2 (total)   0.33 (avg/edge) / WES:   0.500000 (total)   0.083333 (avg/edge) [before]
                        Total span:   2 (total)   0.33 (avg/edge) / WES:   0.500000 (total)   0.083333 (avg/edge) [after]

                    Applying 2 orderers, sequentially:
                        Applying Weighted Cuthill-McKee algorithm:
                            Node finder: george-liu
                            Relations: legacy
                            Effect: var-order
                            Number of graph edges: 1

                            Total span:   2 (total)   0.33 (avg/edge) / WES:   0.500000 (total)   0.083333 (avg/edge) [before]
                            Total span:   2 (total)   0.33 (avg/edge) / WES:   0.500000 (total)   0.083333 (avg/edge) [after]

                        Reversing the variable order:
                            Relations: legacy
                            Effect: var-order
                            Number of hyper-edges: 6

                            Total span:   2 (total)   0.33 (avg/edge) / WES:   0.500000 (total)   0.083333 (avg/edge) [before]
                            Total span:   2 (total)   0.33 (avg/edge) / WES:   0.500000 (total)   0.083333 (avg/edge) [reversed]

                    Applying 2 orderers, sequentially:
                        Applying Sloan algorithm:
                            Relations: legacy
                            Effect: var-order
                            Number of graph edges: 1

                            Total span:   2 (total)   0.33 (avg/edge) / WES:   0.500000 (total)   0.083333 (avg/edge) [before]
                            Total span:   2 (total)   0.33 (avg/edge) / WES:   0.500000 (total)   0.083333 (avg/edge) [after]

                        Reversing the variable order:
                            Relations: legacy
                            Effect: var-order
                            Number of hyper-edges: 6

                            Total span:   2 (total)   0.33 (avg/edge) / WES:   0.500000 (total)   0.083333 (avg/edge) [before]
                            Total span:   2 (total)   0.33 (avg/edge) / WES:   0.500000 (total)   0.083333 (avg/edge) [reversed]

                Applying FORCE algorithm:
                    Metric: total-span
                    Relations: linearized
                    Effect: var-order
                    Number of hyper-edges: 5
                    Maximum number of iterations: 10

                    Total span:   2 (total)   0.40 (avg/edge) / WES:   0.400000 (total)   0.080000 (avg/edge) [before]
                    Total span:   2 (total)   0.40 (avg/edge) / WES:   0.400000 (total)   0.080000 (avg/edge) [iteration 1]
                    Total span:   2 (total)   0.40 (avg/edge) / WES:   0.400000 (total)   0.080000 (avg/edge) [after]

                Applying sliding window algorithm:
                    Size: 4
                    Metric: total-span
                    Relations: linearized
                    Effect: var-order
                    Number of hyper-edges: 5
                    Window length: 2

                    Total span:   2 (total)   0.40 (avg/edge) / WES:   0.400000 (total)   0.080000 (avg/edge) [before]
                    Total span:   2 (total)   0.40 (avg/edge) / WES:   0.400000 (total)   0.080000 (avg/edge) [after]

        Variable order unchanged.

        Restricting system behavior using state/event exclusion plant invariants:
            No guards changed.

    Computing states we can be in at the start of uncontrollable and controllable event loops:
        Round 1:
            Pre input states: p.loc1 and not p.v
            Pre uncontrollables states: false
            Pre controllables states: false

            Applying event loop for input variable events:
                No input variable events.

            Pre uncontrollables states: false -> p.loc1 and not p.v

            Applying event loop for uncontrollable events:
                Iteration 1 (states before iteration: p.loc1 and not p.v):
                    1 edge enabled. No state changes.
                    All iterations end states: p.loc1 and not p.v

                Iteration 2 (states before iteration: p.loc1 and not p.v):
                    1 edge enabled. No state changes.
                    All iterations end states: p.loc1 and not p.v

            Pre controllables states: false -> p.loc1 and not p.v

            Applying event loop for controllable events:
                Iteration 1 (states before iteration: p.loc1 and not p.v):
                    Event a: p.loc1 and not p.v -> p.loc2 and not p.v
                    All iterations end states: p.loc2 and not p.v

                Iteration 2 (states before iteration: p.loc2 and not p.v):
                    1 edge enabled. No state changes.
                    All iterations end states: p.loc2 and not p.v

            Pre input states: p.loc1 and not p.v -> not p.v

        Round 2:
            Pre input states: not p.v
            Pre uncontrollables states: p.loc1 and not p.v
            Pre controllables states: p.loc1 and not p.v

            Applying event loop for input variable events:
                No input variable events.

            Pre uncontrollables states: p.loc1 and not p.v -> not p.v

            Applying event loop for uncontrollable events:
                Iteration 1 (states before iteration: not p.v):
                    1 edge enabled. No state changes.
                    All iterations end states: not p.v

                Iteration 2 (states before iteration: not p.v):
                    1 edge enabled. No state changes.
                    All iterations end states: not p.v

            Pre controllables states: p.loc1 and not p.v -> not p.v

            Applying event loop for controllable events:
                Iteration 1 (states before iteration: not p.v):
                    Event a: not p.v -> p.loc2 and not p.v
                    All iterations end states: p.loc2 and not p.v

                Iteration 2 (states before iteration: p.loc2 and not p.v):
                    1 edge enabled. No state changes.
                    All iterations end states: p.loc2 and not p.v

        Round 3:
            Pre input states: not p.v
            Pre uncontrollables states: not p.v
            Pre controllables states: not p.v

            Applying event loop for input variable events:
                No input variable events.

            Applying event loop for uncontrollable events:
                Iteration 1 (states before iteration: not p.v):
                    1 edge enabled. No state changes.
                    All iterations end states: not p.v

                Iteration 2 (states before iteration: not p.v):
                    1 edge enabled. No state changes.
                    All iterations end states: not p.v

            Applying event loop for controllable events:
                Iteration 1 (states before iteration: not p.v):
                    Event a: not p.v -> p.loc2 and not p.v
                    All iterations end states: p.loc2 and not p.v

                Iteration 2 (states before iteration: p.loc2 and not p.v):
                    1 edge enabled. No state changes.
                    All iterations end states: p.loc2 and not p.v

    Computing bound for uncontrollable events:
        Iteration 1 (states before iteration: not p.v):
            1 edge enabled. No state changes.

        Bound: n/a (cycle).

    Computing bound for controllable events:
        Iteration 1 (states before iteration: not p.v):
            Event a: not p.v -> p.loc2 and not p.v

        Iteration 2 (states before iteration: p.loc2 and not p.v):
            1 edge enabled. No state changes.

        Bound: n/a (cycle).

    Bounded response check completed.

Checking for non-blocking under control:
    Converting CIF specification to a BDD representation:
        CIF variables and location pointers:
            Nr     Kind               Type  Name  Group  BDD vars  CIF values  BDD values  Values used
            -----  -----------------  ----  ----  -----  --------  ----------  ----------  -----------
            1      location pointer   n/a   p     0      1 * 2     2 * 2       2 * 2       100%
            2      discrete variable  bool  p.v   1      1 * 2     2 * 2       2 * 2       100%
            -----  -----------------  ----  ----  -----  --------  ----------  ----------  -----------
            Total                                 2      4         8           8           100%

        Applying variable ordering:
            Applying 4 orderers, sequentially:
                Applying sorted variable order:
                    Effect: both

                Applying DCSH algorithm:
                    Metric: wes
                    Relations: legacy
                    Effect: var-order
                    Number of hyper-edges: 6

                    Applying Weighted Cuthill-McKee algorithm:
                        Node finder: george-liu
                        Relations: legacy
                        Effect: var-order
                        Number of graph edges: 1

                        Total span:   2 (total)   0.33 (avg/edge) / WES:   0.500000 (total)   0.083333 (avg/edge) [before]
                        Total span:   2 (total)   0.33 (avg/edge) / WES:   0.500000 (total)   0.083333 (avg/edge) [after]

                    Found new best variable order.

                    Applying Sloan algorithm:
                        Relations: legacy
                        Effect: var-order
                        Number of graph edges: 1

                        Total span:   2 (total)   0.33 (avg/edge) / WES:   0.500000 (total)   0.083333 (avg/edge) [before]
                        Total span:   2 (total)   0.33 (avg/edge) / WES:   0.500000 (total)   0.083333 (avg/edge) [after]

                    Applying 2 orderers, sequentially:
                        Applying Weighted Cuthill-McKee algorithm:
                            Node finder: george-liu
                            Relations: legacy
                            Effect: var-order
                            Number of graph edges: 1

                            Total span:   2 (total)   0.33 (avg/edge) / WES:   0.500000 (total)   0.083333 (avg/edge) [before]
                            Total span:   2 (total)   0.33 (avg/edge) / WES:   0.500000 (total)   0.083333 (avg/edge) [after]

                        Reversing the variable order:
                            Relations: legacy
                            Effect: var-order
                            Number of hyper-edges: 6

                            Total span:   2 (total)   0.33 (avg/edge) / WES:   0.500000 (total)   0.083333 (avg/edge) [before]
                            Total span:   2 (total)   0.33 (avg/edge) / WES:   0.500000 (total)   0.083333 (avg/edge) [reversed]

                    Applying 2 orderers, sequentially:
                        Applying Sloan algorithm:
                            Relations: legacy
                            Effect: var-order
                            Number of graph edges: 1

                            Total span:   2 (total)   0.33 (avg/edge) / WES:   0.500000 (total)   0.083333 (avg/edge) [before]
                            Total span:   2 (total)   0.33 (avg/edge) / WES:   0.500000 (total)   0.083333 (avg/edge) [after]

                        Reversing the variable order:
                            Relations: legacy
                            Effect: var-order
                            Number of hyper-edges: 6

                            Total span:   2 (total)   0.33 (avg/edge) / WES:   0.500000 (total)   0.083333 (avg/edge) [before]
                            Total span:   2 (total)   0.33 (avg/edge) / WES:   0.500000 (total)   0.083333 (avg/edge) [reversed]

                Applying FORCE algorithm:
                    Metric: total-span
                    Relations: linearized
                    Effect: var-order
                    Number of hyper-edges: 5
                    Maximum number of iterations: 10

                    Total span:   2 (total)   0.40 (avg/edge) / WES:   0.400000 (total)   0.080000 (avg/edge) [before]
                    Total span:   2 (total)   0.40 (avg/edge) / WES:   0.400000 (total)   0.080000 (avg/edge) [iteration 1]
                    Total span:   2 (total)   0.40 (avg/edge) / WES:   0.400000 (total)   0.080000 (avg/edge) [after]

                Applying sliding window algorithm:
                    Size: 4
                    Metric: total-span
                    Relations: linearized
                    Effect: var-order
                    Number of hyper-edges: 5
                    Window length: 2

                    Total span:   2 (total)   0.40 (avg/edge) / WES:   0.400000 (total)   0.080000 (avg/edge) [before]
                    Total span:   2 (total)   0.40 (avg/edge) / WES:   0.400000 (total)   0.080000 (avg/edge) [after]

        Variable order unchanged.

        Restricting system behavior using state/event exclusion plant invariants:
            No guards changed.

    Computing the condition for no controllable event to be enabled:
        Condition under which no controllable event is enabled: false

    Computing the controllable-complete path states:
        Saturation matrix:
                /---- 1 p#0
                |/--- 2 p#0+
                ||/-- 3 p.v#0
                |||/- 4 p.v#0+
            1 a rwrw
            2 b rwrw
            3 c
            4 u

        Controllable-complete path states: false [controllable-complete path end states predicate]

        Controllable-complete path states: false

    Computing the bad states:
        Saturation matrix:
                /---- 1 p#0
                |/--- 2 p#0+
                ||/-- 3 p.v#0
                |||/- 4 p.v#0+
            1 a rwrw
            2 b rwrw
            3 c
            4 u

        Bad states: true [not controllable-complete path states predicate]

        Bad states: true

    Computing the result of the non-blocking under control check:
        Initial states: p.loc1 and not p.v
        Bad initial states: p.loc1 and not p.v

    Non-blocking under control: no

Checking for finite response:
    Converting CIF specification to an MDD representation:
        Analyzing automaton "p":
            Initializing the automaton data for event "c".
            Initializing the automaton data for event "a".
            Initializing the automaton data for event "b".
            Processing edges from location "loc1" of automaton "p".
            Processing edges from location "loc2" of automaton "p".
            Updating global guards for event "c".
            Updating global guards for event "a".
            Updating global guards for event "b".

    Iteration 1.
        The following events have been encountered in a controllable-event loop of automaton p:
            (c), which is not controllable unconnectable.

    Iteration 2.
        The following events have been encountered in a controllable-event loop of automaton p:
            (c), which is not controllable unconnectable.

Checking for confluence:
    Converting CIF specification to a BDD representation:
        CIF variables and location pointers:
            Nr     Kind               Type  Name  Group  BDD vars  CIF values  BDD values  Values used
            -----  -----------------  ----  ----  -----  --------  ----------  ----------  -----------
            1      location pointer   n/a   p     0      1 * 4     2 * 4       2 * 4       100%
            2      discrete variable  bool  p.v   1      1 * 4     2 * 4       2 * 4       100%
            -----  -----------------  ----  ----  -----  --------  ----------  ----------  -----------
            Total                                 2      8         16          16          100%

        Applying variable ordering:
            Applying 4 orderers, sequentially:
                Applying sorted variable order:
                    Effect: both

                Applying DCSH algorithm:
                    Metric: wes
                    Relations: legacy
                    Effect: var-order
                    Number of hyper-edges: 6

                    Applying Weighted Cuthill-McKee algorithm:
                        Node finder: george-liu
                        Relations: legacy
                        Effect: var-order
                        Number of graph edges: 1

                        Total span:   2 (total)   0.33 (avg/edge) / WES:   0.500000 (total)   0.083333 (avg/edge) [before]
                        Total span:   2 (total)   0.33 (avg/edge) / WES:   0.500000 (total)   0.083333 (avg/edge) [after]

                    Found new best variable order.

                    Applying Sloan algorithm:
                        Relations: legacy
                        Effect: var-order
                        Number of graph edges: 1

                        Total span:   2 (total)   0.33 (avg/edge) / WES:   0.500000 (total)   0.083333 (avg/edge) [before]
                        Total span:   2 (total)   0.33 (avg/edge) / WES:   0.500000 (total)   0.083333 (avg/edge) [after]

                    Applying 2 orderers, sequentially:
                        Applying Weighted Cuthill-McKee algorithm:
                            Node finder: george-liu
                            Relations: legacy
                            Effect: var-order
                            Number of graph edges: 1

                            Total span:   2 (total)   0.33 (avg/edge) / WES:   0.500000 (total)   0.083333 (avg/edge) [before]
                            Total span:   2 (total)   0.33 (avg/edge) / WES:   0.500000 (total)   0.083333 (avg/edge) [after]

                        Reversing the variable order:
                            Relations: legacy
                            Effect: var-order
                            Number of hyper-edges: 6

                            Total span:   2 (total)   0.33 (avg/edge) / WES:   0.500000 (total)   0.083333 (avg/edge) [before]
                            Total span:   2 (total)   0.33 (avg/edge) / WES:   0.500000 (total)   0.083333 (avg/edge) [reversed]

                    Applying 2 orderers, sequentially:
                        Applying Sloan algorithm:
                            Relations: legacy
                            Effect: var-order
                            Number of graph edges: 1

                            Total span:   2 (total)   0.33 (avg/edge) / WES:   0.500000 (total)   0.083333 (avg/edge) [before]
                            Total span:   2 (total)   0.33 (avg/edge) / WES:   0.500000 (total)   0.083333 (avg/edge) [after]

                        Reversing the variable order:
                            Relations: legacy
                            Effect: var-order
                            Number of hyper-edges: 6

                            Total span:   2 (total)   0.33 (avg/edge) / WES:   0.500000 (total)   0.083333 (avg/edge) [before]
                            Total span:   2 (total)   0.33 (avg/edge) / WES:   0.500000 (total)   0.083333 (avg/edge) [reversed]

                Applying FORCE algorithm:
                    Metric: total-span
                    Relations: linearized
                    Effect: var-order
                    Number of hyper-edges: 5
                    Maximum number of iterations: 10

                    Total span:   2 (total)   0.40 (avg/edge) / WES:   0.400000 (total)   0.080000 (avg/edge) [before]
                    Total span:   2 (total)   0.40 (avg/edge) / WES:   0.400000 (total)   0.080000 (avg/edge) [iteration 1]
                    Total span:   2 (total)   0.40 (avg/edge) / WES:   0.400000 (total)   0.080000 (avg/edge) [after]

                Applying sliding window algorithm:
                    Size: 4
                    Metric: total-span
                    Relations: linearized
                    Effect: var-order
                    Number of hyper-edges: 5
                    Window length: 2

                    Total span:   2 (total)   0.40 (avg/edge) / WES:   0.400000 (total)   0.080000 (avg/edge) [before]
                    Total span:   2 (total)   0.40 (avg/edge) / WES:   0.400000 (total)   0.080000 (avg/edge) [after]

        Variable order unchanged.

        Restricting system behavior using state/event exclusion plant invariants:
            No guards changed.

    Independent event pairs:
        (a, c), (b, c)

    Some pairs unproven. Confluence may not hold.

CONCLUSION:
    [ERROR] The specification does NOT have bounded response:

        - An infinite sequence of transitions is possible for uncontrollable events.

          Edge enabled in cycle(s):
            (event: u) (guard: p.loc1)

          States in cycle(s) at end of event loop executions:
            p.v=false

        - An infinite sequence of transitions is possible for controllable events.

          Edge enabled in cycle(s):
            (event: c) (guard: p.loc2)

          States in cycle(s) at end of event loop executions:
            p=loc2, p.v=false

    [ERROR] The specification is NOT non-blocking under control.

    [ERROR] The specification may NOT have finite response:

        At least one controllable-event loop was found.
        The following events might still occur in a controllable-event loop:
            - c

    [ERROR] The specification may NOT have confluence:

        Confluence of the following event pair could not be decided:
            (a, b)

The model with the check results has been written to "controllercheck/common/anno_true_to_false.BCFN.out.cif.real".
