Loading CIF specification "controllercheck/finite_response/input_variable.cif".
Checking for finite response:
    Converting CIF specification to an MDD representation:
        Analyzing automaton "Actuator":
            Initializing the automaton data for event "Actuator.c_on".
            Initializing the automaton data for event "Actuator.c_off".
            Processing edges from location "Off" of automaton "Actuator".
            Processing edges from location "On" of automaton "Actuator".
            Updating global guards for event "Actuator.c_on".
            Updating global guards for event "Actuator.c_off".

        Analyzing automaton "SupervisorStateEvtExcls":
            Initializing the automaton data for event "Actuator.c_on".
            Initializing the automaton data for event "Actuator.c_off".
            Processing edges from the location of automaton "SupervisorStateEvtExcls".
            Updating global guards for event "Actuator.c_on".
            Updating global guards for event "Actuator.c_off".

    Iteration 1.
        The following events have been encountered in a controllable-event loop of automaton Actuator:
            (Actuator.c_on Actuator.c_off), which is controllable unconnectable.

CONCLUSION:
    [UNKNOWN] Bounded response checking was disabled, bounded response property is unknown.
    [UNKNOWN] Non-blocking under control checking was disabled, non-blocking under control property is unknown.
    [OK] The specification has finite response.
    [UNKNOWN] Confluence checking was disabled, confluence property is unknown.

The model with the check results has been written to "controllercheck/finite_response/input_variable.xxFx.out.cif.real".
